{
    "_id": "9bMjxEnzFuJfWyP8",
    "data": {
        "attributes": {
            "ac": {
                "value": 18
            },
            "hardness": 10,
            "hasHealth": true,
            "hp": {
                "details": "per tree",
                "max": 40,
                "temp": 0,
                "value": 40
            },
            "stealth": {
                "details": "<p>(trained) to determine the trees can move</p>",
                "value": 2
            }
        },
        "creatureType": "",
        "details": {
            "description": "<p>A forest of fiendish trees swing their branches and shift their roots to bludgeon and trip creatures in the tainted grove (area <strong>A21</strong>).</p>",
            "disable": "<p>@Check[type:survival|dc:22|name:Find a Safe Location|traits:hazard,complex,environmental] (trained) to find a location the trees can't reach or @Check[type:religion|dc:24|name:Cast Out the Fiendish Energy|traits:hazard,complex,environmental] to recite a prayer that temporarily casts out the fiendish energy inside a single tree in the grove, disabling it for 1 minute. A disabled or destroyed tree creates a 5‑foot‑square area in the grove that's safe from this hazard.</p>",
            "isComplex": true,
            "level": {
                "value": 4
            },
            "reset": "<p>The Abyss-warped trees cease moving 1 minute after no living creatures are in the tainted grove. They reset immediately. A disabled tree reanimates after 1 minute. A destroyed tree regrows after 1 month.</p>",
            "routine": "<p>(4 actions) The Abyss‑warped trees use their first action each round to lash their roots; each creature in the tainted grove must succeed at a @Check[type:reflex|dc:21|traits:hazard,complex,environmental] save or fall @Compendium[pf2e.conditionitems.Prone]{Prone}. The Abyss‑warped trees use their second, third, and fourth actions to make branch Strikes against up to three different creatures in the tainted grove.</p>"
        },
        "saves": {
            "fortitude": {
                "saveDetail": "",
                "value": 14
            },
            "reflex": {
                "saveDetail": "",
                "value": 14
            },
            "will": {
                "saveDetail": "",
                "value": 0
            }
        },
        "source": {
            "value": "Pathfinder #176: Lost Mammoth Valley"
        },
        "statusEffects": [],
        "traits": {
            "ci": [],
            "di": {
                "custom": "",
                "selected": {},
                "value": [
                    "critical-hits",
                    "object-immunities",
                    "precision"
                ]
            },
            "dr": [],
            "dv": [
                {
                    "type": "fire",
                    "value": 5
                }
            ],
            "rarity": "unique",
            "size": {
                "value": "med"
            },
            "traits": {
                "custom": "",
                "value": [
                    "environmental"
                ]
            }
        }
    },
    "effects": [],
    "flags": {},
    "img": "systems/pf2e/icons/default-icons/hazard.svg",
    "items": [
        {
            "_id": "6z58fmqzrhkeiktz",
            "data": {
                "actionCategory": {
                    "value": "offensive"
                },
                "actionType": {
                    "value": "reaction"
                },
                "actions": {
                    "value": null
                },
                "description": {
                    "value": "<p data-visibility=\"gm\"><strong>Trigger</strong> A creature ends its movement in the grove</p>\n<p><strong>Effect</strong> The trees throughout the tainted grove shift their roots wildly, making the area difficult terrain, then the Abyss-warped trees roll initiative.</p>"
                },
                "requirements": {
                    "value": ""
                },
                "rules": [],
                "slug": null,
                "source": {
                    "value": ""
                },
                "traits": {
                    "custom": "",
                    "rarity": "common",
                    "value": []
                },
                "trigger": {
                    "value": ""
                }
            },
            "effects": [],
            "flags": {},
            "img": "systems/pf2e/icons/actions/Reaction.webp",
            "name": "Shift Roots",
            "sort": 0,
            "type": "action"
        },
        {
            "_id": "5306t2oftms6fvgu",
            "data": {
                "actionCategory": {
                    "value": "offensive"
                },
                "actionType": {
                    "value": "free"
                },
                "actions": {
                    "value": ""
                },
                "description": {
                    "value": "<p data-visibility=\"gm\"><strong>Trigger</strong> The Abyss‑warped trees critically hit a creature with a branch Strike</p>\n<p><strong>Effect</strong> The Abyss‑warped trees loop their branches around the triggering creature, @Compendium[pf2e.conditionitems.Grabbed]{Grabbing} it (@Compendium[pf2e.actionspf2e.Escape]{Escape} DC 21).</p>"
                },
                "requirements": {
                    "value": ""
                },
                "rules": [],
                "slug": null,
                "source": {
                    "value": ""
                },
                "traits": {
                    "custom": "",
                    "rarity": "common",
                    "value": []
                },
                "trigger": {
                    "value": ""
                }
            },
            "effects": [],
            "flags": {},
            "img": "systems/pf2e/icons/actions/FreeAction.webp",
            "name": "Tighten Grip",
            "sort": 0,
            "type": "action"
        },
        {
            "_id": "u2zglo0u0ge27m2c",
            "data": {
                "attack": {
                    "value": ""
                },
                "attackEffects": {
                    "custom": "",
                    "value": []
                },
                "bonus": {
                    "value": 14
                },
                "damageRolls": {
                    "Hsys5SzlBQGKeF2L": {
                        "damage": "2d8+5",
                        "damageType": "bludgeoning"
                    }
                },
                "description": {
                    "value": ""
                },
                "rules": [],
                "slug": null,
                "source": {
                    "value": ""
                },
                "traits": {
                    "custom": "",
                    "rarity": "common",
                    "value": []
                },
                "weaponType": {
                    "value": "melee"
                }
            },
            "effects": [],
            "flags": {},
            "img": "systems/pf2e/icons/default-icons/melee.svg",
            "name": "Branch",
            "sort": 0,
            "type": "melee"
        }
    ],
    "name": "Abyss-warped Trees",
    "token": {
        "disposition": 0,
        "height": 1,
        "img": "systems/pf2e/icons/default-icons/npc.svg",
        "name": "Abyss-warped Trees",
        "width": 1
    },
    "type": "hazard"
}
