{
    "_id": "E0potK8eECcpyLMa",
    "data": {
        "attributes": {
            "ac": {
                "value": 10
            },
            "hardness": 0,
            "hasHealth": false,
            "hp": {
                "details": "",
                "max": 0,
                "temp": 0,
                "value": 0
            },
            "stealth": {
                "details": "(expert)",
                "value": 16
            }
        },
        "creatureType": "",
        "details": {
            "description": "A creature experiences the death of a priest carried off by griffons and fed to their chicks.",
            "disable": "<p>@Check[type:diplomacy|dc:22|name:Soothe the restless spirits|traits:hazard,haunt] (trained) to soothe the restless spirits, or @Check[type:religion|dc:24|name:Honor the deceased|traits:hazard,haunt] (trained) to recite a prayer honoring the deceased; two successful checks are required to disable the haunt</p>",
            "isComplex": false,
            "level": {
                "value": 5
            },
            "reset": "The haunt deactivates 1 minute after all living creatures leave the Lea of Honored Souls. Ten minutes after deactivating, the haunt resets.",
            "routine": ""
        },
        "saves": {
            "fortitude": {
                "saveDetail": "",
                "value": 0
            },
            "reflex": {
                "saveDetail": "",
                "value": 0
            },
            "will": {
                "saveDetail": "",
                "value": 0
            }
        },
        "source": {
            "value": "Pathfinder #176: Lost Mammoth Valley"
        },
        "statusEffects": [],
        "traits": {
            "ci": [],
            "di": {
                "custom": "",
                "selected": {},
                "value": []
            },
            "dr": [],
            "dv": [],
            "rarity": "common",
            "size": {
                "value": "med"
            },
            "traits": {
                "custom": "",
                "value": [
                    "unique",
                    "haunt"
                ]
            }
        }
    },
    "effects": [],
    "flags": {},
    "img": "systems/pf2e/icons/default-icons/hazard.svg",
    "items": [
        {
            "_id": "n3zwzvo4kn2egm0y",
            "data": {
                "actionCategory": {
                    "value": "offensive"
                },
                "actionType": {
                    "value": "reaction"
                },
                "actions": {
                    "value": null
                },
                "description": {
                    "value": "<p data-visibility=\"gm\"><strong>Trigger</strong> A creature enters the gathering circle</p>\n<hr />\n<p><strong>Effect</strong> The triggering creature experiences the last moments of the priest who once tended the Lea of Honored Souls. Griffons swoop down from the sky and snatch the priest up in their claws, dealing [[/r {1d8+7}[slashing]]]{1d8 + 7 slashing damage}. They're carried southwest across the valley to a mountain peak and dropped into a nest of young griffons. As the chicks devour the priest, the character takes [[/r {1d8+7}[piercing]]]{1d8 + 7 piercing damage} and [[/r {2d8}[mental]]]{2d8 mental damage}. The affected creature must then attempt a @Check[type:will|dc:22|traits:hazard,haunt] save.</p>\n<hr />\n<p><strong>Critical Success</strong> The creature is unaffected.</p>\n<p><strong>Success</strong> The creature takes half damage from all damage dealt by the haunt.</p>\n<p><strong>Failure</strong> The creature takes full damage.</p>\n<p><strong>Critical Failure</strong> The creature takes full damage and can't shake off the vision; they take [[/r {1d8}[persistent,bleed]]] @Compendium[pf2e.conditionitems.Persistent Damage]{Persistent bleed Damage} and are @Compendium[pf2e.conditionitems.Frightened]{Frightened 1}-believing they're being eaten alive-as long as the bleed damage persists.</p>"
                },
                "requirements": {
                    "value": ""
                },
                "rules": [],
                "slug": null,
                "source": {
                    "value": ""
                },
                "traits": {
                    "custom": "",
                    "rarity": "common",
                    "value": [
                        "illusion",
                        "mental",
                        "occult"
                    ]
                },
                "trigger": {
                    "value": ""
                }
            },
            "effects": [],
            "flags": {},
            "img": "systems/pf2e/icons/actions/Reaction.webp",
            "name": "Final Flight",
            "sort": 0,
            "type": "action"
        }
    ],
    "name": "Final Flight",
    "token": {
        "disposition": 0,
        "height": 1,
        "img": "systems/pf2e/icons/default-icons/npc.svg",
        "name": "Final Flight",
        "width": 1
    },
    "type": "hazard"
}
