{
    "_id": "25BUnECSaTWkHqZQ",
    "data": {
        "attributes": {
            "ac": {
                "value": 45
            },
            "hardness": 30,
            "hasHealth": true,
            "hp": {
                "details": "",
                "max": 460,
                "temp": 0,
                "value": 460
            },
            "stealth": {
                "details": "<p>(master) to realize the lattice is a complex clockwork before it begins to move; noticing the lattice itself is DC 0.</p>",
                "value": 34
            }
        },
        "creatureType": "",
        "details": {
            "description": "<p>A complex clockwork of bright metal and delicately carved gemstones, the lattice's interlocking gears begin to whir as golden runes glow across its surface.</p>",
            "disable": "<p>@Check[type:thievery|dc:40|name:Obliterate a Key Rune|traits:magical,trap] (master) or @Check[type:religion|dc:35|name:Obliterate a Key Rune|traits:magical,trap] (master) four times to obliterate each of the four key runes.</p>\n<p>A @Check[type:thievery|dc:45|name:Stop the Clockwork's Movement|traits:magical,trap] (legendary) check (or breaking the lattice) stops the clockwork's movement and prevents it from resetting, but doesn't stop its current activation.</p>",
            "isComplex": true,
            "level": {
                "value": 20
            },
            "reset": "<p>The <em>convergence lattice</em> deactivates and resets after there are no uncontrolled targets within line of sight for 1 minute.</p>",
            "routine": "<p>(3 actions) The <em>convergence lattice</em> uses its first action to call for aid. Each convergent creature within 100 feet of the lattice Strides toward the lattice as a reaction. Creatures thus called continue to move toward the lattice on their turn each round until they are adjacent to it, at which point they defend it with their lives.</p>\n<p>The lattice uses its second action to deal [[/r {16d6}[mental]]]{16d6 mental damage} (@Check[type:will|dc:42|basic:true] save) to a non-convergent creature within 100 feet. This damage is nonlethal; a creature knocked out by this damage doesn't gain the dying condition and is automatically @Compendium[pf2e.conditionitems.Controlled]{Controlled} by the convergence lattice when they awaken.</p>\n<p>The lattice uses its third action to make the same attack against a second non-convergent creature within 100 feet; if there isn't such a second creature, it doesn't take its third action.</p>"
        },
        "saves": {
            "fortitude": {
                "saveDetail": "",
                "value": 33
            },
            "reflex": {
                "saveDetail": "",
                "value": 28
            },
            "will": {
                "saveDetail": "",
                "value": 36
            }
        },
        "source": {
            "value": "Pathfinder #156: The Apocalypse Prophet"
        },
        "statusEffects": [],
        "traits": {
            "ci": [],
            "di": {
                "custom": "Except Mental Effects",
                "selected": {},
                "value": [
                    "object-immunities"
                ]
            },
            "dr": [],
            "dv": [
                {
                    "label": "Chaotic",
                    "type": "chaotic",
                    "value": "30"
                },
                {
                    "label": "Mental",
                    "type": "mental",
                    "value": "30"
                }
            ],
            "rarity": "unique",
            "size": {
                "value": "med"
            },
            "traits": {
                "custom": "",
                "value": [
                    "magical",
                    "trap"
                ]
            }
        }
    },
    "effects": [],
    "flags": {},
    "img": "systems/pf2e/icons/default-icons/hazard.svg",
    "items": [
        {
            "_id": "Csqes18z0CZnmC2a",
            "data": {
                "actionCategory": {
                    "value": "offensive"
                },
                "actionType": {
                    "value": "reaction"
                },
                "actions": {
                    "value": null
                },
                "description": {
                    "value": "<p data-visibility=\"gm\"><strong>Trigger</strong> A creature that is not @Compendium[pf2e.conditionitems.Controlled]{Controlled} by the convergence lattice sees it</p>\n<p><strong>Effect</strong> The lattice's clockworks begin to move and it rolls for initiative.</p>"
                },
                "requirements": {
                    "value": ""
                },
                "rules": [],
                "slug": null,
                "source": {
                    "value": ""
                },
                "traits": {
                    "custom": "",
                    "rarity": "common",
                    "value": []
                },
                "trigger": {
                    "value": ""
                }
            },
            "effects": [],
            "flags": {},
            "img": "systems/pf2e/icons/actions/Reaction.webp",
            "name": "Begin Convergence",
            "sort": 0,
            "type": "action"
        }
    ],
    "name": "Convergence Lattice",
    "token": {
        "disposition": 0,
        "height": 1,
        "img": "systems/pf2e/icons/default-icons/hazard.svg",
        "name": "Convergence Lattice",
        "width": 1
    },
    "type": "hazard"
}
