{
    "_id": "16cZVZxsXVRHfuuQ",
    "data": {
        "abilities": {
            "cha": {
                "mod": 1
            },
            "con": {
                "mod": 1
            },
            "dex": {
                "mod": 3
            },
            "int": {
                "mod": 2
            },
            "str": {
                "mod": 2
            },
            "wis": {
                "mod": 0
            }
        },
        "attributes": {
            "ac": {
                "details": "",
                "value": 17
            },
            "allSaves": {
                "value": ""
            },
            "hp": {
                "details": "",
                "max": 32,
                "temp": 0,
                "value": 32
            },
            "initiative": {
                "ability": "perception"
            },
            "perception": {
                "value": 7
            },
            "speed": {
                "otherSpeeds": [],
                "value": "30"
            }
        },
        "details": {
            "alignment": {
                "value": "CE"
            },
            "blurb": "Male human clown",
            "creatureType": "",
            "level": {
                "value": 2
            },
            "privateNotes": "",
            "publicNotes": "",
            "source": {
                "value": "Pathfinder #151: The Show Must Go On"
            }
        },
        "resources": {},
        "saves": {
            "fortitude": {
                "saveDetail": "",
                "value": 7
            },
            "reflex": {
                "saveDetail": "",
                "value": 9
            },
            "will": {
                "saveDetail": "",
                "value": 6
            }
        },
        "traits": {
            "ci": [],
            "di": {
                "custom": "",
                "value": []
            },
            "dr": [],
            "dv": [],
            "languages": {
                "custom": "",
                "selected": [],
                "value": []
            },
            "rarity": "unique",
            "senses": {
                "value": ""
            },
            "size": {
                "value": "med"
            },
            "traits": {
                "custom": "",
                "value": [
                    "human",
                    "humanoid"
                ]
            }
        }
    },
    "effects": [],
    "flags": {},
    "img": "systems/pf2e/icons/default-icons/npc.svg",
    "items": [
        {
            "_id": "esuhx6UWHn2RJrnl",
            "data": {
                "MAP": {
                    "value": ""
                },
                "baseItem": "dagger",
                "bonus": {
                    "value": 0
                },
                "bonusDamage": {
                    "value": 0
                },
                "brokenThreshold": {
                    "value": 0
                },
                "category": "simple",
                "containerId": null,
                "damage": {
                    "damageType": "piercing",
                    "dice": 1,
                    "die": "d4",
                    "value": ""
                },
                "description": {
                    "value": "<p>This small, bladed weapon is held in one hand and used to stab a creature in close combat. It can also be thrown.</p>"
                },
                "equipped": {
                    "carryType": "worn",
                    "handsHeld": 0,
                    "invested": null
                },
                "equippedBulk": {
                    "value": ""
                },
                "group": "knife",
                "hardness": 0,
                "hp": {
                    "brokenThreshold": 0,
                    "max": 0,
                    "value": 0
                },
                "identification": {
                    "misidentified": {},
                    "status": "identified",
                    "unidentified": {
                        "data": {
                            "description": {
                                "value": ""
                            }
                        },
                        "img": "",
                        "name": ""
                    }
                },
                "level": {
                    "value": 0
                },
                "negateBulk": {
                    "value": "0"
                },
                "potencyRune": {
                    "value": 0
                },
                "preciousMaterial": {
                    "value": null
                },
                "preciousMaterialGrade": {
                    "value": null
                },
                "price": {
                    "value": "2 sp"
                },
                "property1": {
                    "critDamage": "",
                    "critDamageType": "",
                    "critDice": null,
                    "critDie": "",
                    "criticalConditionType": "",
                    "criticalConditionValue": null,
                    "damageType": "",
                    "dice": null,
                    "die": "",
                    "strikeConditionType": "",
                    "strikeConditionValue": null,
                    "value": ""
                },
                "propertyRune1": {
                    "value": null
                },
                "propertyRune2": {
                    "value": null
                },
                "propertyRune3": {
                    "value": null
                },
                "propertyRune4": {
                    "value": null
                },
                "quantity": 6,
                "range": null,
                "reload": {
                    "value": ""
                },
                "rules": [],
                "size": "med",
                "slug": "dagger",
                "source": {
                    "value": "Pathfinder Core Rulebook"
                },
                "specific": {
                    "value": false
                },
                "splashDamage": {
                    "value": 0
                },
                "stackGroup": null,
                "strikingRune": {
                    "value": ""
                },
                "traits": {
                    "custom": "",
                    "rarity": "common",
                    "value": [
                        "agile",
                        "finesse",
                        "thrown-10",
                        "versatile-s"
                    ]
                },
                "usage": {
                    "value": "held-in-one-hand"
                },
                "weight": {
                    "value": "L"
                }
            },
            "effects": [],
            "flags": {
                "core": {
                    "sourceId": "Compendium.pf2e.equipment-srd.rQWaJhI5Bko5x14Z"
                }
            },
            "img": "systems/pf2e/icons/equipment/weapons/dagger.webp",
            "name": "Dagger",
            "sort": 100000,
            "type": "weapon"
        },
        {
            "_id": "COxiLfpFDrDT8lEG",
            "data": {
                "baseItem": null,
                "brokenThreshold": {
                    "value": 0
                },
                "containerId": null,
                "description": {
                    "value": ""
                },
                "equipped": {
                    "carryType": "worn",
                    "handsHeld": 0,
                    "invested": null
                },
                "equippedBulk": {
                    "value": ""
                },
                "hardness": 0,
                "hp": {
                    "brokenThreshold": 0,
                    "max": 0,
                    "value": 0
                },
                "identification": {
                    "misidentified": {},
                    "status": "identified",
                    "unidentified": {
                        "data": {
                            "description": {
                                "value": ""
                            }
                        },
                        "img": "",
                        "name": ""
                    }
                },
                "level": {
                    "value": 0
                },
                "negateBulk": {
                    "value": "0"
                },
                "preciousMaterial": {
                    "value": ""
                },
                "preciousMaterialGrade": {
                    "value": ""
                },
                "price": {
                    "value": "0 gp"
                },
                "quantity": 6,
                "rules": [],
                "size": "med",
                "slug": null,
                "source": {
                    "value": ""
                },
                "stackGroup": null,
                "traits": {
                    "custom": "",
                    "rarity": "common",
                    "value": []
                },
                "usage": {
                    "value": "held-in-one-hand"
                },
                "weight": {
                    "value": "-"
                }
            },
            "effects": [],
            "flags": {},
            "img": "systems/pf2e/icons/default-icons/equipment.svg",
            "name": "Bowling Pin",
            "sort": 200000,
            "type": "equipment"
        },
        {
            "_id": "6ULxQITrncDRTf0g",
            "data": {
                "baseItem": null,
                "brokenThreshold": {
                    "value": 0
                },
                "containerId": null,
                "description": {
                    "value": ""
                },
                "equipped": {
                    "carryType": "worn",
                    "inSlot": false,
                    "invested": null
                },
                "equippedBulk": {
                    "value": ""
                },
                "hardness": 0,
                "hp": {
                    "brokenThreshold": 0,
                    "max": 0,
                    "value": 0
                },
                "identification": {
                    "misidentified": {},
                    "status": "identified",
                    "unidentified": {
                        "data": {
                            "description": {
                                "value": ""
                            }
                        },
                        "img": "",
                        "name": ""
                    }
                },
                "level": {
                    "value": 0
                },
                "negateBulk": {
                    "value": "0"
                },
                "preciousMaterial": {
                    "value": ""
                },
                "preciousMaterialGrade": {
                    "value": ""
                },
                "price": {
                    "value": "0 gp"
                },
                "quantity": 1,
                "rules": [],
                "size": "med",
                "slug": null,
                "source": {
                    "value": ""
                },
                "stackGroup": null,
                "traits": {
                    "custom": "",
                    "rarity": "common",
                    "value": []
                },
                "usage": {
                    "value": "wornclothing"
                },
                "weight": {
                    "value": "-"
                }
            },
            "effects": [],
            "flags": {},
            "img": "systems/pf2e/icons/equipment/adventuring-gear/dueling-cape.webp",
            "name": "Clown Costume",
            "sort": 300000,
            "type": "equipment"
        },
        {
            "_id": "Axi77dW9fWlKe5ct",
            "data": {
                "baseItem": null,
                "brokenThreshold": {
                    "value": 0
                },
                "containerId": null,
                "description": {
                    "value": ""
                },
                "equipped": {
                    "carryType": "worn",
                    "handsHeld": 0,
                    "invested": null
                },
                "equippedBulk": {
                    "value": ""
                },
                "hardness": 0,
                "hp": {
                    "brokenThreshold": 0,
                    "max": 0,
                    "value": 0
                },
                "identification": {
                    "misidentified": {},
                    "status": "identified",
                    "unidentified": {
                        "data": {
                            "description": {
                                "value": ""
                            }
                        },
                        "img": "",
                        "name": ""
                    }
                },
                "level": {
                    "value": 0
                },
                "negateBulk": {
                    "value": "0"
                },
                "preciousMaterial": {
                    "value": ""
                },
                "preciousMaterialGrade": {
                    "value": ""
                },
                "price": {
                    "value": "0 gp"
                },
                "quantity": 4,
                "rules": [],
                "size": "med",
                "slug": null,
                "source": {
                    "value": ""
                },
                "stackGroup": null,
                "traits": {
                    "custom": "",
                    "rarity": "common",
                    "value": []
                },
                "usage": {
                    "value": "held-in-one-hand"
                },
                "weight": {
                    "value": "-"
                }
            },
            "effects": [],
            "flags": {},
            "img": "systems/pf2e/icons/equipment/alchemical-items/alchemical-bombs/ghost-charge.webp",
            "name": "Pot of Grease Paint",
            "sort": 400000,
            "type": "equipment"
        },
        {
            "_id": "cKPrl4Em8PlcrlED",
            "data": {
                "attack": {
                    "value": ""
                },
                "attackEffects": {
                    "value": []
                },
                "bonus": {
                    "value": 9
                },
                "damageRolls": {
                    "sb3xapn8vk2g1z6jxau9": {
                        "damage": "1d6+2",
                        "damageType": "bludgeoning"
                    }
                },
                "description": {
                    "value": ""
                },
                "rules": [],
                "slug": null,
                "source": {
                    "value": ""
                },
                "traits": {
                    "custom": "",
                    "rarity": "common",
                    "value": [
                        "agile",
                        "nonlethal"
                    ]
                },
                "weaponType": {
                    "value": "melee"
                }
            },
            "effects": [],
            "flags": {},
            "img": "systems/pf2e/icons/equipment/weapons/specific-magic-weapons/nightmare-cudgel.webp",
            "name": "Bowling Pin",
            "sort": 500000,
            "type": "melee"
        },
        {
            "_id": "EbKHyd2DVj0sOh0r",
            "data": {
                "attack": {
                    "value": ""
                },
                "attackEffects": {
                    "custom": "",
                    "value": []
                },
                "bonus": {
                    "value": 10
                },
                "damageRolls": {
                    "0": {
                        "damage": "1d4+2",
                        "damageType": "piercing"
                    }
                },
                "description": {
                    "value": ""
                },
                "rules": [],
                "slug": null,
                "source": {
                    "value": ""
                },
                "traits": {
                    "custom": "",
                    "rarity": "common",
                    "value": [
                        "agile",
                        "finesse",
                        "versatile-s"
                    ]
                },
                "weaponType": {
                    "value": "melee"
                }
            },
            "effects": [],
            "flags": {},
            "img": "systems/pf2e/icons/default-icons/melee.svg",
            "name": "Dagger",
            "sort": 600000,
            "type": "melee"
        },
        {
            "_id": "qsz7qYjE6S3Fc1ut",
            "data": {
                "attack": {
                    "value": ""
                },
                "attackEffects": {
                    "custom": "",
                    "value": [
                        "juggler"
                    ]
                },
                "bonus": {
                    "value": 10
                },
                "damageRolls": {
                    "6en7gaqfbk3ptczvwhn1gp": {
                        "damage": "1d6+2",
                        "damageType": "bludgeoning"
                    }
                },
                "description": {
                    "value": ""
                },
                "rules": [],
                "slug": null,
                "source": {
                    "value": ""
                },
                "traits": {
                    "custom": "",
                    "rarity": "common",
                    "value": [
                        "agile",
                        "nonlethal",
                        "thrown-10"
                    ]
                },
                "weaponType": {
                    "value": "ranged"
                }
            },
            "effects": [],
            "flags": {},
            "img": "systems/pf2e/icons/default-icons/melee.svg",
            "name": "Bowling Pin",
            "sort": 700000,
            "type": "melee"
        },
        {
            "_id": "b1DiEoXUNFfYIgRG",
            "data": {
                "attack": {
                    "value": ""
                },
                "attackEffects": {
                    "custom": "",
                    "value": []
                },
                "bonus": {
                    "value": 10
                },
                "damageRolls": {
                    "0": {
                        "damage": "1d4+2",
                        "damageType": "piercing"
                    }
                },
                "description": {
                    "value": ""
                },
                "rules": [],
                "slug": null,
                "source": {
                    "value": ""
                },
                "traits": {
                    "custom": "",
                    "rarity": "common",
                    "value": [
                        "agile",
                        "thrown-10",
                        "versatile-s"
                    ]
                },
                "weaponType": {
                    "value": "ranged"
                }
            },
            "effects": [],
            "flags": {},
            "img": "systems/pf2e/icons/default-icons/melee.svg",
            "name": "Dagger",
            "sort": 800000,
            "type": "melee"
        },
        {
            "_id": "g65rOk12pYhMLjoe",
            "data": {
                "actionCategory": {
                    "value": "defensive"
                },
                "actionType": {
                    "value": "reaction"
                },
                "actions": {
                    "value": null
                },
                "description": {
                    "value": "<p data-visibility=\"gm\"><strong>Trigger</strong> Jellico is the target of a Strike by an attacker he can see</p>\n<p><strong>Effect</strong> Jellico gains a +2 circumstance bonus to AC against the triggering Strike.</p>"
                },
                "requirements": {
                    "value": ""
                },
                "rules": [
                    {
                        "domain": "ac",
                        "key": "RollOption",
                        "option": "bobAndWeave",
                        "toggleable": true
                    },
                    {
                        "key": "FlatModifier",
                        "predicate": {
                            "all": [
                                "bobAndWeave"
                            ]
                        },
                        "selector": "ac",
                        "type": "circumstance",
                        "value": 2
                    }
                ],
                "slug": null,
                "source": {
                    "value": ""
                },
                "traits": {
                    "custom": "",
                    "rarity": "common",
                    "value": []
                },
                "trigger": {
                    "value": ""
                },
                "weapon": {
                    "value": ""
                }
            },
            "effects": [],
            "flags": {},
            "img": "systems/pf2e/icons/actions/Reaction.webp",
            "name": "Bob and Weave",
            "sort": 900000,
            "type": "action"
        },
        {
            "_id": "5h3L7HCWGZnNodvy",
            "data": {
                "actionCategory": {
                    "value": "offensive"
                },
                "actionType": {
                    "value": "action"
                },
                "actions": {
                    "value": 1
                },
                "description": {
                    "value": "<p>Jellico makes a @Compendium[pf2e.actionspf2e.High Jump]{High Jump} or @Compendium[pf2e.actionspf2e.Long Jump]{Long Jump}.</p>"
                },
                "requirements": {
                    "value": ""
                },
                "rules": [],
                "slug": null,
                "source": {
                    "value": ""
                },
                "traits": {
                    "custom": "",
                    "rarity": "common",
                    "value": []
                },
                "trigger": {
                    "value": ""
                },
                "weapon": {
                    "value": ""
                }
            },
            "effects": [],
            "flags": {},
            "img": "systems/pf2e/icons/actions/OneAction.webp",
            "name": "Bounce",
            "sort": 1000000,
            "type": "action"
        },
        {
            "_id": "jGq0rfEKsdYFGYmW",
            "data": {
                "actionCategory": {
                    "value": "offensive"
                },
                "actionType": {
                    "value": "action"
                },
                "actions": {
                    "value": 2
                },
                "description": {
                    "value": "<p>Jellico Strides up to his Speed and does not trigger reactions during this movement.</p>"
                },
                "requirements": {
                    "value": ""
                },
                "rules": [],
                "slug": null,
                "source": {
                    "value": ""
                },
                "traits": {
                    "custom": "",
                    "rarity": "common",
                    "value": []
                },
                "trigger": {
                    "value": ""
                },
                "weapon": {
                    "value": ""
                }
            },
            "effects": [],
            "flags": {},
            "img": "systems/pf2e/icons/actions/TwoActions.webp",
            "name": "Bounce-Bounce",
            "sort": 1100000,
            "type": "action"
        },
        {
            "_id": "YXTmEPsQrFyF3kDl",
            "data": {
                "actionCategory": {
                    "value": "offensive"
                },
                "actionType": {
                    "value": "passive"
                },
                "actions": {
                    "value": null
                },
                "description": {
                    "value": "<p>If Jellico's bowling pin ranged Strike hits, the bowling pin bounces off the target back toward Jellico. Jellico can catch it again if he has a free hand.</p>"
                },
                "requirements": {
                    "value": ""
                },
                "rules": [],
                "slug": null,
                "source": {
                    "value": ""
                },
                "traits": {
                    "custom": "",
                    "rarity": "common",
                    "value": []
                },
                "trigger": {
                    "value": ""
                },
                "weapon": {
                    "value": ""
                }
            },
            "effects": [],
            "flags": {},
            "img": "systems/pf2e/icons/actions/Passive.webp",
            "name": "Juggler",
            "sort": 1200000,
            "type": "action"
        },
        {
            "_id": "co7KaGwRp6DgRCKT",
            "data": {
                "description": {
                    "value": ""
                },
                "mod": {
                    "value": 7
                },
                "proficient": {
                    "value": 0
                },
                "rules": [],
                "slug": null,
                "source": {
                    "value": ""
                },
                "traits": {
                    "custom": "",
                    "rarity": "common",
                    "value": []
                }
            },
            "effects": [],
            "flags": {},
            "img": "systems/pf2e/icons/default-icons/lore.svg",
            "name": "Acrobatics",
            "sort": 1300000,
            "type": "lore"
        },
        {
            "_id": "lv8I88wFnMhoXWQe",
            "data": {
                "description": {
                    "value": ""
                },
                "mod": {
                    "value": 7
                },
                "proficient": {
                    "value": 0
                },
                "rules": [],
                "slug": null,
                "source": {
                    "value": ""
                },
                "traits": {
                    "custom": "",
                    "rarity": "common",
                    "value": []
                }
            },
            "effects": [],
            "flags": {},
            "img": "systems/pf2e/icons/default-icons/lore.svg",
            "name": "Performance",
            "sort": 1400000,
            "type": "lore"
        },
        {
            "_id": "TpVCnbFquBq2J7Kp",
            "data": {
                "description": {
                    "value": ""
                },
                "mod": {
                    "value": 7
                },
                "proficient": {
                    "value": 0
                },
                "rules": [],
                "slug": null,
                "source": {
                    "value": ""
                },
                "traits": {
                    "custom": "",
                    "rarity": "common",
                    "value": []
                }
            },
            "effects": [],
            "flags": {},
            "img": "systems/pf2e/icons/default-icons/lore.svg",
            "name": "Stealth",
            "sort": 1500000,
            "type": "lore"
        },
        {
            "_id": "WnaaRXs8slgT4jCC",
            "data": {
                "description": {
                    "value": ""
                },
                "mod": {
                    "value": 9
                },
                "proficient": {
                    "value": 0
                },
                "rules": [],
                "slug": null,
                "source": {
                    "value": ""
                },
                "traits": {
                    "custom": "",
                    "rarity": "common",
                    "value": []
                }
            },
            "effects": [],
            "flags": {},
            "img": "systems/pf2e/icons/default-icons/lore.svg",
            "name": "Thievery",
            "sort": 1600000,
            "type": "lore"
        }
    ],
    "name": "Jellico Bounce-Bounce",
    "token": {
        "disposition": -1,
        "height": 1,
        "img": "systems/pf2e/icons/default-icons/npc.svg",
        "name": "Jellico Bounce-Bounce",
        "width": 1
    },
    "type": "npc"
}
