{
    "_id": "j9kx5CzfulaFTMOE",
    "content": "<p>You attended an academy where you studied a number of topics and skills. Whether you were a studious pupil or a dropout, the academy was your home for a good portion of your formative years.</p>\n<p>Add the @Compendium[pf2e.feats-srd.Additional Lore]{Additional Lore} skill feat to your background options. If you select Additional Lore as your skill feat, instead of becoming trained in Lore, you become trained in your choice of Arcana, Occultism, or Society.</p>",
    "flags": {},
    "name": "Academy Trained",
    "permission": {
        "default": 0
    }
}
