{
    "_id": "wIGRRmXtzed74qQq",
    "content": "<p>In your youth, you ran with a criminal element: a gang, thieves' guild, or similar organization.</p>\n<p>Add the @Compendium[pf2e.feats-srd.Experienced Smuggler]{Experienced Smuggler} skill feat to your background options.</p>",
    "flags": {},
    "name": "Fell In with a Bad Crowd",
    "permission": {
        "default": 0
    }
}
