{
    "_id": "Runwg9xhNrN79JBN",
    "content": "<p>Your childhood was fairly ordinary, with no major catastrophe-a stark contrast to most adventurers.</p>\n<p>Add the @Compendium[pf2e.feats-srd.Assurance]{Assurance} skill feat for a skill of your choice to your background options</p>",
    "flags": {},
    "name": "Had an Ordinary Childhood",
    "permission": {
        "default": 0
    }
}
