{
    "_id": "Ip6kSKGhl3XHQZ93",
    "content": "<p>Your family's possessions were stolen, and you vowed to catch the next burglar in the act. Add the @Compendium[pf2e.feats-srd.Snare Crafting]{Snare Crafting} skill feat to your background options.</p>",
    "flags": {},
    "name": "Robbed",
    "permission": {
        "default": 0
    }
}
