{
    "_id": "lRVYgV9zL6O6O3U4",
    "data": {
        "boosts": {
            "0": {
                "value": [
                    "dex",
                    "str"
                ]
            },
            "1": {
                "value": [
                    "cha",
                    "con",
                    "dex",
                    "int",
                    "str",
                    "wis"
                ]
            }
        },
        "description": {
            "value": "<p>You dedicated yourself to intense training and rigorous study to become a great warrior. The school you attended might have been a traditionalist monastery, an elite military academy, or the local branch of a prestigious mercenary organization.</p>\n<p>Choose two ability boosts. One must be to <strong>Strength</strong> or <strong>Dexterity</strong>, and one is a free ability boost.</p>\n<p>You're trained in the Acrobatics skill and the Warfare Lore skill. You gain the @Compendium[pf2e.feats-srd.Cat Fall]{Cat Fall} skill feat.</p>"
        },
        "items": {
            "fdifx": {
                "id": "LQw0yIMDUJJkq1nD",
                "img": "systems/pf2e/icons/features/feats/feats.webp",
                "level": "1",
                "name": "Cat Fall",
                "pack": "pf2e.feats-srd"
            }
        },
        "rules": [],
        "source": {
            "value": "Pathfinder Core Rulebook"
        },
        "trainedLore": "Warfare Lore",
        "trainedSkills": {
            "value": [
                "acr"
            ]
        },
        "traits": {
            "custom": "",
            "rarity": "common",
            "value": []
        }
    },
    "effects": [],
    "flags": {},
    "img": "systems/pf2e/icons/default-icons/background.svg",
    "name": "Martial Disciple (Acrobatics)",
    "type": "background"
}
