{
    "_id": "rqwmqnCZ0xz7vF1b",
    "data": {
        "baseItem": null,
        "brokenThreshold": {
            "value": 0
        },
        "containerId": "null",
        "description": {
            "value": "<p>The tough, scaled leather of these heavy boots comes from a mighty dinosaur, granting you the steadiness of a lumbering beast. Any time an action or effect would cause you to make a forced movement, roll a @Check[type:flat|dc:17] check. On a success, the forced movement fails to affect you.</p>\n<hr />\n<p><strong>Activate</strong> <span class=\"pf2-icon\">1</span> command (magical, morph, transmutation)</p>\n<p><strong>Frequency</strong> once per day</p>\n<p><strong>Effect</strong> You grow, gaining the effects of <em>@Compendium[pf2e.spells-srd.Enlarge]{Enlarge}</em> for 1 minute. During that time, you gain dinosaur features; your legs and feet transform into a dinosaur's. You gain a foot unarmed attack that has the same statistics as your fist unarmed attack, except its damage die is increased from 1d4 to 1d6. Once during the duration, you can use the @Compendium[pf2e.bestiary-ability-glossary-srd.Trample]{Trample} 3-action activity to Trample creatures one size smaller than you or smaller. This deals an amount of damage to each creature equal to that of your foot unarmed attack (including any extra weapon damage dice, bonuses, or additional damage as normal), with a @Check[type:reflex|dc:27|basic:true|name:Dinosaur Trample|traits:uncommon,invested,magical,transmutation|showDC:all] save. You can Dismiss the activation.</p>"
        },
        "equippedBulk": {
            "value": ""
        },
        "hardness": 0,
        "hp": {
            "brokenThreshold": 0,
            "max": 0,
            "value": 0
        },
        "identification": {
            "misidentified": {},
            "status": "identified",
            "unidentified": {
                "data": {
                    "description": {
                        "value": ""
                    }
                },
                "img": "",
                "name": ""
            }
        },
        "level": {
            "value": 10
        },
        "negateBulk": {
            "value": "0"
        },
        "preciousMaterial": {
            "value": null
        },
        "preciousMaterialGrade": {
            "value": null
        },
        "price": {
            "value": "950 gp"
        },
        "quantity": 1,
        "rules": [],
        "size": "med",
        "source": {
            "value": "Pathfinder Lost Omens: The Grand Bazaar"
        },
        "stackGroup": null,
        "traits": {
            "custom": "",
            "rarity": "common",
            "value": []
        },
        "usage": {
            "value": "worn"
        },
        "weight": {
            "value": "1"
        }
    },
    "effects": [],
    "flags": {},
    "img": "systems/pf2e/icons/default-icons/equipment.svg",
    "name": "Dinosaur Boots",
    "type": "equipment"
}
