{
    "_id": "daX1jX7XYo3mWZmP",
    "data": {
        "armor": {
            "value": 2
        },
        "baseItem": null,
        "brokenThreshold": {
            "value": 8
        },
        "category": "shield",
        "check": {
            "value": 0
        },
        "containerId": null,
        "description": {
            "value": "<p>Dragonhide shields are each immune to one damage type based on the type of dragon.</p>\n<table class=\"pf2-table\">\n<thead>\n<tr>\n<th>Dragon Type</th>\n<th>Immunity</th>\n</tr>\n</thead>\n<tbody>\n<tr>\n<td>Black or copper</td>\n<td>acid</td>\n</tr>\n<tr>\n<td>Blue or bronze</td>\n<td>electricity</td>\n</tr>\n<tr>\n<td>Brass, Red, or Gold</td>\n<td>fire</td>\n</tr>\n<tr>\n<td>Green</td>\n<td>poison</td>\n</tr>\n<tr>\n<td>Silver or white</td>\n<td>cold</td>\n</tr>\n</tbody>\n</table>\n<p>The shield has Hardness 4, HP 16, and BT 8.</p>\n<p><strong>Craft Requirements</strong> dragonhide worth at least 55 gp</p>"
        },
        "dex": {
            "value": 0
        },
        "equippedBulk": {
            "value": ""
        },
        "group": null,
        "hardness": 4,
        "hp": {
            "brokenThreshold": 8,
            "max": 16,
            "value": 16
        },
        "identification": {
            "misidentified": {},
            "status": "identified",
            "unidentified": {
                "data": {
                    "description": {
                        "value": ""
                    }
                },
                "img": "",
                "name": ""
            }
        },
        "level": {
            "value": 8
        },
        "negateBulk": {
            "value": "0"
        },
        "potencyRune": {
            "value": 0
        },
        "preciousMaterial": {
            "value": "dragonhide"
        },
        "preciousMaterialGrade": {
            "value": "standard"
        },
        "price": {
            "value": "440 gp"
        },
        "propertyRune1": {
            "value": ""
        },
        "propertyRune2": {
            "value": ""
        },
        "propertyRune3": {
            "value": ""
        },
        "propertyRune4": {
            "value": ""
        },
        "quantity": 1,
        "resiliencyRune": {
            "value": ""
        },
        "rules": [],
        "size": "med",
        "source": {
            "value": "Pathfinder Core Rulebook"
        },
        "speed": {
            "value": 0
        },
        "stackGroup": null,
        "strength": {
            "value": 0
        },
        "traits": {
            "custom": "",
            "rarity": "uncommon",
            "value": []
        },
        "usage": {
            "value": "held-in-one-hand"
        },
        "weight": {
            "value": "1"
        }
    },
    "effects": [],
    "flags": {},
    "img": "systems/pf2e/icons/equipment/shields/precious-material-shields/dragonhide-shield.webp",
    "name": "Dragonhide Shield (Standard-Grade)",
    "type": "armor"
}
