{
    "_id": "BjCGt377LpCwbtyS",
    "data": {
        "activation": {
            "condition": "",
            "cost": 0,
            "type": ""
        },
        "autoDestroy": {
            "_deprecated": true,
            "value": true
        },
        "autoUse": {
            "_deprecated": true,
            "value": true
        },
        "baseItem": null,
        "brokenThreshold": {
            "value": 0
        },
        "charges": {
            "_deprecated": true,
            "max": 1,
            "value": 1
        },
        "consumableType": {
            "value": "talisman"
        },
        "consume": {
            "_deprecated": true,
            "value": ""
        },
        "containerId": null,
        "description": {
            "value": "<p><strong>Usage</strong> affixed to armor</p>\n<p><strong>Activate</strong> <span class=\"pf2-icon\">1</span> Envision</p>\n<p><strong>Requirements</strong> You're trained in Deception</p>\n<hr />\n<p>In Woodsedge Lodge, this thin red ribbon, typically worn around the neck, symbolizes the reach of Galt's soul-trapping guillotines, the infamous final blades. Each of these talismans stores a specific disguise, chosen at the time of its creation. When activated, the talisman applies a disguise to its wearer, allowing them to Impersonate without taking the time to assemble a convincing disguise first. The components the disguise creates can appear to be worth up to 3 gp total.</p>\n<p>The instant nature of the disguise leaves a few traces of its haphazard nature, imposing a -2 circumstance penalty on checks to Impersonate using the disguise.</p>\n<p>Wearers with the @Compendium[pf2e.feats-srd.Quick Disguise]{Quick Disguise} feat don't take this penalty. Any objects created as a part of the disguise disappear after 24 hours or after you remove them.</p>"
        },
        "duration": {
            "units": "",
            "value": null
        },
        "equippedBulk": {
            "value": ""
        },
        "hardness": 0,
        "hp": {
            "brokenThreshold": 0,
            "max": 0,
            "value": 0
        },
        "identification": {
            "misidentified": {},
            "status": "identified",
            "unidentified": {
                "data": {
                    "description": {
                        "value": ""
                    }
                },
                "img": "",
                "name": ""
            }
        },
        "level": {
            "value": 1
        },
        "negateBulk": {
            "value": "0"
        },
        "preciousMaterial": {
            "value": ""
        },
        "preciousMaterialGrade": {
            "value": ""
        },
        "price": {
            "value": "3 gp"
        },
        "quantity": 1,
        "range": {
            "long": null,
            "units": "",
            "value": null
        },
        "rules": [],
        "size": "med",
        "source": {
            "value": "Pathfinder Lost Omens: Pathfinder Society Guide"
        },
        "spell": {
            "data": null,
            "heightenedLevel": null
        },
        "stackGroup": null,
        "target": {
            "type": "",
            "units": "",
            "value": null
        },
        "traits": {
            "custom": "",
            "rarity": "uncommon",
            "value": [
                "conjuration",
                "consumable",
                "magical",
                "talisman"
            ]
        },
        "usage": {
            "value": "affixed-to-armor"
        },
        "uses": {
            "autoDestroy": true,
            "autoUse": true,
            "max": 0,
            "per": null,
            "value": 0
        },
        "weight": {
            "value": "-"
        }
    },
    "effects": [],
    "flags": {},
    "img": "systems/pf2e/icons/equipment/consumables/talismans/emergency-disguise.webp",
    "name": "Emergency Disguise",
    "type": "consumable"
}
