{
    "_id": "tqgCxayEMsUxb1PV",
    "data": {
        "baseItem": null,
        "brokenThreshold": {
            "value": 0
        },
        "containerId": "null",
        "description": {
            "value": "<p>This tattoo is a series of six concentric circles that show up as a soft yellow on any skin tone. The marks carry in them a protective force that bolsters your body and soul. The first time each day that someone attempts to Treat your Wounds and rolls a critical failure, they get a failure instead.</p>\n<hr />\n<p><strong>Activate</strong> <span class=\"pf2-icon\">2</span> command</p>\n<p><strong>Frequency</strong> once per day</p>\n<p><strong>Effect</strong> For 5 rounds, your entire body begins to glow, with the effects of a 1st-level <em>@Compendium[pf2e.spells-srd.Light]{Light}</em> spell. At the end of each of your turns during this time, you regain [[/r {1d4}[healing]]]{1d4 Hit Points}.</p>"
        },
        "equippedBulk": {
            "value": ""
        },
        "hardness": 0,
        "hp": {
            "brokenThreshold": 0,
            "max": 0,
            "value": 0
        },
        "identification": {
            "misidentified": {},
            "status": "identified",
            "unidentified": {
                "data": {
                    "description": {
                        "value": ""
                    }
                },
                "img": "",
                "name": ""
            }
        },
        "level": {
            "value": 3
        },
        "negateBulk": {
            "value": "0"
        },
        "preciousMaterial": {
            "value": null
        },
        "preciousMaterialGrade": {
            "value": null
        },
        "price": {
            "value": "50 gp"
        },
        "quantity": 1,
        "rules": [],
        "size": "med",
        "source": {
            "value": "Pathfinder Lost Omens: The Grand Bazaar"
        },
        "stackGroup": null,
        "traits": {
            "custom": "",
            "rarity": "uncommon",
            "value": []
        },
        "usage": {
            "value": "tattooed-on-the-body"
        },
        "weight": {
            "value": "-"
        }
    },
    "effects": [],
    "flags": {},
    "img": "systems/pf2e/icons/default-icons/equipment.svg",
    "name": "Enveloping Light",
    "type": "equipment"
}
