{
    "_id": "tIZ3Wi2JInY9abu8",
    "data": {
        "baseItem": null,
        "brokenThreshold": {
            "value": 0
        },
        "containerId": "null",
        "description": {
            "value": "<p><strong>Activate</strong><span class=\"pf2-icon\">1 </span>Interact</p>\n<hr />\n<p>An <em>exploration lens</em> is a magical glass lens designed for a @Compendium[pf2e.equipment-srd.Lantern (Bull's Eye)]{Bull's Eye Lantern}. When light from the lantern passes through the lens, it alters the light to make it easier to perform a common exploration activity with the lantern.</p>\n<p>Alternatively, an <em>exploration lens</em> can be installed in a @Compendium[pf2e.equipment-srd.Wayfinder]{Wayfinder} like an aeon stone. In this case, light (such as that from a @Compendium[pf2e.equipment-srd.Lantern (Hooded)]{Lantern (Hooded)}, @Compendium[pf2e.equipment-srd.Torch]{Torch}, or <em>@Compendium[pf2e.spells-srd.Light]{Light}</em> spell) must still pass through the lens and you must hold the wayfinder in your hand for it to function.</p>\n<p>There are several different types of <em>exploration lens</em>, each granting benefits with a different type of exploration activity. Each type of lens is distinguishable from all the other types by holding it up to a bright light.</p>\n<hr />\n<p><strong>Type: Detecting</strong></p>\n<p>When held up to light, this lens sparkles as though infused with glitter.</p>\n<p>While @Compendium[pf2e.actionspf2e.Detect Magic]{Detecting Magic} in exploration mode, when the lantern's light falls upon something you detect as magical, it pulsates faintly. This makes it easier to triangulate the magic, since you can use the cone of the bull's-eye lantern instead of the circular pulse of detect magic.</p>\n<p>You also gain a +2 item bonus to checks to Identify Magic within the light.</p>"
        },
        "equippedBulk": {
            "value": ""
        },
        "hardness": 0,
        "hp": {
            "brokenThreshold": 0,
            "max": 0,
            "value": 0
        },
        "identification": {
            "misidentified": {},
            "status": "identified",
            "unidentified": {
                "data": {
                    "description": {
                        "value": ""
                    }
                },
                "img": "",
                "name": ""
            }
        },
        "level": {
            "value": 10
        },
        "negateBulk": {
            "value": "0"
        },
        "preciousMaterial": {
            "value": null
        },
        "preciousMaterialGrade": {
            "value": null
        },
        "price": {
            "value": "1000 gp"
        },
        "quantity": 1,
        "rules": [
            {
                "key": "FlatModifier",
                "label": "Identify Magic with Exploration Lens",
                "predicate": {
                    "all": [
                        "identify-magic"
                    ]
                },
                "selector": "skill-check",
                "type": "item",
                "value": 2
            }
        ],
        "size": "med",
        "source": {
            "value": "Pathfinder #171: Hurricane's Howl"
        },
        "stackGroup": null,
        "traits": {
            "custom": "",
            "rarity": "uncommon",
            "value": [
                "divination",
                "invested",
                "magical"
            ]
        },
        "usage": {
            "value": "held-in-one-hand"
        },
        "weight": {
            "value": "-"
        }
    },
    "effects": [],
    "flags": {},
    "img": "systems/pf2e/icons/equipment/treasure/art-objects/minor-art-object/hand-mirror-with-decorated-frame.webp",
    "name": "Exploration Lens (Detecting)",
    "type": "equipment"
}
