{
    "_id": "2VS3S2E3dbqvGifH",
    "data": {
        "activation": {
            "condition": "",
            "cost": 0,
            "type": ""
        },
        "autoDestroy": {
            "_deprecated": true,
            "value": true
        },
        "autoUse": {
            "_deprecated": true,
            "value": true
        },
        "baseItem": null,
        "brokenThreshold": {
            "value": 0
        },
        "charges": {
            "_deprecated": true,
            "max": 0,
            "value": 0
        },
        "consumableType": {
            "value": "other"
        },
        "consume": {
            "_deprecated": true,
            "value": ""
        },
        "containerId": "null",
        "description": {
            "value": "<p>Adventurers have found a number of uses for these animal blood-filled bladders, which were originally used in theatrical productions. Whenever you take slashing or piercing damage with the fake blood pack under your clothes or armor, roll a DC 11 flat check. On a success, the blood pack is punctured. You or an ally can puncture the hidden pack intentionally.</p>\n<p>When faking an injury, the blood pack grants a +2 item bonus to relevant Deception checks, such as to @Compendium[pf2e.actionspf2e.Lie]{Lie} about being injured. Abilities that trigger when a creature deals bleed damage, determine if a creature is bleeding, or are otherwise based on bleed damage don't trigger or apply for blood from a fake blood pack, which might mean creatures with such abilities automatically realize the ruse.</p>"
        },
        "duration": {
            "units": "",
            "value": null
        },
        "equippedBulk": {
            "value": ""
        },
        "hardness": 0,
        "hp": {
            "brokenThreshold": 0,
            "max": 0,
            "value": 0
        },
        "identification": {
            "misidentified": {},
            "status": "identified",
            "unidentified": {
                "data": {
                    "description": {
                        "value": ""
                    }
                },
                "img": "",
                "name": ""
            }
        },
        "level": {
            "value": 0
        },
        "negateBulk": {
            "value": "0"
        },
        "preciousMaterial": {
            "value": null
        },
        "preciousMaterialGrade": {
            "value": null
        },
        "price": {
            "value": "1 gp"
        },
        "quantity": 1,
        "range": {
            "long": null,
            "units": "",
            "value": null
        },
        "rules": [
            {
                "key": "FlatModifier",
                "label": "Using the Fake Blood Pack in Deception Attempt",
                "selector": "deception",
                "type": "item",
                "value": 2
            }
        ],
        "size": "med",
        "source": {
            "value": "Pathfinder Lost Omens: The Grand Bazaar"
        },
        "spell": {
            "data": null,
            "heightenedLevel": null
        },
        "stackGroup": null,
        "target": {
            "type": "",
            "units": "",
            "value": null
        },
        "traits": {
            "custom": "",
            "rarity": "common",
            "value": [
                "consumable"
            ]
        },
        "usage": {
            "value": "worn-under-armor"
        },
        "uses": {
            "autoDestroy": true,
            "autoUse": true,
            "max": 0,
            "per": null,
            "value": 0
        },
        "weight": {
            "value": "L"
        }
    },
    "effects": [],
    "flags": {},
    "img": "systems/pf2e/icons/default-icons/consumable.svg",
    "name": "Fake Blood Pack",
    "type": "consumable"
}
