{
    "_id": "iAfqKpHyJ6beLGjB",
    "data": {
        "baseItem": null,
        "brokenThreshold": {
            "value": 0
        },
        "bulkCapacity": {
            "value": ""
        },
        "collapsed": false,
        "containerId": "null",
        "description": {
            "value": "<p>This beige bandolier has a rectangular holster, which allows it to contain a standard-sized Harrow deck, and red pockets embroidered with goldwork in a strange but appealing mixture of Alkenstar and Varisian motifs.</p>\n<p><strong>Activate</strong> <span class=\"pf2-icon\">1</span> Interact</p>\n<p><strong>Frequency</strong> once per hour</p>\n<p><strong>Effect</strong> You draw a card from the bandolier and Interact to load the card into a gun or crossbow you're wielding that requires 1 action to reload. The drawn card immediately transforms into magical ammunition with a type depending on the drawn card's suit, and a new copy of that card returns to the deck, ready to be drawn again.</p>\n<p>When the card transforms into ammunition, it transforms into a firearm round or crossbow bolt appropriate for the weapon you chose to reload, even if magical ammunition of the drawn variety would normally be limited to ammunition of a different type (such as a storm arrow normally only being available in arrow form). Either draw a card from the Harrow deck or roll 1d6 to determine the suit of the card. The result determines the type of magical ammunition the card becomes, as per the table below. Magical ammunition created this way lasts 10 minutes or until you fire it, whichever comes first.</p>\n<table class=\"pf2-table\">\n<thead>\n<tr>\n<th>d6</th>\n<th>Ability (Suit)</th>\n<th>Ammunition</th>\n</tr>\n</thead>\n<tbody>\n<tr>\n<td>1</td>\n<td>Strength (Hammer)</td>\n<td>Meteor shot</td>\n</tr>\n<tr>\n<td>2</td>\n<td>Dexterity (Key)</td>\n<td>Storm arrow</td>\n</tr>\n<tr>\n<td>3</td>\n<td>Constitution (Shield)</td>\n<td>Corrosive ammunition</td>\n</tr>\n<tr>\n<td>4</td>\n<td>Intelligence (Book)</td>\n<td>Explosive shot</td>\n</tr>\n<tr>\n<td>5</td>\n<td>Wisdom (Star)</td>\n<td>Terrifying ammunition</td>\n</tr>\n<tr>\n<td>6</td>\n<td>Charisma (Crown)</td>\n<td>Fairy bullet</td>\n</tr>\n</tbody>\n</table>"
        },
        "equippedBulk": {
            "value": ""
        },
        "hardness": 0,
        "hp": {
            "brokenThreshold": 0,
            "max": 0,
            "value": 0
        },
        "identification": {
            "misidentified": {},
            "status": "identified",
            "unidentified": {
                "data": {
                    "description": {
                        "value": ""
                    }
                },
                "img": "",
                "name": ""
            }
        },
        "level": {
            "value": 12
        },
        "negateBulk": {
            "value": "0"
        },
        "preciousMaterial": {
            "value": null
        },
        "preciousMaterialGrade": {
            "value": null
        },
        "price": {
            "value": "2000 gp"
        },
        "quantity": 1,
        "rules": [],
        "size": "med",
        "source": {
            "value": "Pathfinder Guns & Gears"
        },
        "stackGroup": null,
        "stowing": false,
        "traits": {
            "custom": "",
            "rarity": "uncommon",
            "value": [
                "conjuration",
                "invested",
                "magical"
            ]
        },
        "usage": {
            "value": "worn"
        },
        "weight": {
            "value": "L"
        }
    },
    "effects": [],
    "flags": {},
    "img": "systems/pf2e/icons/default-icons/backpack.svg",
    "name": "Lucky Draw Bandolier (Greater)",
    "type": "backpack"
}
