{
    "_id": "Iic9QpNemaumfkHc",
    "data": {
        "armor": {
            "value": 3
        },
        "baseItem": null,
        "brokenThreshold": {
            "value": null
        },
        "category": "medium",
        "check": {
            "value": -2
        },
        "containerId": null,
        "description": {
            "value": "<p>This +2 adamantine scale mail appears to have a fortification rune but grants none of its effects. Whenever you are critically hit, after taking damage, you become petrified for 1 round. Once the curse has activated for the first time, the armor fuses to you.</p>"
        },
        "dex": {
            "value": 2
        },
        "equippedBulk": {
            "value": "2"
        },
        "group": "composite",
        "hardness": 0,
        "hp": {
            "brokenThreshold": 0,
            "max": 0,
            "value": 0
        },
        "identification": {
            "misidentified": {},
            "status": "identified",
            "unidentified": {
                "data": {
                    "description": {
                        "value": ""
                    }
                },
                "img": "",
                "name": ""
            }
        },
        "level": {
            "value": 14
        },
        "negateBulk": {
            "value": "0"
        },
        "potencyRune": {
            "value": 2
        },
        "preciousMaterial": {
            "value": "adamantine"
        },
        "preciousMaterialGrade": {
            "value": "standard"
        },
        "price": {
            "value": "0 gp"
        },
        "propertyRune1": {
            "value": ""
        },
        "propertyRune2": {
            "value": ""
        },
        "propertyRune3": {
            "value": ""
        },
        "propertyRune4": {
            "value": ""
        },
        "quantity": 1,
        "resiliencyRune": {
            "value": ""
        },
        "rules": [],
        "size": "med",
        "source": {
            "value": "Pathfinder Gamemastery Guide"
        },
        "speed": {
            "value": -5
        },
        "stackGroup": null,
        "strength": {
            "value": 14
        },
        "traits": {
            "custom": "",
            "rarity": "rare",
            "value": [
                "cursed",
                "invested",
                "magical",
                "transmutation"
            ]
        },
        "usage": {
            "value": "wornarmor"
        },
        "weight": {
            "value": "3"
        }
    },
    "effects": [],
    "flags": {},
    "img": "systems/pf2e/icons/equipment/cursed-items/medusa-armor.webp",
    "name": "Medusa Armor",
    "type": "armor"
}
