{
    "_id": "9WenEIQrBV8POQU1",
    "data": {
        "activation": {
            "condition": "",
            "cost": 0,
            "type": ""
        },
        "autoDestroy": {
            "_deprecated": true,
            "value": true
        },
        "autoUse": {
            "_deprecated": true,
            "value": true
        },
        "baseItem": null,
        "brokenThreshold": {
            "value": 0
        },
        "charges": {
            "_deprecated": true,
            "max": "1",
            "value": "1"
        },
        "consumableType": {
            "value": "other"
        },
        "consume": {
            "_deprecated": true,
            "value": "8d8+30"
        },
        "containerId": null,
        "description": {
            "value": "<p>This fruit is slowly, constantly changing shape, transforming from one fruit into another, but always appearing at the peak of ripeness.</p>\n<p>When you consume the fruit, it attempts to counteract all curses, diseases, and poisons affecting you, and you immediately regain [[/r 8d8+30]] Hit Points. The fruit has a counteract level of 9 and a [[/r 1d20+30]] modifier for the rolls against each condition.</p>\n<p>The fruit's seed remains after consumption and can be planted later, becoming a seed-shaped @Compendium[pf2e.equipment-srd.Feather Token (Tree)]{Feather Token (Tree)} that sprouts a tree bearing many kinds of mundane fruit.</p>"
        },
        "duration": {
            "units": "",
            "value": null
        },
        "equippedBulk": {
            "value": ""
        },
        "hardness": 0,
        "hp": {
            "brokenThreshold": 0,
            "max": 0,
            "value": 0
        },
        "identification": {
            "misidentified": {},
            "status": "identified",
            "unidentified": {
                "data": {
                    "description": {
                        "value": ""
                    }
                },
                "img": "",
                "name": ""
            }
        },
        "level": {
            "value": 19
        },
        "negateBulk": {
            "value": "0"
        },
        "preciousMaterial": {
            "value": ""
        },
        "preciousMaterialGrade": {
            "value": ""
        },
        "price": {
            "value": "8,000 gp"
        },
        "quantity": 1,
        "range": {
            "long": null,
            "units": "",
            "value": null
        },
        "rules": [],
        "size": "med",
        "source": {
            "value": "Pathfinder #156: The Apocalypse Prophet"
        },
        "spell": {
            "data": null,
            "heightenedLevel": null
        },
        "stackGroup": null,
        "target": {
            "type": "",
            "units": "",
            "value": null
        },
        "traits": {
            "custom": "",
            "rarity": "rare",
            "value": [
                "consumable",
                "healing",
                "necromancy",
                "primal"
            ]
        },
        "usage": {
            "value": "held-in-one-hand"
        },
        "uses": {
            "autoDestroy": true,
            "autoUse": true,
            "max": 0,
            "per": null,
            "value": 0
        },
        "weight": {
            "value": "L"
        }
    },
    "effects": [],
    "flags": {},
    "img": "systems/pf2e/icons/equipment/consumables/other-consumables/panacea-fruit.webp",
    "name": "Panacea Fruit",
    "type": "consumable"
}
