{
    "_id": "1bvH8zFQvDYky9tr",
    "data": {
        "baseItem": null,
        "brokenThreshold": {
            "value": 0
        },
        "containerId": null,
        "description": {
            "value": "<p>This amulet is hollow and shaped in the form of an unblinking eye. Its cavity typically holds some fragment of occult text. While wearing the pendant, you gain a +2 item bonus to Occultism checks, and you can cast the <em>@Compendium[pf2e.spells-srd.Guidance]{Guidance}</em> cantrip as an occult innate spell.</p>\n<p>The pendant can be activated.</p>\n<p><strong>Activate</strong> 10 minutes (Cast a Spell)</p>\n<p><strong>Frequency</strong> once per day</p>\n<p><strong>Effect</strong> You cast a 4th-level <em>@Compendium[pf2e.spells-srd.Dream Message]{Dream Message}</em> spell.</p>\n<hr />\n<p>Automatically applied effects:</p>\n<ul>\n<li>+2 item bonus to Occultism checks</li>\n</ul>"
        },
        "equippedBulk": {
            "value": ""
        },
        "hardness": 0,
        "hp": {
            "brokenThreshold": 0,
            "max": 0,
            "value": 0
        },
        "identification": {
            "misidentified": {},
            "status": "identified",
            "unidentified": {
                "data": {
                    "description": {
                        "value": ""
                    }
                },
                "img": "",
                "name": ""
            }
        },
        "level": {
            "value": 9
        },
        "negateBulk": {
            "value": "0"
        },
        "preciousMaterial": {
            "value": ""
        },
        "preciousMaterialGrade": {
            "value": ""
        },
        "price": {
            "value": "650 gp"
        },
        "quantity": 1,
        "rules": [
            {
                "key": "FlatModifier",
                "selector": "occultism",
                "type": "item",
                "value": 2
            }
        ],
        "size": "med",
        "source": {
            "value": "Pathfinder Core Rulebook"
        },
        "stackGroup": null,
        "traits": {
            "custom": "",
            "rarity": "common",
            "value": [
                "divination",
                "invested",
                "occult"
            ]
        },
        "usage": {
            "value": "worn"
        },
        "weight": {
            "value": "-"
        }
    },
    "effects": [],
    "flags": {},
    "img": "systems/pf2e/icons/equipment/worn-items/other-worn-items/pendant-of-the-occult.webp",
    "name": "Pendant of the Occult (Greater)",
    "type": "equipment"
}
