{
    "_id": "CS3mKu9koUfRiHJo",
    "data": {
        "MAP": {
            "value": ""
        },
        "baseItem": "alchemical-bomb",
        "bonus": {
            "value": 2
        },
        "bonusDamage": {
            "value": 0
        },
        "brokenThreshold": {
            "value": 0
        },
        "category": "martial",
        "containerId": null,
        "damage": {
            "damageType": "fire",
            "dice": 3,
            "die": "",
            "value": ""
        },
        "description": {
            "value": "<p><strong>Usage</strong> held in 1 hand</p>\n<p><strong>Activate <span class=\"pf2-icon\">1</span></strong> Strike</p>\n<p>Sap from redpitch pines, if properly distilled into a gummy, incendiary mass, ignites when exposed to the air. A redpitch bomb deals the listed fire damage, persistent fire damage, and splash damage. Many types grant an item bonus to attack rolls.</p>\n<p>You gain a +2 bonus on attack rolls. The bomb deals 3 fire damage, 3d4 persistent fire damage, and 3 fire splash damage. On a critical hit, the target is @Compendium[pf2e.conditionitems.Clumsy]{Clumsy 2} until the start of your next turn.</p>"
        },
        "equippedBulk": {
            "value": ""
        },
        "group": "bomb",
        "hardness": 0,
        "hp": {
            "brokenThreshold": 0,
            "max": 0,
            "value": 0
        },
        "identification": {
            "misidentified": {},
            "status": "identified",
            "unidentified": {
                "data": {
                    "description": {
                        "value": ""
                    }
                },
                "img": "",
                "name": ""
            }
        },
        "level": {
            "value": 11
        },
        "negateBulk": {
            "value": "0"
        },
        "potencyRune": {
            "value": 0
        },
        "preciousMaterial": {
            "value": ""
        },
        "preciousMaterialGrade": {
            "value": ""
        },
        "price": {
            "value": "250 gp"
        },
        "property1": {
            "critDamage": "",
            "critDamageType": "",
            "critDice": 0,
            "critDie": "",
            "criticalConditionType": "",
            "criticalConditionValue": null,
            "damageType": "",
            "dice": 0,
            "die": "",
            "strikeConditionType": "",
            "strikeConditionValue": null,
            "value": ""
        },
        "propertyRune1": {
            "value": null
        },
        "propertyRune2": {
            "value": null
        },
        "propertyRune3": {
            "value": null
        },
        "propertyRune4": {
            "value": null
        },
        "quantity": 1,
        "range": 20,
        "reload": {
            "value": ""
        },
        "rules": [
            {
                "key": "Note",
                "outcome": [
                    "success"
                ],
                "selector": "{item|_id}-damage",
                "text": "<p class='compact-text'>@Localize[PF2E.BombNotes.RedpitchBomb.Greater.success]</p>"
            },
            {
                "key": "Note",
                "outcome": [
                    "criticalSuccess"
                ],
                "selector": "{item|_id}-damage",
                "text": "<p class='compact-text'>@Localize[PF2E.BombNotes.RedpitchBomb.Greater.criticalSuccess]</p>"
            }
        ],
        "size": "med",
        "source": {
            "value": "Pathfinder Blog"
        },
        "specific": {
            "value": false
        },
        "splashDamage": {
            "value": 3
        },
        "stackGroup": null,
        "strikingRune": {
            "value": ""
        },
        "traits": {
            "custom": "",
            "rarity": "rare",
            "value": [
                "alchemical",
                "bomb",
                "consumable",
                "fire",
                "splash"
            ]
        },
        "usage": {
            "value": "held-in-one-hand"
        },
        "weight": {
            "value": "L"
        }
    },
    "effects": [],
    "flags": {},
    "img": "systems/pf2e/icons/equipment/alchemical-items/alchemical-bombs/redpitch-bomb.webp",
    "name": "Redpitch Bomb (Greater)",
    "type": "weapon"
}
