{
    "_id": "s97FDCHi2UcfzKGn",
    "data": {
        "baseItem": null,
        "brokenThreshold": {
            "value": 0
        },
        "containerId": null,
        "description": {
            "value": "<p>This heavy iron ring is shaped to look like the head of a ram, with curling horns.</p>\n<p><strong>Activate</strong> <span class=\"pf2-icon\">A</span> or more (Interact)</p>\n<p><strong>Frequency</strong> once per minute</p>\n<p><strong>Effect</strong> A ram-shaped blast of force slams into one foe that you can see within 60 feet. The number of actions you spend to Activate this Item (from 1 to 3) determines the intensity of the force.</p>\n<p>The blow deals 2d6 force damage per action spent and pushes the target 5 feet per action spent. The target must attempt a @Check[type:fortitude|dc:22] save.</p>\n<hr />\n<p><strong>Critical Success</strong> The target is unaffected.</p>\n<p><strong>Success</strong> The target takes half damage and is pushed half the distance.</p>\n<p><strong>Failure</strong> The target takes full damage and is pushed the full distance.</p>\n<p><strong>Critical Failure</strong> The target takes double damage and is pushed twice the distance.</p>"
        },
        "equippedBulk": {
            "value": ""
        },
        "hardness": 0,
        "hp": {
            "brokenThreshold": 0,
            "max": 0,
            "value": 0
        },
        "identification": {
            "misidentified": {},
            "status": "identified",
            "unidentified": {
                "data": {
                    "description": {
                        "value": ""
                    }
                },
                "img": "",
                "name": ""
            }
        },
        "level": {
            "value": 6
        },
        "negateBulk": {
            "value": "0"
        },
        "preciousMaterial": {
            "value": ""
        },
        "preciousMaterialGrade": {
            "value": ""
        },
        "price": {
            "value": "220 gp"
        },
        "quantity": 1,
        "rules": [],
        "size": "med",
        "source": {
            "value": "Pathfinder Core Rulebook"
        },
        "stackGroup": null,
        "traits": {
            "custom": "",
            "rarity": "common",
            "value": [
                "evocation",
                "force",
                "invested",
                "magical"
            ]
        },
        "usage": {
            "value": "worn"
        },
        "weight": {
            "value": "-"
        }
    },
    "effects": [],
    "flags": {},
    "img": "systems/pf2e/icons/equipment/worn-items/other-worn-items/ring-of-the-ram.webp",
    "name": "Ring of the Ram",
    "type": "equipment"
}
