{
    "_id": "9XrsaIc80eXhKaoM",
    "data": {
        "baseItem": null,
        "brokenThreshold": {
            "value": 0
        },
        "containerId": null,
        "description": {
            "value": "<p>This silk rope measures 50 feet long and is capable of holding up to 3,000 pounds. If the rope is ever cut, only the longest remaining portion retains its magic.</p>\n<p><strong>Activate</strong> <span class=\"pf2-icon\">1</span> Interact</p>\n<p><strong>Frequency</strong> once per hour</p>\n<p><strong>Effect</strong> You hold one end of the rope and point to a destination. The rope animates for 1 minute, moving 10 feet per round until it reaches the destination or runs out of length. The rope can move across any non-damaging horizontal or vertical surface, but it can't extend upward without a surface to support it. At any point while the rope is animated, you can use an Interact action to wiggle the rope, giving it one of the following commands: stop in place, fasten securely to the nearest available object, detach from an object, or knot or unknot itself.</p>"
        },
        "equippedBulk": {
            "value": ""
        },
        "hardness": 0,
        "hp": {
            "brokenThreshold": 0,
            "max": 0,
            "value": 0
        },
        "identification": {
            "misidentified": {},
            "status": "identified",
            "unidentified": {
                "data": {
                    "description": {
                        "value": ""
                    }
                },
                "img": "",
                "name": ""
            }
        },
        "level": {
            "value": 5
        },
        "negateBulk": {
            "value": "0"
        },
        "preciousMaterial": {
            "value": ""
        },
        "preciousMaterialGrade": {
            "value": ""
        },
        "price": {
            "value": "125 gp"
        },
        "quantity": 1,
        "rules": [],
        "size": "med",
        "source": {
            "value": "Pathfinder Advanced Player's Guide"
        },
        "stackGroup": null,
        "traits": {
            "custom": "",
            "rarity": "common",
            "value": [
                "magical",
                "transmutation"
            ]
        },
        "usage": {
            "value": "held-in-one-hand"
        },
        "weight": {
            "value": "L"
        }
    },
    "effects": [],
    "flags": {},
    "img": "systems/pf2e/icons/equipment/held-items/rope-of-climbing.webp",
    "name": "Rope of Climbing (Moderate)",
    "type": "equipment"
}
