{
    "_id": "ZEKmCg8K2hUHbmnT",
    "data": {
        "activation": {
            "condition": "",
            "cost": 0,
            "type": ""
        },
        "autoDestroy": {
            "_deprecated": true,
            "value": true
        },
        "autoUse": {
            "_deprecated": true,
            "value": true
        },
        "baseItem": null,
        "brokenThreshold": {
            "value": 0
        },
        "charges": {
            "_deprecated": true,
            "max": "1",
            "value": "1"
        },
        "consumableType": {
            "value": "oil"
        },
        "consume": {
            "_deprecated": true,
            "value": ""
        },
        "containerId": null,
        "description": {
            "value": "<p>Applying this filmy salve to a creature helps it overcome magical paralysis. The creature recovers as if it were the target of a 3rd-level remove paralysis spell.</p>\n<p><strong>Activate</strong> <span class=\"pf2-icon\">A</span> Interact</p>"
        },
        "duration": {
            "units": "",
            "value": null
        },
        "equippedBulk": {
            "value": ""
        },
        "hardness": 0,
        "hp": {
            "brokenThreshold": 0,
            "max": 0,
            "value": 0
        },
        "identification": {
            "misidentified": {},
            "status": "identified",
            "unidentified": {
                "data": {
                    "description": {
                        "value": ""
                    }
                },
                "img": "",
                "name": ""
            }
        },
        "level": {
            "value": 6
        },
        "negateBulk": {
            "value": "0"
        },
        "preciousMaterial": {
            "value": ""
        },
        "preciousMaterialGrade": {
            "value": ""
        },
        "price": {
            "value": "40 gp"
        },
        "quantity": 1,
        "range": {
            "long": null,
            "units": "",
            "value": null
        },
        "rules": [],
        "size": "med",
        "source": {
            "value": "Pathfinder Core Rulebook"
        },
        "spell": {
            "data": null,
            "heightenedLevel": null
        },
        "stackGroup": null,
        "target": {
            "type": "",
            "units": "",
            "value": null
        },
        "traits": {
            "custom": "",
            "rarity": "common",
            "value": [
                "consumable",
                "healing",
                "magical",
                "necromancy",
                "oil"
            ]
        },
        "usage": {
            "value": "held-in-one-hand"
        },
        "uses": {
            "autoDestroy": true,
            "autoUse": true,
            "max": 0,
            "per": null,
            "value": 0
        },
        "weight": {
            "value": "L"
        }
    },
    "effects": [],
    "flags": {},
    "img": "systems/pf2e/icons/equipment/consumables/oils/salve-of-antiparalysis.webp",
    "name": "Salve of Antiparalysis",
    "type": "consumable"
}
