{
    "_id": "JvpiniS6wTHsDoFX",
    "data": {
        "activation": {
            "condition": "",
            "cost": 0,
            "type": ""
        },
        "autoDestroy": {
            "_deprecated": true,
            "value": true
        },
        "autoUse": {
            "_deprecated": true,
            "value": true
        },
        "baseItem": null,
        "brokenThreshold": {
            "value": 0
        },
        "charges": {
            "_deprecated": true,
            "max": 1,
            "value": 1
        },
        "consumableType": {
            "value": "poison"
        },
        "consume": {
            "_deprecated": true,
            "value": ""
        },
        "containerId": null,
        "description": {
            "value": "<p><strong>Activate</strong> <span class=\"pf2-icon\">2</span> Interact</p>\n<p>This complex toxin makes the muscles beneath a creature's skin loose and malleable, which fleshwarpers find useful in their work. Rough or jerky movements the victim performs concentrate the toxin in subdermal muscles and eventually cause skin and muscle to slough away.</p>\n<hr />\n<p><strong>Saving Throw</strong> @Check[type:fortitude|dc:25]</p>\n<p><strong>Onset</strong> 1 round</p>\n<p><strong>Maximum Duration</strong> 1 hour</p>\n<p><strong>Stage 1</strong> [[/r {1d6}[poison]]]{1d6 poison damage} for each action with the attack or move trait the victim uses (1 round)</p>\n<p><strong>Stage 2</strong> [[/r {1d6}[poison]]]{1d6 poison damage} and [[/r {1d6}[slashing]]]{1d6 slashing damage} for each action with the attack, manipulate, or move trait the victim uses (1 round)</p>\n<p><strong>Stage 3</strong> as Stage 2, but [[/r {1d6}[poison]]]{1d6 poison damage} and [[/r {2d6}[slashing]]]{2d6 slashing damage}, and forced movement also causes damage (1 hour)</p>"
        },
        "duration": {
            "units": "",
            "value": null
        },
        "equippedBulk": {
            "value": ""
        },
        "hardness": 0,
        "hp": {
            "brokenThreshold": 0,
            "max": 0,
            "value": 0
        },
        "identification": {
            "misidentified": {},
            "status": "identified",
            "unidentified": {
                "data": {
                    "description": {
                        "value": ""
                    }
                },
                "img": "",
                "name": ""
            }
        },
        "level": {
            "value": 7
        },
        "negateBulk": {
            "value": "0"
        },
        "preciousMaterial": {
            "value": ""
        },
        "preciousMaterialGrade": {
            "value": ""
        },
        "price": {
            "value": "60 gp"
        },
        "quantity": 1,
        "range": {
            "long": null,
            "units": "",
            "value": null
        },
        "rules": [],
        "size": "med",
        "source": {
            "value": "Pathfinder #164: Hands of the Devil"
        },
        "spell": {
            "data": null,
            "heightenedLevel": null
        },
        "stackGroup": null,
        "target": {
            "type": "",
            "units": "",
            "value": null
        },
        "traits": {
            "custom": "",
            "rarity": "rare",
            "value": [
                "alchemical",
                "consumable",
                "injury",
                "poison"
            ]
        },
        "usage": {
            "value": "held-in-two-hands"
        },
        "uses": {
            "autoDestroy": true,
            "autoUse": true,
            "max": 0,
            "per": null,
            "value": 0
        },
        "weight": {
            "value": "L"
        }
    },
    "effects": [],
    "flags": {},
    "img": "systems/pf2e/icons/equipment/alchemical-items/alchemical-poisons/sloughing-toxin.webp",
    "name": "Sloughing Toxin",
    "type": "consumable"
}
