{
    "_id": "f0lZf1oZYDEEeyYl",
    "data": {
        "baseItem": null,
        "brokenThreshold": {
            "value": 0
        },
        "containerId": null,
        "description": {
            "value": "<p>Created by Black Sovereign Kevoth-Kul, this unique alloy of <em>cold iron</em> and the skymetal noqual can provide protection from magical assault. The process of cold-forging the two materials together is quite complicated and precise. Characters in search of sovereign steel weapons and armor will almost assuredly have to travel to Starfall to procure gear made from this rare alloy. While some believe it possible to craft shields of sovereign steel as well, in one of his fits, Kevoth-Kul yelled that he had no use for them and banned anyone from making such a thing. So far, his smiths have been too afraid to confirm whether or not it was a joke. All sovereign steel items (including weapon and armor below) have a +4 circumstance bonus on saves against magic that the item makes, and grant their bonus to saves the owner makes specifically to protect the item from magic (such as against the <em>rusting grasp</em> spell).</p><h2>Sovereign Steel Items</h2>\n<table class=\"pf2-table\">\n<thead>\n<tr>\n<th>Sovereign Steel Items</th>\n<th>Hardness</th>\n<th>HP</th>\n<th>BT</th>\n</tr>\n</thead>\n<tbody>\n<tr>\n<td>Thin Items</td>\n<td> </td>\n<td> </td>\n<td> </td>\n</tr>\n<tr>\n<td>Standard-grade</td>\n<td>7</td>\n<td>28</td>\n<td>14</td>\n</tr>\n<tr>\n<td>High-grade</td>\n<td>10</td>\n<td>40</td>\n<td>20</td>\n</tr>\n<tr>\n<td>Items</td>\n<td> </td>\n<td> </td>\n<td> </td>\n</tr>\n<tr>\n<td>Standard-grade<strong></strong><p><strong></strong></p></td>\n<td>11</td>\n<td>44</td>\n<td>22</td>\n</tr>\n<tr>\n<td>High-grade<strong></strong><p><strong></strong></p></td>\n<td>14</td>\n<td>56</td>\n<td>28</td>\n</tr>\n<tr>\n<td>Structure</td>\n<td> </td>\n<td> </td>\n<td> </td>\n</tr>\n<tr>\n<td>Standard-grade<strong></strong><p><strong></strong></p></td>\n<td>22</td>\n<td>88</td>\n<td>44</td>\n</tr>\n<tr>\n<td>High-grade<strong></strong><p><strong></strong></p></td>\n<td>28</td>\n<td>112</td>\n<td>56</td>\n</tr>\n</tbody>\n</table>"
        },
        "equippedBulk": {
            "value": ""
        },
        "hardness": 0,
        "hp": {
            "brokenThreshold": 0,
            "max": 0,
            "value": 0
        },
        "identification": {
            "misidentified": {},
            "status": "identified",
            "unidentified": {
                "data": {
                    "description": {
                        "value": ""
                    }
                },
                "img": "",
                "name": ""
            }
        },
        "level": {
            "value": 0
        },
        "negateBulk": {
            "value": "0"
        },
        "preciousMaterial": {
            "value": ""
        },
        "preciousMaterialGrade": {
            "value": ""
        },
        "price": {
            "value": "700 gp"
        },
        "quantity": 1,
        "rules": [],
        "size": "med",
        "source": {
            "value": "Pathfinder Lost Omens: Legends"
        },
        "stackGroup": null,
        "traits": {
            "custom": "",
            "rarity": "rare",
            "value": [
                "precious"
            ]
        },
        "usage": {
            "value": "held-in-one-hand"
        },
        "weight": {
            "value": "L"
        }
    },
    "effects": [],
    "flags": {},
    "img": "systems/pf2e/icons/equipment/materials/sovereign-steel-chunk.webp",
    "name": "Sovereign Steel Chunk",
    "type": "equipment"
}
