{
    "_id": "kg6tEjEBFGeilmLO",
    "data": {
        "MAP": {
            "value": ""
        },
        "baseItem": "longspear",
        "bonus": {
            "value": 0
        },
        "bonusDamage": {
            "value": 0
        },
        "brokenThreshold": {
            "value": 0
        },
        "category": "simple",
        "containerId": null,
        "damage": {
            "damageType": "piercing",
            "dice": 1,
            "die": "d8",
            "value": ""
        },
        "description": {
            "value": "<p>The tip of this <em>+3 major striking greater flaming returning speed longspear</em> is edged with several razor-sharp obsidian blades. The spear has the thrown 30 feet weapon trait, in addition to the normal weapon traits for a longspear.</p>\n<p>While the <em>Spear of the Destroyer's Flame</em> is in your possession, you gain fire resistance 20. When you critically hit a creature with the spear, the creature's blood begins to boil, unleashing blasts of heat from the wound. The creature takes [[/r {2d8}[persistent,fire]]]{2d8} @Compendium[pf2e.conditionitems.Persistent Damage]{Persistent fire Damage}, in addition to the persistent fire damage from the greater flaming rune; all creatures adjacent to the creature when it takes the persistent fire damage take an equal amount of fire damage. Like the fire damage from the greater flaming rune, this fire damage ignores a creature's fire resistance, though it doesn't ignore fire immunity.</p>\n<p>In addition to its deadliness as a weapon, the <em>Spear of the Destroyer's Flame</em> gives its wielder full control over the Army of Fire, though the orders of the Commander of Flame supersede the orders of anyone wielding the spear, as noted on page 17. While the spear is in your possession, you're aware of the location of the Army of Fire and the army's distance from you. In addition, you can give orders to the Army of Fire, and the army's members will understand and obey you, regardless of what language you speak. If you're within 1 mile of the Army of Fire, the army and its members gain a +10 circumstance bonus to their Speeds. Any members of the Army of Fire within 100 feet of you become @Compendium[pf2e.conditionitems.Quickened]{Quickened} and can use the additional action to Step, Stride, or Strike. The army remains quickened for 1 minute after moving further than 100 feet from you.</p>\n<p>The Army of Fire has unwavering loyalty to the Commander of Flame, an individual who has completed a special activation that ties their soul to the spear. As long as the Army of Fire can see and hear the Commander of Flame, the army will follow the Commander's orders. The Commander of Flame can sense the presence of the Army of Fire and issue orders, regardless of language, with the same effects as for someone in possession of the spear. The Commander of Flame still needs the spear in hand to muster the Army of Fire, however.</p>\n<p>If the Commander of Flame doesn't hold the <em>Spear of the Destroyer's Flame</em> for 1 week, it returns to Cuetzmonquali's gut, instantly teleporting to the creature's location. If Cuetzmonquali is dead at this time, the spear also resurrects the creature, using the effects of a critical success on a 10th-level <em>@Compendium[pf2e.spells-srd.Resurrect]{Resurrect}</em> ritual.</p>\n<p><strong>Activate</strong> 1 minute (envision, Interact)</p>\n<p><strong>Frequency</strong> once per day</p>\n<p><strong>Effect</strong> You attempt to tie your soul to the spear. If the current Commander of Flame still lives, you must attempt either a Will save, Diplomacy check, Intimidation check, or Warfare Lore check. The DC of this check is equal to the current Commander's Will DC, Diplomacy DC, Intimidation DC, or Warfare Lore DC, whichever is highest. On a success, you become the Commander of Flame. On a failure, the current Commander knows your name and appearance and is aware of your exact location for 24 hours. Activate 1 hour (envision, Interact)</p>\n<p><strong>Frequency</strong> once per week</p>\n<p><strong>Effect</strong> You use the spear's power to muster the Army of Fire. You can choose to either call the Army of Fire to your location or move yourself to the army's location. When calling the army, you select an area you can see within 500 feet. The army is instantly teleported to the location you select, spreading out as necessary to arrive safely. When moving yourself, you instantly teleport yourself to a location within 500 feet of the army. The army is composed of souls given form as burning humanoids, elementals, spirits, and undead.</p>\n<p><strong>Destruction</strong> If the entire Army of Fire is destroyed and the Commander of Flame is slain with the <em>Spear of the Destroyer's Flame</em>, the spear shatters into a massive explosion of flame, dealing [[/r {20d10}[fire]]]{20d10 fire damage} in a @Template[type:burst|distance:30] (@Check[type:reflex|dc:43|basic:true|name:Spear of the Destroyer's Flame Destruction|traits:evocation,magical,fire] save). In addition, the Commander's soul burns away to nothing, destroying the Commander forever and releasing the bound souls of the Army of Fire to the River of Souls.</p>"
        },
        "equippedBulk": {
            "value": ""
        },
        "group": "spear",
        "hardness": 0,
        "hp": {
            "brokenThreshold": 0,
            "max": 0,
            "value": 0
        },
        "identification": {
            "misidentified": {},
            "status": "identified",
            "unidentified": {
                "data": {
                    "description": {
                        "value": ""
                    }
                },
                "img": "",
                "name": ""
            }
        },
        "level": {
            "value": 20
        },
        "negateBulk": {
            "value": "0"
        },
        "potencyRune": {
            "value": 3
        },
        "preciousMaterial": {
            "value": null
        },
        "preciousMaterialGrade": {
            "value": null
        },
        "price": {
            "value": "0"
        },
        "property1": {
            "critDamage": "",
            "critDamageType": "",
            "critDice": null,
            "critDie": "",
            "criticalConditionType": "",
            "criticalConditionValue": null,
            "damageType": "",
            "dice": null,
            "die": "",
            "strikeConditionType": "",
            "strikeConditionValue": null,
            "value": ""
        },
        "propertyRune1": {
            "value": "greaterFlaming"
        },
        "propertyRune2": {
            "value": "returning"
        },
        "propertyRune3": {
            "value": "speed"
        },
        "propertyRune4": {
            "value": null
        },
        "quantity": 1,
        "range": null,
        "reload": {
            "value": ""
        },
        "rules": [],
        "size": "med",
        "source": {
            "value": "Pathfinder Lost Omens: Monsters of Myth"
        },
        "specific": {
            "material": null,
            "runes": {
                "potency": 3,
                "striking": "majorStriking"
            },
            "value": true
        },
        "splashDamage": {
            "value": 0
        },
        "stackGroup": null,
        "strikingRune": {
            "value": "majorStriking"
        },
        "traits": {
            "custom": "",
            "rarity": "unique",
            "value": [
                "artifact",
                "reach"
            ]
        },
        "usage": {
            "value": "held-in-two-hands"
        },
        "weight": {
            "value": "2"
        }
    },
    "effects": [],
    "flags": {},
    "img": "systems/pf2e/icons/equipment/weapons/longspear.webp",
    "name": "Spear of the Destroyer's Flame",
    "type": "weapon"
}
