{
    "_id": "RtQwbPiJs2FRyfNE",
    "data": {
        "baseItem": null,
        "brokenThreshold": {
            "value": 0
        },
        "containerId": "null",
        "description": {
            "value": "<p>Each <em>specialist's ring</em> is dedicated to a single school of magic, and the ring is covered in symbols and glyphs related to that school according to the creator's arcane studies. A specialist's ring has the trait corresponding to its school of magic. You gain a +2 item bonus to Arcana checks, and a +1 circumstance bonus to recognize magical effects and items of the specific school of magic.</p>\n<hr />\n<p><strong>Activate</strong> <span class=\"pf2-icon\">f</span> envision</p>\n<p><strong>Frequency</strong> once per day</p>\n<p><strong>Effect</strong> You gain 1 Focus Point, which you can use only to cast a wizard school spell of the corresponding school. If not used by the end of your turn, this Focus Point is lost.</p>"
        },
        "equippedBulk": {
            "value": ""
        },
        "hardness": 0,
        "hp": {
            "brokenThreshold": 0,
            "max": 0,
            "value": 0
        },
        "identification": {
            "misidentified": {},
            "status": "identified",
            "unidentified": {
                "data": {
                    "description": {
                        "value": ""
                    }
                },
                "img": "",
                "name": ""
            }
        },
        "level": {
            "value": 10
        },
        "negateBulk": {
            "value": "0"
        },
        "preciousMaterial": {
            "value": null
        },
        "preciousMaterialGrade": {
            "value": null
        },
        "price": {
            "value": "1000 gp"
        },
        "quantity": 1,
        "rules": [
            {
                "key": "FlatModifier",
                "selector": "arcana",
                "type": "item",
                "value": 2
            }
        ],
        "size": "med",
        "source": {
            "value": "Pathfinder Secrets of Magic"
        },
        "stackGroup": null,
        "traits": {
            "custom": "",
            "rarity": "common",
            "value": [
                "focused",
                "invested",
                "magical"
            ]
        },
        "usage": {
            "value": "worn"
        },
        "weight": {
            "value": "-"
        }
    },
    "effects": [],
    "flags": {},
    "img": "systems/pf2e/icons/default-icons/equipment.svg",
    "name": "Specialist's Ring",
    "type": "equipment"
}
