{
    "_id": "eHs1vJMXGLIPues8",
    "data": {
        "MAP": {
            "value": ""
        },
        "baseItem": "staff",
        "bonus": {
            "value": 0
        },
        "bonusDamage": {
            "value": 0
        },
        "brokenThreshold": {
            "value": 0
        },
        "category": "simple",
        "containerId": null,
        "damage": {
            "damageType": "bludgeoning",
            "dice": 1,
            "die": "d4",
            "value": ""
        },
        "description": {
            "value": "<p>The carved night hag's hand at the end of this sandalwood staff clutches a rough gem. The <em>staff of the Dreamlands</em> makes it easier to navigate and survive in the Dreamlands and recognize its denizens. When wielding the staff, you gain a +1 circumstance bonus to Survival checks while in the Dreamlands and to checks to Recall Knowledge about creatures with the dream trait.</p>\n<p><strong>Activate</strong> @Compendium[pf2e.actionspf2e.Cast a Spell]{Cast a Spell}</p>\n<p><strong>Effect</strong> You expend a number of charges from the staff to cast a spell from its list.</p>\n<hr />\n<ul>\n<li><strong>Cantrip</strong> <em>@Compendium[pf2e.spells-srd.Daze]{Daze}</em></li>\n<li><strong>1st</strong> <em>@Compendium[pf2e.spells-srd.Alarm]{Alarm}</em>, <em>@Compendium[pf2e.spells-srd.Déjà Vu]{Déjà Vu}</em>, <em>@Compendium[pf2e.spells-srd.Sleep]{Sleep}</em></li>\n<li><strong>2nd</strong> <em>@Compendium[pf2e.spells-srd.Phantasmal Treasure]{Phantasmal Treasure}</em>, <em>@Compendium[pf2e.spells-srd.Silence]{Silence}</em></li>\n<li><strong>3rd</strong> <em>@Compendium[pf2e.spells-srd.Dream Message]{Dream Message}</em></li>\n<li><strong>4th</strong> <em>dream message</em>, <em>@Compendium[pf2e.spells-srd.Nightmare]{Nightmare}</em>, <em>sleeps}</em></li>\n<li><strong>5th</strong> <em>@Compendium[pf2e.spells-srd.Dreaming Potential]{Dreaming Potential}</em>, <em>@Compendium[pf2e.spells-srd.Illusory Scene]{Illusory Scene}</em></li>\n</ul>\n<p><strong>Craft Requirements</strong> Supply one casting of all listed levels of all listed spells.</p>"
        },
        "equippedBulk": {
            "value": ""
        },
        "group": "club",
        "hardness": 0,
        "hp": {
            "brokenThreshold": 0,
            "max": 0,
            "value": 0
        },
        "identification": {
            "misidentified": {},
            "status": "identified",
            "unidentified": {
                "data": {
                    "description": {
                        "value": ""
                    }
                },
                "img": "",
                "name": ""
            }
        },
        "level": {
            "value": 12
        },
        "negateBulk": {
            "value": "0"
        },
        "potencyRune": {
            "value": 0
        },
        "preciousMaterial": {
            "value": null
        },
        "preciousMaterialGrade": {
            "value": null
        },
        "price": {
            "value": "2000 gp"
        },
        "property1": {
            "critDamage": "",
            "critDamageType": "",
            "critDice": null,
            "critDie": "",
            "criticalConditionType": "",
            "criticalConditionValue": null,
            "damageType": "",
            "dice": null,
            "die": "",
            "strikeConditionType": "",
            "strikeConditionValue": null,
            "value": ""
        },
        "propertyRune1": {
            "value": null
        },
        "propertyRune2": {
            "value": null
        },
        "propertyRune3": {
            "value": null
        },
        "propertyRune4": {
            "value": null
        },
        "quantity": 1,
        "range": null,
        "reload": {
            "value": ""
        },
        "rules": [
            {
                "domain": "all",
                "key": "RollOption",
                "label": "In the Dreamlands",
                "option": "terrain:dreamlands",
                "toggleable": true
            },
            {
                "key": "FlatModifier",
                "predicate": {
                    "any": [
                        "terrain:dreamlands"
                    ]
                },
                "selector": "survival",
                "type": "circumstance",
                "value": 1
            }
        ],
        "size": "med",
        "source": {
            "value": "Pathfinder Lost Omens: The Grand Bazaar"
        },
        "specific": {
            "material": null,
            "price": "0 gp",
            "runes": {
                "potency": 0,
                "striking": ""
            },
            "value": true
        },
        "splashDamage": {
            "value": 0
        },
        "stackGroup": null,
        "strikingRune": {
            "value": ""
        },
        "traits": {
            "custom": "",
            "rarity": "common",
            "value": [
                "enchantment",
                "magical",
                "staff",
                "two-hand-d8"
            ]
        },
        "usage": {
            "value": "held-in-one-hand"
        },
        "weight": {
            "value": "1"
        }
    },
    "effects": [],
    "flags": {},
    "img": "systems/pf2e/icons/equipment/weapons/staff.webp",
    "name": "Staff of the Dreamlands (Greater)",
    "type": "weapon"
}
