{
    "_id": "tnPteWjbm97bdTj5",
    "data": {
        "baseItem": null,
        "brokenThreshold": {
            "value": 0
        },
        "containerId": null,
        "description": {
            "value": "<p>This thin leather cord bears delicate runic markings and threads through an item that can bear affixed talismans.</p>\n<p>When you Affix a Talisman to that item, you can thread the talisman onto the cord, activating the cord's preserving effects. The cord is attuned to a particular school of magic, chosen when the cord was created. It gains the corresponding trait for that school. When you activate a talisman threaded through a cord with the same magic school trait that's also the cord's level or lower, attempt a DC 16 flat check. On a success, that talisman is not consumed and can be used again.</p>"
        },
        "equippedBulk": {
            "value": ""
        },
        "hardness": 0,
        "hp": {
            "brokenThreshold": 0,
            "max": 0,
            "value": 0
        },
        "identification": {
            "misidentified": {},
            "status": "identified",
            "unidentified": {
                "data": {
                    "description": {
                        "value": ""
                    }
                },
                "img": "",
                "name": ""
            }
        },
        "level": {
            "value": 4
        },
        "negateBulk": {
            "value": "0"
        },
        "preciousMaterial": {
            "value": ""
        },
        "preciousMaterialGrade": {
            "value": ""
        },
        "price": {
            "value": "85 gp"
        },
        "quantity": 1,
        "rules": [],
        "size": "med",
        "source": {
            "value": "Pathfinder Lost Omens: Pathfinder Society Guide"
        },
        "stackGroup": null,
        "traits": {
            "custom": "",
            "rarity": "uncommon",
            "value": [
                "abjuration",
                "invested",
                "magical"
            ]
        },
        "usage": {
            "value": "worn"
        },
        "weight": {
            "value": "-"
        }
    },
    "effects": [],
    "flags": {},
    "img": "systems/pf2e/icons/equipment/worn-items/other-worn-items/talisman-cord.webp",
    "name": "Talisman Cord (Lesser)",
    "type": "equipment"
}
