{
    "_id": "4pVGwkVi6izoUuLC",
    "data": {
        "MAP": {
            "value": ""
        },
        "activations": {
            "e63yd5ejlkivehch": {
                "actionCost": {
                    "type": "action",
                    "value": 1
                },
                "components": {
                    "cast": false,
                    "command": false,
                    "envision": false,
                    "interact": false
                },
                "description": {
                    "value": ""
                },
                "frequency": {
                    "duration": null,
                    "max": 0,
                    "value": 0
                },
                "id": "e63yd5ejlkivehch",
                "traits": {
                    "custom": "",
                    "value": []
                }
            }
        },
        "baseItem": "alchemical-bomb",
        "bonus": {
            "value": 1
        },
        "bonusDamage": {
            "value": 0
        },
        "brokenThreshold": {
            "value": 0
        },
        "category": "martial",
        "containerId": "null",
        "damage": {
            "damageType": "fire",
            "dice": 0,
            "die": "",
            "value": ""
        },
        "description": {
            "value": "<p><strong>Activate</strong> <span class=\"pf2-icon\">A</span> Strike</p>\n<p>A mixture of rendered animal fat and acids designed to ignite the fat when exposed to air, a tallow bomb creates a splash of burning oil that adheres to skin, clothes, and hair. A tallow bomb deals the listed fire damage, persistent fire damage, and splash damage.</p>\n<p>On a critical hit, a living creature taking persistent fire damage from a tallow bomb is @Compendium[pf2e.conditionitems.Sickened]{Sickened 1} from the stench of burning fat and can't reduce its sickened value below 1 while the persistent fire damage lasts.</p>\n<p>You gain a +1 item bonus to attack rolls. The bomb deals 2d4 persistent fire damage and 2 fire splash damage.</p>"
        },
        "equippedBulk": {
            "value": ""
        },
        "group": "bomb",
        "hardness": 0,
        "hp": {
            "brokenThreshold": 0,
            "max": 0,
            "value": 0
        },
        "identification": {
            "misidentified": {},
            "status": "identified",
            "unidentified": {
                "data": {
                    "description": {
                        "value": ""
                    }
                },
                "img": "",
                "name": ""
            }
        },
        "level": {
            "value": 3
        },
        "negateBulk": {
            "value": "0"
        },
        "potencyRune": {
            "value": 0
        },
        "preciousMaterial": {
            "value": null
        },
        "preciousMaterialGrade": {
            "value": null
        },
        "price": {
            "value": "10 gp"
        },
        "property1": {
            "critDamage": "",
            "critDamageType": "",
            "critDice": 0,
            "critDie": "",
            "criticalConditionType": "",
            "criticalConditionValue": null,
            "damageType": "",
            "dice": 0,
            "die": "",
            "strikeConditionType": "",
            "strikeConditionValue": null,
            "value": ""
        },
        "propertyRune1": {
            "value": null
        },
        "propertyRune2": {
            "value": null
        },
        "propertyRune3": {
            "value": null
        },
        "propertyRune4": {
            "value": null
        },
        "quantity": 1,
        "range": 20,
        "reload": {
            "value": ""
        },
        "rules": [
            {
                "key": "Note",
                "outcome": [
                    "success"
                ],
                "selector": "{item|_id}-damage",
                "text": "<p class='compact-text'>@Localize[PF2E.BombNotes.TallowBomb.Moderate.success]</p>"
            },
            {
                "key": "Note",
                "outcome": [
                    "criticalSuccess"
                ],
                "selector": "{item|_id}-damage",
                "text": "<p class='compact-text'>@Localize[PF2E.BombNotes.TallowBomb.Moderate.criticalSuccess]</p>"
            }
        ],
        "size": "med",
        "source": {
            "value": "Pathfinder #175: Broken Tusk Moon"
        },
        "specific": {
            "value": false
        },
        "splashDamage": {
            "value": 2
        },
        "stackGroup": null,
        "strikingRune": {
            "value": ""
        },
        "traits": {
            "custom": "",
            "rarity": "uncommon",
            "value": [
                "alchemical",
                "bomb",
                "consumable",
                "fire",
                "splash"
            ]
        },
        "usage": {
            "value": "held-in-one-hand"
        },
        "weight": {
            "value": "L"
        }
    },
    "effects": [],
    "flags": {},
    "img": "systems/pf2e/icons/default-icons/weapon.svg",
    "name": "Tallow Bomb (Moderate)",
    "type": "weapon"
}
