{
    "_id": "EtIXWXnfYdV5AGzy",
    "data": {
        "MAP": {
            "value": ""
        },
        "baseItem": "dueling-pistol",
        "bonus": {
            "value": 0
        },
        "bonusDamage": {
            "value": 0
        },
        "brokenThreshold": {
            "value": 0
        },
        "category": "martial",
        "containerId": "null",
        "damage": {
            "damageType": "slashing",
            "dice": 1,
            "die": "d6",
            "value": ""
        },
        "description": {
            "value": "<p>This <em>+2 striking fearsome dueling pistol</em> is made from fine tigerwood, with the head of a tiger as the muzzle. Beneath the tiger head is a claw shaped bayonet. One of a set of four guns crafted as a gift to a Zenj family for delivery of rare healing and disease- abating herbs during an outbreak of a deadly disease in the Grand Duchy of Alkenstar, these firearms are now passed down to those who have done brave acts in service to the Zenj people. The flintlock sparks thrown by this weapon take the shape of pouncing tigers and the firearm's report sounds like a tiger's growl. Clever wielders use the firearm's report to panic their prey into mistakes and then pounce for the kill.</p>\n<p>This firearm's bullets deal slashing damage instead of piercing and add an additional [[/r {1d6}[persistent,bleed]]]{1d6} @Compendium[pf2e.conditionitems.Persistent Damage]{Persistent Bleed Damage} on a critical hit. This persistent bleed damage causes tiger-claw-shaped wounds to appear on the target.</p>\n<hr />\n<p><strong>Activate</strong> <span class=\"pf2-icon\">1</span> envision</p>\n<p><strong>Frequency</strong> once per day</p>\n<p><strong>Effect</strong> You capitalize on the fears your firearm engenders, terrifying your foes. Make a ranged Strike with this firearm against a target. If you successfully deal damage to your target, the target is also affected by a 4th-level <em>@Compendium[pf2e.spells-srd.Phantasmal Killer]{Phantasmal Killer}</em> with a spell DC of 28 (@Check[type:will|dc:28|showDC:all]). While phantasmal killer typically takes the shape of the target's worst fear, this effect always appears to the target in the form of a majestic and ferocious tiger.</p>"
        },
        "equippedBulk": {
            "value": ""
        },
        "group": "firearm",
        "hardness": 0,
        "hp": {
            "brokenThreshold": 0,
            "max": 0,
            "value": 0
        },
        "identification": {
            "misidentified": {},
            "status": "identified",
            "unidentified": {
                "data": {
                    "description": {
                        "value": ""
                    }
                },
                "img": "",
                "name": ""
            }
        },
        "level": {
            "value": 11
        },
        "negateBulk": {
            "value": "0"
        },
        "potencyRune": {
            "value": 2
        },
        "preciousMaterial": {
            "value": null
        },
        "preciousMaterialGrade": {
            "value": null
        },
        "price": {
            "value": "1400 gp"
        },
        "property1": {
            "critDamage": "",
            "critDamageType": "",
            "critDice": 0,
            "critDie": "",
            "criticalConditionType": "",
            "criticalConditionValue": null,
            "damageType": "",
            "dice": 0,
            "die": "",
            "strikeConditionType": "",
            "strikeConditionValue": null,
            "value": ""
        },
        "propertyRune1": {
            "value": "fearsome"
        },
        "propertyRune2": {
            "value": null
        },
        "propertyRune3": {
            "value": null
        },
        "propertyRune4": {
            "value": null
        },
        "quantity": 1,
        "range": 60,
        "reload": {
            "value": "1"
        },
        "rules": [
            {
                "key": "Note",
                "outcome": [
                    "criticalSuccess"
                ],
                "selector": "{item|_id}-damage",
                "text": "<p><strong>Tiger's Claw</strong> This firearm's bullets deal slashing damage instead of piercing and add an additional [[/r {1d6}[persistent,bleed]]]{1d6} @Compendium[pf2e.conditionitems.Persistent Damage]{Persistent Bleed Damage} on a critical hit.</p>"
            }
        ],
        "size": "med",
        "source": {
            "value": "Pathfinder Guns & Gears"
        },
        "specific": {
            "material": null,
            "price": "1400 gp",
            "runes": {
                "potency": 2,
                "striking": "striking"
            },
            "value": true
        },
        "splashDamage": {
            "value": 0
        },
        "stackGroup": null,
        "strikingRune": {
            "value": "striking"
        },
        "traits": {
            "custom": "",
            "rarity": "rare",
            "value": [
                "concealable",
                "concussive",
                "fatal-d10",
                "illusion",
                "primal"
            ]
        },
        "usage": {
            "value": "held-in-one-hand"
        },
        "weight": {
            "value": "L"
        }
    },
    "effects": [],
    "flags": {},
    "img": "systems/pf2e/icons/equipment/weapons/dueling-pistol.webp",
    "name": "Tiger's Claw",
    "type": "weapon"
}
