{
    "_id": "TXPQfQriNJqMYcfp",
    "data": {
        "baseItem": null,
        "brokenThreshold": {
            "value": 0
        },
        "containerId": null,
        "description": {
            "value": "<p>Finely carved from a solid piece of marble, this gleaming elephant statuette becomes a fully grown @Compendium[pf2e.pathfinder-bestiary.Elephant]{Elephant} when activated.</p>\n<p>The elephant can be called upon no more than four times per month. It remains for 24 hours as long as it is being used as a beast of burden or for transport.</p>\n<p>If it attempts an attack or otherwise engages in combat, it reverts to statuette form after [[/br 1d4 #rounds]]{1d4 rounds}.</p>"
        },
        "equippedBulk": {
            "value": ""
        },
        "hardness": 0,
        "hp": {
            "brokenThreshold": 0,
            "max": 0,
            "value": 0
        },
        "identification": {
            "misidentified": {},
            "status": "identified",
            "unidentified": {
                "data": {
                    "description": {
                        "value": ""
                    }
                },
                "img": "",
                "name": ""
            }
        },
        "level": {
            "value": 13
        },
        "negateBulk": {
            "value": "0"
        },
        "preciousMaterial": {
            "value": ""
        },
        "preciousMaterialGrade": {
            "value": ""
        },
        "price": {
            "value": "2,700 gp"
        },
        "quantity": 1,
        "rules": [],
        "size": "med",
        "source": {
            "value": "Pathfinder Core Rulebook"
        },
        "stackGroup": null,
        "traits": {
            "custom": "",
            "rarity": "common",
            "value": [
                "conjuration",
                "magical"
            ]
        },
        "usage": {
            "value": "held-in-one-hand"
        },
        "weight": {
            "value": "L"
        }
    },
    "effects": [],
    "flags": {},
    "img": "systems/pf2e/icons/equipment/held-items/wondrous-figurine-marble-elephant.webp",
    "name": "Wondrous Figurine (Marble Elephant)",
    "type": "equipment"
}
