{
    "_id": "unR8VVR4yyRnsmnB",
    "data": {
        "actionCategory": {
            "value": "defensive"
        },
        "actionType": {
            "value": "passive"
        },
        "actions": {
            "value": null
        },
        "description": {
            "value": "<p>When a ghost is destroyed, it re-forms after [[/br 2d4 #days]]{2d4 days} within the location it's bound to, fully healed. A ghost can be permanently destroyed only if someone determines the reason for its existence and sets right whatever prevents the spirit from resting.</p>"
        },
        "requirements": {
            "value": "Pathfinder Bestiary"
        },
        "rules": [],
        "source": {
            "value": ""
        },
        "traits": {
            "custom": "",
            "rarity": "common",
            "value": [
                "divine",
                "necromancy"
            ]
        },
        "trigger": {
            "value": ""
        },
        "weapon": {
            "value": ""
        }
    },
    "effects": [],
    "flags": {},
    "img": "systems/pf2e/icons/actions/Passive.webp",
    "name": "(Ghost) Rejuvenation",
    "type": "action"
}
