{
    "_id": "jjWisLWwcdxsqv8o",
    "data": {
        "actionCategory": {
            "value": "interaction"
        },
        "actionType": {
            "value": "passive"
        },
        "actions": {
            "value": null
        },
        "description": {
            "value": "<p>While in disguise, the Kallas Devil can attempt to keep others from noticing her Loathsome Stench by attempting a Deception check to Lie. She has a +4 circumstance bonus to this check.</p>"
        },
        "requirements": {
            "value": ""
        },
        "rules": [
            {
                "domain": "all",
                "key": "RollOption",
                "label": "Lying about Loathsome Stench",
                "option": "blameless",
                "toggleable": true
            },
            {
                "key": "FlatModifier",
                "predicate": {
                    "all": [
                        "blameless"
                    ]
                },
                "selector": "deception",
                "type": "circumstance",
                "value": 4
            }
        ],
        "source": {
            "value": "Pathfinder Lost Omens: Monsters of Myth"
        },
        "traits": {
            "custom": "",
            "rarity": "common",
            "value": []
        },
        "trigger": {
            "value": ""
        }
    },
    "effects": [],
    "flags": {},
    "img": "systems/pf2e/icons/actions/Passive.webp",
    "name": "(Kallas Devil) Blameless",
    "type": "action"
}
