{
    "_id": "HLPLYJ9bOazb2ZPX",
    "data": {
        "actionCategory": {
            "value": "defensive"
        },
        "actionType": {
            "value": "free"
        },
        "actions": {
            "value": null
        },
        "description": {
            "value": "<p data-visibility=\"gm\"><strong>Trigger</strong> The ravener takes excess damage to their soul ward but still has at least 51 Hit Points in their soul ward</p>\n<p><strong>Effect</strong> The ravener draws deeply into their soul ward, discorporating their body into soul energy in order to escape. They take 50 damage to their soul ward and their physical body vanishes, reappearing [[/br 1d4 #hours]]{1d4 hours} later in a random location within 1 mile from the location where they used Discorporate.</p>"
        },
        "requirements": {
            "value": ""
        },
        "rules": [],
        "source": {
            "value": "Pathfinder Bestiary 2"
        },
        "traits": {
            "custom": "",
            "rarity": "common",
            "value": [
                "divine",
                "necromancy"
            ]
        },
        "trigger": {
            "value": ""
        }
    },
    "effects": [],
    "flags": {},
    "img": "systems/pf2e/icons/actions/FreeAction.webp",
    "name": "(Ravener) Discorporate",
    "type": "action"
}
