{
    "_id": "AjTkksppymqzCivT",
    "data": {
        "actionCategory": {
            "value": "offensive"
        },
        "actionType": {
            "value": "action"
        },
        "actions": {
            "value": 2
        },
        "description": {
            "value": "<p>The vampire can cast <em>@Compendium[pf2e.spells-srd.Dominate]{Dominate}</em> at will as a divine innate spell. Casting it requires staring into the target's eyes, giving the spell the visual trait. The save DC uses the DC of the vampire's level, and a creature that succeeds is temporarily immune to that vampire's Dominate for 24 hours.</p>\n<p>Fully destroying the vampire ends the domination, but merely reducing the vampire to 0 HP is insufficient to break the spell.</p>"
        },
        "requirements": {
            "value": ""
        },
        "rules": [],
        "source": {
            "value": "Pathfinder Bestiary"
        },
        "traits": {
            "custom": "",
            "rarity": "common",
            "value": [
                "divine",
                "enchantment",
                "incapacitation",
                "mental",
                "visual"
            ]
        },
        "trigger": {
            "value": ""
        },
        "weapon": {
            "value": ""
        }
    },
    "effects": [],
    "flags": {},
    "img": "systems/pf2e/icons/actions/TwoActions.webp",
    "name": "(Vampire, True) Dominate",
    "type": "action"
}
