{
    "_id": "8D8NPBNMxQftBmyd",
    "content": "<table class=\"pf2-table\">\n<thead>\n<tr>\n<th>\n<h3><strong>Name</strong></h3>\n</th>\n<th>\n<h3><strong>Crit Effect</strong></h3>\n</th>\n<th>\n<h3><strong>Type</strong></h3>\n</th>\n</tr>\n</thead>\n<tbody>\n<tr>\n<td>Clipped your Hand</td>\n<td>You take 1d8 persistent bleed damage.</td>\n<td>\n<h3>Melee</h3>\n</td>\n</tr>\n<tr>\n<td>Oopsie!</td>\n<td>You hit yourself instead of the target.</td>\n<td>\n<h3>Ranged</h3>\n</td>\n</tr>\n<tr>\n<td>Ingrown Nail</td>\n<td>You take a -1 circumstance penalty to attack rolls until your score a critical hit.</td>\n<td>\n<h3>Unarmed</h3>\n</td>\n</tr>\n<tr>\n<td>Clatto Verata Necktie</td>\n<td>You critically hit your nearest ally.</td>\n<td>\n<h3>Spell</h3>\n</td>\n</tr>\n</tbody>\n</table>\n<h3 style=\"text-align: left;\"> </h3>",
    "flags": {},
    "name": "Critical Fumble Deck #46",
    "permission": {
        "default": 0
    }
}
