{
    "_id": "dCiYhvB488kKvpO0",
    "content": "<table class=\"pf2-table\">\n<thead>\n<tr>\n<th>\n<h3><strong>Name</strong></h3>\n</th>\n<th>\n<h3><strong>Crit Effect</strong></h3>\n</th>\n<th>\n<h3><strong>Type</strong></h3>\n</th>\n</tr>\n</thead>\n<tbody>\n<tr>\n<td>\n<h3>Box the Ears</h3>\n</td>\n<td>\n<h3>The target is deafened until healed.</h3>\n</td>\n<td>\n<h3>Bludgeoning</h3>\n</td>\n</tr>\n<tr>\n<td>\n<h3>Javelin Catcher</h3>\n</td>\n<td>\n<h3>Triple damage if the attack was ranged or thrown attack. Double damage for all other attacks.</h3>\n</td>\n<td>\n<h3>Piercing</h3>\n</td>\n</tr>\n<tr>\n<td>\n<h3>Lip Cut</h3>\n</td>\n<td>\n<h3>The target must succeed at a DC 5 flat check to cast spells with a verbal component until healed.</h3>\n</td>\n<td>\n<h3>Slashing</h3>\n</td>\n</tr>\n<tr>\n<td>\n<h3>Call of the Wild</h3>\n</td>\n<td>\n<h3>Triple damage to animals, beasts, and fey. Double damage to all other creatures.</h3>\n</td>\n<td>\n<h3>Bomb or Spell</h3>\n</td>\n</tr>\n</tbody>\n</table>\n<h3 style=\"text-align: left;\"> </h3>",
    "flags": {},
    "name": "Critical Hit Deck #36",
    "permission": {
        "default": 0
    }
}
