{
    "_id": "T8rc4C98gf87869G",
    "data": {
        "attributes": {
            "ac": {
                "value": 19
            },
            "hardness": 10,
            "hasHealth": true,
            "hp": {
                "details": "",
                "max": 44,
                "temp": 0,
                "value": 44
            },
            "stealth": {
                "details": "<p>(trained) or @Check[type:perception|dc:18|name:Notice Control Panel|traits:hazard,complex,fire,magical,trap] check to notice the control panel</p>",
                "value": 10
            }
        },
        "creatureType": "",
        "customModifiers": {},
        "details": {
            "description": "<p>A @Template[type:burst|distance:5] pillar of magical fire travels along a track throughout the room. The pillar emits bright light out to 20 feet.</p>",
            "disable": "<p>@Check[type:arcana|dc:23|name:Deactivate Control Panel|traits:complex,fire,magical,trap,hazard] (trained) or @Check[type:thievery|dc:23|name:Deactivate Control Panel|traits:complex,fire,magical,trap,hazard] (trained) once on the control panel deactivates the whole trap, or @Check[type:thievery|dc:20|name:Deactivate Tracks|traits:complex,fire,magical,trap,hazard] (trained) twice on the track prevents the pillar from moving. Each check requires two actions.</p>",
            "isComplex": true,
            "level": {
                "value": 3
            },
            "reset": "<p>The trap deactivates once it no longer detects the presence of creatures in the room.</p>",
            "routine": "<p>(2 actions) The pillar Strides, following the track in the room. If the trap&rsquo;s track is broken, the pillar can still Stride, but its Speed is only 15 feet. The pillar cannot move at all if the track is destroyed. When the pillar moves, it deals [[/r {1d10+6}[fire]]]{1d10+6 fire damage} to any creatures whose space it moves through.</p>"
        },
        "saves": {
            "fortitude": {
                "saveDetail": "",
                "value": 10
            },
            "reflex": {
                "saveDetail": "",
                "value": 12
            },
            "will": {
                "saveDetail": "",
                "value": 0
            }
        },
        "source": {
            "value": ""
        },
        "statusEffects": [],
        "traits": {
            "ci": [],
            "di": {
                "custom": "",
                "selected": {},
                "value": [
                    "critical-hits",
                    "object-immunities",
                    "precision"
                ]
            },
            "dr": [],
            "dv": [],
            "rarity": "uncommon",
            "size": {
                "value": "med"
            },
            "traits": {
                "custom": "",
                "value": [
                    "fire",
                    "magical",
                    "trap"
                ]
            }
        }
    },
    "effects": [],
    "flags": {},
    "img": "systems/pf2e/icons/default-icons/hazard.svg",
    "items": [
        {
            "_id": "2O2MPPNHmPEoqChK",
            "data": {
                "actionCategory": {
                    "value": "defensive"
                },
                "actionType": {
                    "value": "reaction"
                },
                "actions": {
                    "value": null
                },
                "description": {
                    "value": "<p data-visibility=\"gm\"><strong>Trigger</strong> Skyreach's defenses are active, and a creature who is not carrying a <em>@Compendium[pf2e.equipment-srd.Wayfinder]{Wayfinder}</em> enters the room.</p>\n<p><strong>Effect</strong> A pillar of magical fire surges forth. The hazard rolls initiative.</p>"
                },
                "requirements": {
                    "value": ""
                },
                "rules": [],
                "slug": null,
                "source": {
                    "value": ""
                },
                "traits": {
                    "custom": "",
                    "rarity": "common",
                    "value": [
                        "arcane",
                        "fire"
                    ]
                },
                "trigger": {
                    "value": ""
                }
            },
            "effects": [],
            "flags": {},
            "img": "systems/pf2e/icons/actions/Reaction.webp",
            "name": "Flaming Circuit",
            "sort": 0,
            "type": "action"
        },
        {
            "_id": "1GdWjUP7TWz03AEK",
            "data": {
                "actionCategory": {
                    "value": "defensive"
                },
                "actionType": {
                    "value": "passive"
                },
                "actions": {
                    "value": null
                },
                "description": {
                    "value": ""
                },
                "requirements": {
                    "value": ""
                },
                "rules": [],
                "slug": null,
                "source": {
                    "value": ""
                },
                "traits": {
                    "custom": "",
                    "rarity": "common",
                    "value": []
                },
                "trigger": {
                    "value": ""
                }
            },
            "effects": [],
            "flags": {},
            "img": "systems/pf2e/icons/actions/Passive.webp",
            "name": "Speed 30 feet",
            "sort": 0,
            "type": "action"
        }
    ],
    "name": "Strong Fire Sentry",
    "token": {
        "disposition": 0,
        "height": 1,
        "img": "systems/pf2e/icons/default-icons/hazard.svg",
        "name": "Strong Fire Sentry",
        "width": 1
    },
    "type": "hazard"
}
