{
    "_id": "ArmPZQrl0SFAKvrY",
    "content": "<h1>Ma'at (The Feather of Truth) [LN]</h1><p><strong>Edicts</strong> Defend civilization from chaos, live an honest and just life, be impartial in judgment and reveal the truth</p>\n<p><strong>Anathema</strong> Deal unfairly with your family or community, destroy the environment, lie</p>\n<p><strong>Follower Alignments</strong> LG, LN, N</p><h2>Devotee Benefits</h2><div><div><strong>Divine Ability</strong> Intelligence or Wisdom</div><div><strong>Divine Font</strong> heal</div><div><strong>Divine Skill</strong> Society</div><div><strong>Favored Weapon</strong> starknife</div><div><strong>Domains</strong> knowledge, protection, star, truth</div><div><strong>Cleric Spells</strong> 1st: feather fall, 4th: resilient sphere, 5th: mind probe</div></div>",
    "flags": {},
    "name": "Ma'at",
    "permission": {
        "default": 0
    }
}
