{
    "_id": "H2yR0dc1ztkwvOQl",
    "data": {
        "abilities": {
            "cha": {
                "mod": 10,
                "value": 30
            },
            "con": {
                "mod": 4,
                "value": 18
            },
            "dex": {
                "mod": 7,
                "value": 24
            },
            "int": {
                "mod": 6,
                "value": 22
            },
            "str": {
                "mod": -5,
                "value": 0
            },
            "wis": {
                "mod": 7,
                "value": 24
            }
        },
        "attributes": {
            "ac": {
                "details": "",
                "value": 44
            },
            "allSaves": {
                "value": ""
            },
            "hp": {
                "details": "",
                "max": 330,
                "temp": 0,
                "value": 330
            },
            "initiative": {
                "ability": "perception"
            },
            "perception": {
                "value": 33
            },
            "speed": {
                "otherSpeeds": [
                    {
                        "type": "fly",
                        "value": "60"
                    }
                ],
                "value": "0"
            }
        },
        "details": {
            "alignment": {
                "value": "NE"
            },
            "blurb": "",
            "creatureType": "",
            "level": {
                "value": 20
            },
            "privateNotes": "",
            "publicNotes": "",
            "source": {
                "value": "Pathfinder Adventure: Night of the Gray Death"
            }
        },
        "resources": {},
        "saves": {
            "fortitude": {
                "saveDetail": "",
                "value": 31
            },
            "reflex": {
                "saveDetail": "",
                "value": 35
            },
            "will": {
                "saveDetail": "",
                "value": 33
            }
        },
        "traits": {
            "ci": [],
            "di": {
                "custom": "",
                "value": [
                    "disease",
                    "fear-effects",
                    "paralyzed",
                    "poison",
                    "precision",
                    "unconscious"
                ]
            },
            "dr": [
                {
                    "exceptions": "except force, ghost touch or positive; double resistance vs. non-magical",
                    "type": "all",
                    "value": 15
                }
            ],
            "dv": [
                {
                    "exceptions": "",
                    "label": "Mental",
                    "type": "mental",
                    "value": 15
                }
            ],
            "languages": {
                "custom": "Telepathy 100 feet",
                "selected": [],
                "value": [
                    "common"
                ]
            },
            "rarity": "rare",
            "senses": {
                "value": "darkvision, lifesense 1,000 feet"
            },
            "size": {
                "value": "huge"
            },
            "traits": {
                "custom": "",
                "value": [
                    "incorporeal",
                    "spirit",
                    "undead"
                ]
            }
        }
    },
    "effects": [],
    "flags": {},
    "img": "systems/pf2e/icons/default-icons/npc.svg",
    "items": [
        {
            "_id": "duz24h3ca6ibyeh0",
            "data": {
                "attack": {
                    "value": ""
                },
                "attackEffects": {
                    "custom": "",
                    "value": [
                        "life-sap"
                    ]
                },
                "bonus": {
                    "value": 38
                },
                "damageRolls": {
                    "MvZTIw5x6zxveesa": {
                        "damage": "4d10+16",
                        "damageType": "negative"
                    }
                },
                "description": {
                    "value": ""
                },
                "rules": [],
                "slug": null,
                "source": {
                    "value": ""
                },
                "traits": {
                    "custom": "",
                    "rarity": "common",
                    "value": [
                        "finesse",
                        "magical",
                        "reach",
                        "reach-15"
                    ]
                },
                "weaponType": {
                    "value": "melee"
                }
            },
            "effects": [],
            "flags": {},
            "img": "systems/pf2e/icons/default-icons/melee.svg",
            "name": "Hand",
            "sort": 100000,
            "type": "melee"
        },
        {
            "_id": "ONJHCmFLQyRptJTy",
            "data": {
                "actionCategory": {
                    "value": "interaction"
                },
                "actionType": {
                    "value": "passive"
                },
                "actions": {
                    "value": null
                },
                "description": {
                    "value": "<p>@Localize[PF2E.NPC.Abilities.Glossary.Darkvision]</p>"
                },
                "requirements": {
                    "value": ""
                },
                "rules": [],
                "slug": "darkvision",
                "source": {
                    "value": ""
                },
                "traits": {
                    "custom": "",
                    "rarity": "common",
                    "value": []
                },
                "trigger": {
                    "value": ""
                },
                "weapon": {
                    "value": ""
                }
            },
            "effects": [],
            "flags": {
                "core": {
                    "sourceId": "Compendium.pf2e.bestiary-ability-glossary-srd.qCCLZhnp2HhP3Ex6"
                }
            },
            "img": "systems/pf2e/icons/actions/Passive.webp",
            "name": "Darkvision",
            "sort": 200000,
            "type": "action"
        },
        {
            "_id": "1HHQzlsedjpTcEfq",
            "data": {
                "actionCategory": {
                    "value": "interaction"
                },
                "actionType": {
                    "value": "passive"
                },
                "actions": {
                    "value": null
                },
                "description": {
                    "value": "<p>@Localize[PF2E.NPC.Abilities.Glossary.Telepathy]</p>"
                },
                "requirements": {
                    "value": ""
                },
                "rules": [],
                "slug": "telepathy",
                "source": {
                    "value": ""
                },
                "traits": {
                    "custom": "",
                    "rarity": "common",
                    "value": [
                        "aura",
                        "divination",
                        "magical"
                    ]
                },
                "trigger": {
                    "value": ""
                },
                "weapon": {
                    "value": ""
                }
            },
            "effects": [],
            "flags": {
                "core": {
                    "sourceId": "Compendium.pf2e.bestiary-ability-glossary-srd.kdhbPaBMK1d1fpbA"
                }
            },
            "img": "systems/pf2e/icons/actions/Passive.webp",
            "name": "Telepathy 100 feet",
            "sort": 300000,
            "type": "action"
        },
        {
            "_id": "hupKxv9RWzNfoW3Z",
            "data": {
                "actionCategory": {
                    "value": "interaction"
                },
                "actionType": {
                    "value": "passive"
                },
                "actions": {
                    "value": null
                },
                "description": {
                    "value": "<p>@Localize[PF2E.NPC.Abilities.Glossary.Lifesense]</p>"
                },
                "requirements": {
                    "value": ""
                },
                "rules": [],
                "slug": "lifesense",
                "source": {
                    "value": ""
                },
                "traits": {
                    "custom": "",
                    "rarity": "common",
                    "value": []
                },
                "trigger": {
                    "value": ""
                },
                "weapon": {
                    "value": ""
                }
            },
            "effects": [],
            "flags": {
                "core": {
                    "sourceId": "Compendium.pf2e.bestiary-ability-glossary-srd.sebk9XseMCRkDqRg"
                }
            },
            "img": "systems/pf2e/icons/actions/Passive.webp",
            "name": "Lifesense 1,000 feet",
            "sort": 400000,
            "type": "action"
        },
        {
            "_id": "rd8g0sujo4faxyxg",
            "data": {
                "actionCategory": {
                    "value": "defensive"
                },
                "actionType": {
                    "value": "passive"
                },
                "actions": {
                    "value": null
                },
                "description": {
                    "value": "<p>@Template[type:emanation|distance:1000]{1000 feet} @Compendium[pf2e.bestiary-ability-glossary-srd.Aura]{Aura}</p>\n<hr />\n<p>Creatures that begin their turn in the area take [[/r {5d6}[negative]]]{5d6 negative damage} and must succeed at a @Check[type:fortitude|dc:42] save or become @Compendium[pf2e.conditionitems.Doomed]{Doomed 1}. If the creature is 13th level or lower, this doomed condition from soul bleed is cumulative, increasing by 1 with each failed save until the creature dies (typically at doomed 4).</p>"
                },
                "requirements": {
                    "value": ""
                },
                "rules": [],
                "slug": null,
                "source": {
                    "value": ""
                },
                "traits": {
                    "custom": "",
                    "rarity": "common",
                    "value": [
                        "aura",
                        "necromancy",
                        "occult"
                    ]
                },
                "trigger": {
                    "value": ""
                }
            },
            "effects": [],
            "flags": {},
            "img": "systems/pf2e/icons/actions/Passive.webp",
            "name": "Soul Bleed",
            "sort": 500000,
            "type": "action"
        },
        {
            "_id": "3ed13i1acidqfl7r",
            "data": {
                "actionCategory": {
                    "value": "offensive"
                },
                "actionType": {
                    "value": "action"
                },
                "actions": {
                    "value": "2"
                },
                "description": {
                    "value": "<p>The gray death makes up to four hand Strikes, each against a different target it can reach. It increases its reach to 100 feet with these Strikes. These Strikes count as one attack for the gray death's multiple attack penalty, and the penalty doesn't increase until after the attacks.</p>"
                },
                "requirements": {
                    "value": ""
                },
                "rules": [],
                "slug": null,
                "source": {
                    "value": ""
                },
                "traits": {
                    "custom": "",
                    "rarity": "common",
                    "value": []
                },
                "trigger": {
                    "value": ""
                }
            },
            "effects": [],
            "flags": {},
            "img": "systems/pf2e/icons/actions/TwoActions.webp",
            "name": "Flailing Touch",
            "sort": 600000,
            "type": "action"
        },
        {
            "_id": "qsvl0ev40eghja9n",
            "data": {
                "actionCategory": {
                    "value": "offensive"
                },
                "actionType": {
                    "value": "passive"
                },
                "actions": {
                    "value": ""
                },
                "description": {
                    "value": "<p>A creature damaged by the gray death's hand Strike must succeed at a @Check[type:fortitude|dc:42] save or become @Compendium[pf2e.conditionitems.Drained]{Drained 1}, and @Compendium[pf2e.conditionitems.Paralyzed]{Paralyzed} for 1 round on a critical failure.</p>"
                },
                "requirements": {
                    "value": ""
                },
                "rules": [],
                "slug": null,
                "source": {
                    "value": ""
                },
                "traits": {
                    "custom": "",
                    "rarity": "common",
                    "value": []
                },
                "trigger": {
                    "value": ""
                }
            },
            "effects": [],
            "flags": {},
            "img": "systems/pf2e/icons/actions/Passive.webp",
            "name": "Life Sap",
            "sort": 700000,
            "type": "action"
        },
        {
            "_id": "0atuz9r7fy2l37ep",
            "data": {
                "actionCategory": {
                    "value": "offensive"
                },
                "actionType": {
                    "value": "action"
                },
                "actions": {
                    "value": "1"
                },
                "description": {
                    "value": "<div data-visibility=\"gm\"><strong>Frequency</strong> once per round</div> <hr /><p><strong>Effect</strong> The gray death chooses a living creature within 30 feet. The target must succeed at a @Check[type:will|dc:42] save or a fragment of embittered soul-stuff lodges within the target's spirit and turns it against its allies. While the target has this fragment, it doesn't count as anyone's ally for the purposes of providing flanking, and a would-be ally casting a spell that normally works only on an ally on the creature must succeed at a DC 42 counteract check (level 20) or the spell has no effect. The fragment fades after 24 hours.</p>"
                },
                "requirements": {
                    "value": ""
                },
                "rules": [],
                "slug": null,
                "source": {
                    "value": ""
                },
                "traits": {
                    "custom": "",
                    "rarity": "common",
                    "value": [
                        "curse",
                        "occult",
                        "enchantment",
                        "mental",
                        "possession"
                    ]
                },
                "trigger": {
                    "value": ""
                }
            },
            "effects": [],
            "flags": {},
            "img": "systems/pf2e/icons/actions/OneAction.webp",
            "name": "Resentful Possession",
            "sort": 800000,
            "type": "action"
        },
        {
            "_id": "cirhydwi7xmesep9",
            "data": {
                "actionCategory": {
                    "value": "offensive"
                },
                "actionType": {
                    "value": "passive"
                },
                "actions": {
                    "value": ""
                },
                "description": {
                    "value": "<p>The gray death isn't @Compendium[pf2e.conditionitems.Slowed]{Slowed 1} when it starts its turn inside an object.</p>"
                },
                "requirements": {
                    "value": ""
                },
                "rules": [],
                "slug": null,
                "source": {
                    "value": ""
                },
                "traits": {
                    "custom": "",
                    "rarity": "common",
                    "value": []
                },
                "trigger": {
                    "value": ""
                }
            },
            "effects": [],
            "flags": {},
            "img": "systems/pf2e/icons/actions/Passive.webp",
            "name": "Spectral Lurker",
            "sort": 900000,
            "type": "action"
        },
        {
            "_id": "jdk5rm20aoggs5s8",
            "data": {
                "description": {
                    "value": ""
                },
                "mod": {
                    "value": 40
                },
                "proficient": {
                    "value": 0
                },
                "rules": [],
                "slug": null,
                "source": {
                    "value": ""
                },
                "traits": {
                    "custom": "",
                    "rarity": "common",
                    "value": []
                }
            },
            "effects": [],
            "flags": {},
            "img": "systems/pf2e/icons/default-icons/lore.svg",
            "name": "Intimidation",
            "sort": 1000000,
            "type": "lore"
        },
        {
            "_id": "eye0waf6kadya87w",
            "data": {
                "description": {
                    "value": ""
                },
                "mod": {
                    "value": 34
                },
                "proficient": {
                    "value": 0
                },
                "rules": [],
                "slug": null,
                "source": {
                    "value": ""
                },
                "traits": {
                    "custom": "",
                    "rarity": "common",
                    "value": []
                }
            },
            "effects": [],
            "flags": {},
            "img": "systems/pf2e/icons/default-icons/lore.svg",
            "name": "Occultism",
            "sort": 1100000,
            "type": "lore"
        },
        {
            "_id": "43ky881di9qqbjrx",
            "data": {
                "description": {
                    "value": ""
                },
                "mod": {
                    "value": 38
                },
                "proficient": {
                    "value": 0
                },
                "rules": [],
                "slug": null,
                "source": {
                    "value": ""
                },
                "traits": {
                    "custom": "",
                    "rarity": "common",
                    "value": []
                }
            },
            "effects": [],
            "flags": {},
            "img": "systems/pf2e/icons/default-icons/lore.svg",
            "name": "Performance",
            "sort": 1200000,
            "type": "lore"
        },
        {
            "_id": "zxzuxvbeclsovlqi",
            "data": {
                "description": {
                    "value": ""
                },
                "mod": {
                    "value": 34
                },
                "proficient": {
                    "value": 0
                },
                "rules": [],
                "slug": null,
                "source": {
                    "value": ""
                },
                "traits": {
                    "custom": "",
                    "rarity": "common",
                    "value": []
                }
            },
            "effects": [],
            "flags": {},
            "img": "systems/pf2e/icons/default-icons/lore.svg",
            "name": "Society",
            "sort": 1300000,
            "type": "lore"
        }
    ],
    "name": "Gray Death",
    "token": {
        "disposition": -1,
        "height": 1,
        "img": "systems/pf2e/icons/default-icons/npc.svg",
        "name": "Gray Death",
        "width": 1
    },
    "type": "npc"
}
