{
    "_id": "25WDi1cVUrW92sUj",
    "data": {
        "actionCategory": {
            "value": ""
        },
        "actionType": {
            "value": "reaction"
        },
        "actions": {
            "value": null
        },
        "description": {
            "value": "<p><strong>Frequency</strong> once per 10 minutes</p>\n<p><strong>Trigger</strong> Another creature attempts a check to investigate a lead you're pursuing</p>\n<hr />\n<p>You share information with the triggering creature.</p>\n<p>They gain a circumstance bonus to their check equal to your circumstance bonus to checks investigating your subject from @Compendium[pf2e.actionspf2e.Pursue a Lead]{Pursue a Lead}. The GM can add any relevant traits to this reaction depending on the situation, such as auditory and linguistic if you're conveying information verbally.</p>\n<p>@Compendium[pf2e.feat-effects.Effect: Clue In]{Effect: Clue In}</p>"
        },
        "requirements": {
            "value": ""
        },
        "rules": [],
        "source": {
            "value": "Pathfinder Advanced Player's Guide"
        },
        "traits": {
            "custom": "",
            "rarity": "common",
            "value": [
                "concentrate",
                "investigator"
            ]
        },
        "trigger": {
            "value": ""
        },
        "weapon": {
            "value": ""
        }
    },
    "effects": [],
    "flags": {},
    "img": "systems/pf2e/icons/actions/Reaction.webp",
    "name": "Clue In",
    "type": "action"
}
