{
    "_id": "rI2MSXR1MQzgQUO7",
    "data": {
        "actionCategory": {
            "value": "offensive"
        },
        "actionType": {
            "value": "action"
        },
        "actions": {
            "value": 2
        },
        "description": {
            "value": "<p><strong>Requirements</strong> You have a one-handed firearm or one-handed crossbow visibly worn or wielded.</p>\n<hr />\n<p>You attempt to clear the room by promising a grim fate to anyone who doesn't do what you say, and quickly. Attempt a Deception or Intimidation check against the Will DCs of each creature within 30 feet, except for your allies. Regardless of whether you succeed or fail, each subject is temporarily immune to your Grim Swagger for 10 minutes. For example, if you attempt a Deception check, you lie and boast about your prowess or the large group of friends on their way to back you up. If you attempt an Intimidation check, you promise everyone in the room that you're going to be the last thing they see.</p>\n<hr />\n<p><strong>Critical Success</strong> The creature becomes @Compendium[pf2e.conditionitems.Frightened]{Frightened 3}. If it's lower level than you, it's also @Compendium[pf2e.conditionitems.Fleeing]{Fleeing} for 1 round.</p>\n<p><strong>Success</strong> The creature becomes @Compendium[pf2e.conditionitems.Frightened]{Frightened 2}.</p>"
        },
        "requirements": {
            "value": ""
        },
        "rules": [],
        "source": {
            "value": ""
        },
        "traits": {
            "custom": "",
            "rarity": "common",
            "value": [
                "auditory",
                "emotion",
                "fear",
                "gunslinger",
                "linguistic",
                "mental"
            ]
        },
        "trigger": {
            "value": ""
        }
    },
    "effects": [],
    "flags": {},
    "img": "systems/pf2e/icons/actions/TwoActions.webp",
    "name": "Grim Swagger",
    "type": "action"
}
