{
    "_id": "Iuq8CeNqv3a0oWfQ",
    "data": {
        "actionCategory": {
            "value": "defensive"
        },
        "actionType": {
            "value": "reaction"
        },
        "actions": {
            "value": null
        },
        "description": {
            "value": "<p><strong>Trigger</strong> The spell's target would take damage</p>\n<p><strong>Effect</strong> Reduce the triggering damage by 10, but you lose 5 Hit Points. Even if this reduces the damage to 0, the target still takes any effects that would come with the damage, such as the poison on a viper's fangs Strike.</p>\n<hr />\n<p><strong>Heightened (+2)</strong> The reaction reduces the damage by another 10, and you lose 5 more Hit Points. If you want to lose fewer Hit Points, you can choose to lower the damage reduction and HP lost to what any lower-level version of the spell could do without lowering the spell's actual level.</p>"
        },
        "requirements": {
            "value": ""
        },
        "rules": [],
        "source": {
            "value": ""
        },
        "traits": {
            "custom": "",
            "rarity": "common",
            "value": []
        },
        "trigger": {
            "value": ""
        },
        "weapon": {
            "value": ""
        }
    },
    "effects": [],
    "flags": {},
    "img": "systems/pf2e/icons/actions/Reaction.webp",
    "name": "Life Block",
    "type": "action"
}
