{
    "_id": "1ihy7Jvw5PY4WYbP",
    "data": {
        "badge": null,
        "description": {
            "value": "<p>While wearing the eye, you gain a +2 item bonus to visual Perception checks.</p>"
        },
        "duration": {
            "expiry": "turn-start",
            "sustained": false,
            "unit": "unlimited",
            "value": -1
        },
        "level": {
            "value": 14
        },
        "rules": [
            {
                "key": "FlatModifier",
                "predicate": {
                    "all": [
                        "visual"
                    ]
                },
                "selector": "perception",
                "type": "item",
                "value": 2
            }
        ],
        "source": {
            "value": "Pathfinder Lost Omens: The Grand Bazaar"
        },
        "start": {
            "initiative": null,
            "value": 0
        },
        "target": null,
        "tokenIcon": {
            "show": false
        },
        "traits": {
            "custom": "",
            "rarity": "common",
            "value": []
        }
    },
    "effects": [],
    "flags": {},
    "img": "systems/pf2e/icons/equipment/worn-items/other-worn-items/eye-of-the-unseen.webp",
    "name": "Effect: Eye of the Unseen (Greater)",
    "type": "effect"
}
