{
    "_id": "gfXSF1TafBAmZo2u",
    "data": {
        "ancestry": {
            "name": "Sprite",
            "uuid": "Compendium.pf2e.ancestries.TRqoeYfGAFjQbviF"
        },
        "description": {
            "value": "<p>You have the hindquarters of a cricket and adore art and music. Your cricket legs grant you a +2 circumstance bonus on Athletics checks to High Jump or Long Jump, and you gain <em>@Compendium[pf2e.spells-srd.Ghost Sound]{Ghost Sound}</em> as a primal innate cantrip.</p>"
        },
        "rules": [
            {
                "key": "FlatModifier",
                "label": "PF2E.SkillVariant.HighJumpOrLongJump",
                "predicate": {
                    "any": [
                        "action:high-jump",
                        "action:long-jump"
                    ]
                },
                "selector": "athletics",
                "value": 2
            }
        ],
        "source": {
            "value": ""
        },
        "traits": {
            "custom": "",
            "rarity": "common",
            "value": []
        }
    },
    "effects": [],
    "flags": {},
    "img": "systems/pf2e/icons/default-icons/heritage.svg",
    "name": "Grig",
    "type": "heritage"
}
