{
    "_id": "tarfuEXmi0E0Enfy",
    "data": {
        "ancestry": {
            "name": "Ratfolk",
            "uuid": "Compendium.pf2e.ancestries.P6PcVnCkh4XMdefw"
        },
        "description": {
            "value": "<p>Your ancestors lived in dark spaces underground, granting you dark fur and a vaguely unnatural mien that unnerves sapient creatures and frightens animals. You gain the trained proficiency rank in Intimidation and can use Intimidation to @Compendium[pf2e.actionspf2e.Coerce]{Coerce} animals. When you @Compendium[pf2e.actionspf2e.Demoralize]{Demoralize} an animal, you don't take a penalty for not sharing a language with it. If you would automatically become trained in Intimidation (from your background or class, for example), you become trained in another skill of your choice.</p>\n<p>Animals' attitudes toward you begin one degree worse than normal, usually starting at unfriendly instead of indifferent for domesticated animals, and hostile instead of unfriendly for wild animals.</p>"
        },
        "rules": [
            {
                "key": "ActiveEffectLike",
                "mode": "upgrade",
                "path": "data.skills.itm.rank",
                "value": 1
            },
            {
                "key": "Note",
                "predicate": {
                    "all": [
                        "action:demoralize",
                        "target:trait:animal"
                    ]
                },
                "selector": "intimidation",
                "text": "<p class='compact-text'><strong>{item|name}</strong> When you Demoralize an animal, you don't take a penalty for not sharing a language with it.</p>"
            }
        ],
        "source": {
            "value": ""
        },
        "traits": {
            "custom": "",
            "rarity": "common",
            "value": []
        }
    },
    "effects": [],
    "flags": {},
    "img": "systems/pf2e/icons/features/ancestry/shadow-rat.webp",
    "name": "Shadow Rat",
    "type": "heritage"
}
