{
    "_id": "EHDYVhJcZ9uPUjfZ",
    "data": {
        "ancestry": {
            "name": "Poppet",
            "uuid": "Compendium.pf2e.ancestries.6F2fSFC1Eo1JdpY4"
        },
        "description": {
            "value": "<p>You have the form of a child's tiny toy or doll, but you don't let your small size impede your joy of life. Instead of Small, your size is Tiny. Like other Tiny creatures, you don't automatically receive lesser cover from being in a larger creature's space, but circumstances might allow you to Take Cover. You can purchase weapons, armor, and other items for your size with the same statistics as normal gear, except that melee weapons have a reach of 0 for you (or a reach 5 feet shorter than normal if they have the reach trait). You can enter another creature's space, which is important because you must usually enter a creature's space to attack it with melee Strikes! Remember to adjust the Bulk of items and your Bulk limit for Tiny size.</p>"
        },
        "rules": [
            {
                "key": "CreatureSize",
                "value": "tiny"
            }
        ],
        "source": {
            "value": "Pathfinder Lost Omens: The Grand Bazaar"
        },
        "traits": {
            "custom": "",
            "rarity": "common",
            "value": []
        }
    },
    "effects": [],
    "flags": {},
    "img": "systems/pf2e/icons/default-icons/heritage.svg",
    "name": "Toy Poppet",
    "type": "heritage"
}
