{
    "_id": "tfBczpCPNVnRE8pJ",
    "data": {
        "abilities": {
            "cha": {
                "mod": 3
            },
            "con": {
                "mod": 3
            },
            "dex": {
                "mod": 7
            },
            "int": {
                "mod": 5
            },
            "str": {
                "mod": 3
            },
            "wis": {
                "mod": 0
            }
        },
        "attributes": {
            "ac": {
                "details": "42 while piloting Solar Jian II",
                "value": 38
            },
            "allSaves": {
                "value": "+4 to all saves while piloting Solar Jian II"
            },
            "hp": {
                "details": "",
                "max": 265,
                "temp": 0,
                "value": 265
            },
            "initiative": {
                "ability": "perception"
            },
            "perception": {
                "value": 25
            },
            "speed": {
                "otherSpeeds": [],
                "value": "25"
            }
        },
        "details": {
            "alignment": {
                "value": "CG"
            },
            "blurb": "",
            "creatureType": "",
            "level": {
                "value": 15
            },
            "privateNotes": "",
            "publicNotes": "",
            "source": {
                "value": "Pathfinder #168: King of the Mountain"
            }
        },
        "resources": {},
        "saves": {
            "fortitude": {
                "saveDetail": "",
                "value": 26
            },
            "reflex": {
                "saveDetail": "",
                "value": 28
            },
            "will": {
                "saveDetail": "",
                "value": 23
            }
        },
        "traits": {
            "ci": [],
            "di": {
                "custom": "",
                "value": []
            },
            "dr": [],
            "dv": [],
            "languages": {
                "custom": "",
                "selected": [],
                "value": [
                    "taldane",
                    "tien"
                ]
            },
            "rarity": "unique",
            "senses": {
                "value": ""
            },
            "size": {
                "value": "med"
            },
            "traits": {
                "custom": "",
                "value": [
                    "human",
                    "humanoid"
                ]
            }
        }
    },
    "effects": [],
    "flags": {},
    "img": "systems/pf2e/icons/default-icons/npc.svg",
    "items": [
        {
            "_id": "CBpcfdKusYsMdvZ6",
            "data": {
                "MAP": {
                    "value": ""
                },
                "baseItem": "heavy-crossbow",
                "bonus": {
                    "value": 0
                },
                "bonusDamage": {
                    "value": 0
                },
                "brokenThreshold": {
                    "value": 0
                },
                "category": "simple",
                "containerId": null,
                "damage": {
                    "damageType": "piercing",
                    "dice": 1,
                    "die": "d10",
                    "value": ""
                },
                "description": {
                    "value": "<p>This large crossbow is harder to load and more substantial than a regular crossbow, but it packs a greater punch.</p>"
                },
                "equipped": {
                    "carryType": "worn",
                    "handsHeld": 0,
                    "invested": null
                },
                "equippedBulk": {
                    "value": ""
                },
                "group": "bow",
                "hardness": 0,
                "hp": {
                    "brokenThreshold": 0,
                    "max": 0,
                    "value": 0
                },
                "identification": {
                    "misidentified": {},
                    "status": "identified",
                    "unidentified": {
                        "data": {
                            "description": {
                                "value": ""
                            }
                        },
                        "img": "",
                        "name": ""
                    }
                },
                "level": {
                    "value": 0
                },
                "negateBulk": {
                    "value": "0"
                },
                "potencyRune": {
                    "value": null
                },
                "preciousMaterial": {
                    "value": ""
                },
                "preciousMaterialGrade": {
                    "value": ""
                },
                "price": {
                    "value": "4 gp"
                },
                "property1": {
                    "critDamage": "",
                    "critDamageType": "",
                    "critDice": null,
                    "critDie": "",
                    "criticalConditionType": "",
                    "criticalConditionValue": null,
                    "damageType": "",
                    "dice": null,
                    "die": "",
                    "strikeConditionType": "",
                    "strikeConditionValue": null,
                    "value": ""
                },
                "propertyRune1": {
                    "value": ""
                },
                "propertyRune2": {
                    "value": ""
                },
                "propertyRune3": {
                    "value": ""
                },
                "propertyRune4": {
                    "value": ""
                },
                "quantity": 1,
                "range": 120,
                "reload": {
                    "value": "2"
                },
                "rules": [],
                "size": "med",
                "slug": "heavy-crossbow",
                "source": {
                    "value": ""
                },
                "specific": {
                    "value": false
                },
                "splashDamage": {
                    "value": 0
                },
                "stackGroup": null,
                "strikingRune": {
                    "value": ""
                },
                "traits": {
                    "custom": "",
                    "rarity": "common",
                    "value": []
                },
                "usage": {
                    "value": "held-in-two-hands"
                },
                "weight": {
                    "value": "2"
                }
            },
            "effects": [],
            "flags": {
                "core": {
                    "sourceId": "Compendium.pf2e.equipment-srd.giO4LwIKGzJZoaxa"
                }
            },
            "img": "systems/pf2e/icons/equipment/weapons/heavy-crossbow.webp",
            "name": "Heavy Crossbow",
            "sort": 100000,
            "type": "weapon"
        },
        {
            "_id": "r7R4g3TMuhJiYbzA",
            "data": {
                "attack": {
                    "value": ""
                },
                "attackEffects": {
                    "value": []
                },
                "bonus": {
                    "value": 30
                },
                "damageRolls": {
                    "tydennrqb2chtjvv66e0": {
                        "damage": "4d10+6",
                        "damageType": "piercing"
                    }
                },
                "description": {
                    "value": ""
                },
                "rules": [],
                "slug": null,
                "source": {
                    "value": ""
                },
                "traits": {
                    "custom": "",
                    "rarity": "common",
                    "value": [
                        "range-increment-120",
                        "reload-2"
                    ]
                },
                "weaponType": {
                    "value": "ranged"
                }
            },
            "effects": [],
            "flags": {},
            "img": "systems/pf2e/icons/default-icons/melee.svg",
            "name": "Heavy Crossbow",
            "sort": 200000,
            "type": "melee"
        },
        {
            "_id": "SsLK2tGBiHAb784J",
            "data": {
                "actionCategory": {
                    "value": "interaction"
                },
                "actionType": {
                    "value": "action"
                },
                "actions": {
                    "value": 1
                },
                "description": {
                    "value": "<p><strong>Frequency</strong> once per hour</p>\n<p><strong>Requirements</strong> Yoh is piloting an airborne vessel</p>\n<p><strong>Effect</strong> Yoh pushes the ship, tripling its speed for 1 round. After this point, the ship stalls-though it Hovers in place, it can't move under its own power for 1 round.</p>"
                },
                "requirements": {
                    "value": ""
                },
                "rules": [],
                "slug": null,
                "source": {
                    "value": ""
                },
                "traits": {
                    "custom": "",
                    "rarity": "common",
                    "value": [
                        "manipulate"
                    ]
                },
                "trigger": {
                    "value": ""
                },
                "weapon": {
                    "value": ""
                }
            },
            "effects": [],
            "flags": {},
            "img": "systems/pf2e/icons/actions/OneAction.webp",
            "name": "Punch It",
            "sort": 300000,
            "type": "action"
        },
        {
            "_id": "7KVyaHgB8ZdUAKQC",
            "data": {
                "actionCategory": {
                    "value": "defensive"
                },
                "actionType": {
                    "value": "passive"
                },
                "actions": {
                    "value": null
                },
                "description": {
                    "value": "<p>The Solar Jian II recognizes Yoh as a descendent of its creator, and the magical ship extends him protections beyond those that would be given to most other pilots. If Yoh is piloting the Solar Jian II, his AC and saves are increased by 4.</p>"
                },
                "requirements": {
                    "value": ""
                },
                "rules": [
                    {
                        "key": "FlatModifier",
                        "predicate": {
                            "all": [
                                "ancestral-airship-link"
                            ]
                        },
                        "selector": "ac",
                        "value": 4
                    },
                    {
                        "key": "FlatModifier",
                        "predicate": {
                            "all": [
                                "ancestral-airship-link"
                            ]
                        },
                        "selector": "saving-throw",
                        "value": 4
                    },
                    {
                        "domain": "all",
                        "key": "RollOption",
                        "label": "Piloting the Solar Jian II",
                        "option": "ancestral-airship-link",
                        "toggleable": true
                    }
                ],
                "slug": null,
                "source": {
                    "value": ""
                },
                "traits": {
                    "custom": "",
                    "rarity": "common",
                    "value": []
                },
                "trigger": {
                    "value": ""
                },
                "weapon": {
                    "value": ""
                }
            },
            "effects": [],
            "flags": {},
            "img": "systems/pf2e/icons/actions/Passive.webp",
            "name": "Ancestral Airship Link",
            "sort": 400000,
            "type": "action"
        },
        {
            "_id": "fH16wlrnHfTktX3t",
            "data": {
                "actionCategory": {
                    "value": "defensive"
                },
                "actionType": {
                    "value": "reaction"
                },
                "actions": {
                    "value": null
                },
                "description": {
                    "value": "<p><strong>Requirements</strong> Yoh is piloting an airborne vessel</p>\n<p data-visibility=\"gm\"><strong>Trigger</strong> One or more creatures aboard Yoh's vessel are the target of an attack or attempt a Reflex save and the attacker is not aboard the ship</p>\n<p><strong>Effect</strong> Yoh attempts evasive maneuvers. All creatures aboard the vessel gain a +2 status bonus to their AC and saves against the triggering effect.</p>"
                },
                "requirements": {
                    "value": ""
                },
                "rules": [],
                "slug": null,
                "source": {
                    "value": ""
                },
                "traits": {
                    "custom": "",
                    "rarity": "common",
                    "value": [
                        "manipulate"
                    ]
                },
                "trigger": {
                    "value": ""
                },
                "weapon": {
                    "value": ""
                }
            },
            "effects": [],
            "flags": {},
            "img": "systems/pf2e/icons/actions/Reaction.webp",
            "name": "Shake 'Em!",
            "sort": 500000,
            "type": "action"
        },
        {
            "_id": "WlJ1X90yzVBdZRwG",
            "data": {
                "actionCategory": {
                    "value": "offensive"
                },
                "actionType": {
                    "value": "action"
                },
                "actions": {
                    "value": 2
                },
                "description": {
                    "value": "<p><strong>Frequency</strong> once per hour</p>\n<p><strong>Requirements</strong> Yoh is piloting the Solar Jian II</p>\n<p><strong>Effect</strong> While the Solar Jian II is not a combat vessel, it does have a magically renewing supply of fireworks for victory parades and the like. Yoh fires them at a @Template[type:burst|distance:20] within 60 feet. Creatures in the area take [[/r {3d6}[fire]]]{3d6 fire damage} and [[/r {3d6}[sonic]]]{3d6 sonic damage} with a Fortitude save.</p>\n<hr />\n<p><strong>Critical Success</strong> The target is unaffected.</p>\n<p><strong>Success</strong> The target takes half damage and is @Compendium[pf2e.conditionitems.Dazzled]{Dazzled} for 1 round.</p>\n<p><strong>Failure</strong> The target takes full damage and is dazzled for 3 rounds.</p>\n<p><strong>Critical Failure</strong> The target takes double damage, takes [[/r {3d4}[persistent,fire]]] @Compendium[pf2e.conditionitems.Persistent Damage]{Persistent Fire Damage}, and is dazzled for 1 minute.</p>"
                },
                "requirements": {
                    "value": ""
                },
                "rules": [],
                "slug": null,
                "source": {
                    "value": ""
                },
                "traits": {
                    "custom": "",
                    "rarity": "common",
                    "value": [
                        "manipulate"
                    ]
                },
                "trigger": {
                    "value": ""
                },
                "weapon": {
                    "value": ""
                }
            },
            "effects": [],
            "flags": {},
            "img": "systems/pf2e/icons/actions/TwoActions.webp",
            "name": "Deploy Countermeasures",
            "sort": 600000,
            "type": "action"
        },
        {
            "_id": "l3Jye2wtDn71XMXP",
            "data": {
                "actionCategory": {
                    "value": "offensive"
                },
                "actionType": {
                    "value": "action"
                },
                "actions": {
                    "value": 2
                },
                "description": {
                    "value": "<p><strong>Requirements</strong> Yoh is piloting an airborne vessel</p>\n<p><strong>Effect</strong> Yoh pumps the brakes, banks quickly, or performs some other aerial maneuver to get the drop on an enemy. He attempts a Piloting Lore check against the enemy's Perception DC. If he succeeds, that enemy is @Compendium[pf2e.conditionitems.Flat-Footed]{Flat-Footed} to the next attack from a creature onboard as long as it is made before Yoh's next turn. All enemies who witnessed the maneuver are then temporarily immune for 1 day.</p>"
                },
                "requirements": {
                    "value": ""
                },
                "rules": [],
                "slug": null,
                "source": {
                    "value": ""
                },
                "traits": {
                    "custom": "",
                    "rarity": "common",
                    "value": [
                        "manipulate"
                    ]
                },
                "trigger": {
                    "value": ""
                },
                "weapon": {
                    "value": ""
                }
            },
            "effects": [],
            "flags": {},
            "img": "systems/pf2e/icons/actions/TwoActions.webp",
            "name": "I'll Get You into Position!",
            "sort": 700000,
            "type": "action"
        },
        {
            "_id": "b7ViPptlA8df2wyX",
            "data": {
                "description": {
                    "value": ""
                },
                "mod": {
                    "value": 28
                },
                "proficient": {
                    "value": 0
                },
                "rules": [],
                "slug": null,
                "source": {
                    "value": ""
                },
                "traits": {
                    "custom": "",
                    "rarity": "common",
                    "value": []
                }
            },
            "effects": [],
            "flags": {},
            "img": "systems/pf2e/icons/default-icons/lore.svg",
            "name": "Acrobatics",
            "sort": 800000,
            "type": "lore"
        },
        {
            "_id": "M9BRj4en1ET63DDd",
            "data": {
                "description": {
                    "value": ""
                },
                "mod": {
                    "value": 24
                },
                "proficient": {
                    "value": 0
                },
                "rules": [],
                "slug": null,
                "source": {
                    "value": ""
                },
                "traits": {
                    "custom": "",
                    "rarity": "common",
                    "value": []
                }
            },
            "effects": [],
            "flags": {},
            "img": "systems/pf2e/icons/default-icons/lore.svg",
            "name": "Athletics",
            "sort": 900000,
            "type": "lore"
        },
        {
            "_id": "Z6iJLnWxjo46j565",
            "data": {
                "description": {
                    "value": ""
                },
                "mod": {
                    "value": 38
                },
                "proficient": {
                    "value": 0
                },
                "rules": [],
                "slug": null,
                "source": {
                    "value": ""
                },
                "traits": {
                    "custom": "",
                    "rarity": "common",
                    "value": []
                }
            },
            "effects": [],
            "flags": {},
            "img": "systems/pf2e/icons/default-icons/lore.svg",
            "name": "Piloting Lore",
            "sort": 1000000,
            "type": "lore"
        },
        {
            "_id": "Go0i8Osecc4d0Q8S",
            "data": {
                "description": {
                    "value": ""
                },
                "mod": {
                    "value": 38
                },
                "proficient": {
                    "value": 0
                },
                "rules": [],
                "slug": null,
                "source": {
                    "value": ""
                },
                "traits": {
                    "custom": "",
                    "rarity": "common",
                    "value": []
                }
            },
            "effects": [],
            "flags": {},
            "img": "systems/pf2e/icons/default-icons/lore.svg",
            "name": "Ruby Phoenix Tournament Lore",
            "sort": 1100000,
            "type": "lore"
        },
        {
            "_id": "3sQBzHUC2bMJv5Vf",
            "data": {
                "description": {
                    "value": ""
                },
                "mod": {
                    "value": 28
                },
                "proficient": {
                    "value": 0
                },
                "rules": [],
                "slug": null,
                "source": {
                    "value": ""
                },
                "traits": {
                    "custom": "",
                    "rarity": "common",
                    "value": []
                }
            },
            "effects": [],
            "flags": {},
            "img": "systems/pf2e/icons/default-icons/lore.svg",
            "name": "Society",
            "sort": 1200000,
            "type": "lore"
        }
    ],
    "name": "Yoh Souran",
    "token": {
        "disposition": -1,
        "height": 1,
        "img": "systems/pf2e/icons/default-icons/npc.svg",
        "name": "Yoh Souran",
        "width": 1
    },
    "type": "npc"
}
