{
    "_id": "gPceRQqO847lvSnb",
    "data": {
        "description": {
            "value": "<p>Once every 10 minutes, you can use a single action with the concentrate trait to project your senses into your familiar. When you do, you lose all sensory information from your own body, but can sense through your familiar's body for up to 1 minute. You can Dismiss this effect.</p>"
        },
        "duration": {
            "expiry": "turn-start",
            "sustained": false,
            "unit": "unlimited",
            "value": -1
        },
        "level": {
            "value": 1
        },
        "rules": [],
        "source": {
            "value": "Pathfinder Advanced Player's Guide"
        },
        "start": {
            "initiative": null,
            "value": 0
        },
        "target": null,
        "tokenIcon": {
            "show": false
        },
        "traits": {
            "custom": "",
            "rarity": "common",
            "value": []
        }
    },
    "effects": [],
    "flags": {},
    "img": "systems/pf2e/icons/actions/Passive.webp",
    "name": "Share Senses",
    "type": "effect"
}
