{
    "_id": "d56paSkcwvll2OhR",
    "data": {
        "ability": [
            "con",
            "int"
        ],
        "alignment": {
            "follower": [
                "LE",
                "LG",
                "LN"
            ],
            "own": "LN"
        },
        "description": {
            "value": "<p>Abadar is worshipped as the god of cities, law, merchants, and wealth. Abadar's cathedral-banks are found in many cities and places where order thrives or is gaining a foothold. Aristocrats, city guards, merchants, and those working in legal practice or who have the well-being of their community on their mind are common worshippers of the god of cities, along with dwarves in general. Abadaran priests living in cities often serve as judges, lawyers, and clerks, while those who live on the frontier work as roving magistrates, acting as judge, jury, and executioners in the name of order.</p>\n\n<p><strong>Edicts</strong> bring civilization to the frontiers, earn wealth through hard work and trade, follow the rule of law</p>\n<p><strong>Anathema</strong> engage in banditry or piracy, steal, undermine a law-abiding court</p>\n<p><strong>Areas of Concern</strong> cities, law, merchants, and wealth</p>"
        },
        "domains": {
            "alternate": [
                "duty"
            ],
            "primary": [
                "cities",
                "earth",
                "travel",
                "wealth"
            ]
        },
        "font": [
            "harm",
            "heal"
        ],
        "rules": [],
        "skill": "soc",
        "source": {
            "value": "Pathfinder Core Rulebook"
        },
        "spells": {
            "1": "Compendium.pf2e.spells-srd.2oH5IufzdESuYxat",
            "4": "Compendium.pf2e.spells-srd.TUj8eugNqAvB1vVR",
            "7": "Compendium.pf2e.spells-srd.vPWMEyVTreMOoFnm"
        },
        "weapons": [
            "crossbow"
        ]
    },
    "effects": [],
    "flags": {},
    "img": "systems/pf2e/icons/deity/Abadar.webp",
    "name": "Abadar",
    "type": "deity"
}
