{
    "_id": "GX6PF9ifR47Xyjg9",
    "data": {
        "ability": [],
        "alignment": {
            "follower": [
                "N"
            ],
            "own": "N"
        },
        "description": {
            "value": ""
        },
        "domains": {
            "alternate": [],
            "primary": []
        },
        "font": [
            "harm",
            "heal"
        ],
        "rules": [],
        "skill": "rel",
        "source": {
            "value": ""
        },
        "spells": {},
        "weapons": []
    },
    "effects": [],
    "flags": {},
    "img": "systems/pf2e/icons/deity/Norgorber.webp",
    "name": "Norgorber",
    "type": "deity"
}
