{
    "_id": "GUmYLD7PGmE2TOx6",
    "data": {
        "ability": [],
        "alignment": {
            "follower": [
                "N"
            ],
            "own": "N"
        },
        "description": {
            "value": ""
        },
        "domains": {
            "alternate": [],
            "primary": []
        },
        "font": [
            "harm",
            "heal"
        ],
        "rules": [],
        "skill": "rel",
        "source": {
            "value": ""
        },
        "spells": {},
        "weapons": []
    },
    "effects": [],
    "flags": {},
    "img": "systems/pf2e/icons/default-icons/deity.svg",
    "name": "Wadjet",
    "type": "deity"
}
