{
    "_id": "WUMnFrehmFbj2PIm",
    "data": {
        "actionCategory": {
            "value": ""
        },
        "actionType": {
            "value": "passive"
        },
        "actions": {
            "value": null
        },
        "description": {
            "value": "<p>You are familiar with weapons that excel underwater. You are trained with @Compendium[pf2e.equipment-srd.Crossbow]{Crossbows}, @Compendium[pf2e.equipment-srd.Hand Crossbow]{Hand Crossbows}, @Compendium[pf2e.equipment-srd.Longspear]{Longspears}, @Compendium[pf2e.equipment-srd.Spear]{Spears}, and @Compendium[pf2e.equipment-srd.Trident]{Tridents}.</p>\n<p>In addition, you gain access to all uncommon azarketi weapons. For the purpose of determining your proficiency, martial azarketi weapons are simple weapons and advanced azarketi weapons are martial weapons</p>"
        },
        "featType": {
            "value": "ancestry"
        },
        "level": {
            "value": 1
        },
        "location": "",
        "prerequisites": {
            "value": []
        },
        "rules": [
            {
                "key": "ActiveEffectLike",
                "mode": "upgrade",
                "path": "data.martial.weapon-base-crossbow.rank",
                "value": 1
            },
            {
                "key": "ActiveEffectLike",
                "mode": "upgrade",
                "path": "data.martial.weapon-base-hand-crossbow.rank",
                "value": 1
            },
            {
                "key": "ActiveEffectLike",
                "mode": "upgrade",
                "path": "data.martial.weapon-base-longspear.rank",
                "value": 1
            },
            {
                "key": "ActiveEffectLike",
                "mode": "upgrade",
                "path": "data.martial.weapon-base-spear.rank",
                "value": 1
            },
            {
                "key": "ActiveEffectLike",
                "mode": "upgrade",
                "path": "data.martial.weapon-base-trident.rank",
                "value": 1
            },
            {
                "definition": {
                    "all": [
                        "weapon:trait:azarketi",
                        "weapon:category:advanced"
                    ]
                },
                "key": "MartialProficiency",
                "label": "PF2E.SpecificRule.MartialProficiency.AdvancedAzarketiWeapons",
                "sameAs": "martial",
                "slug": "advanced-azarketi-weapons"
            },
            {
                "definition": {
                    "all": [
                        "weapon:trait:azarketi",
                        "weapon:category:martial"
                    ]
                },
                "key": "MartialProficiency",
                "label": "PF2E.SpecificRule.MartialProficiency.MartialAzarketiWeapons",
                "sameAs": "simple",
                "slug": "martial-azarketi-weapons"
            }
        ],
        "source": {
            "value": "Pathfinder Lost Omens: Absalom, City of Lost Omens"
        },
        "traits": {
            "custom": "",
            "rarity": "common",
            "value": [
                "azarketi"
            ]
        }
    },
    "effects": [],
    "flags": {},
    "img": "systems/pf2e/icons/default-icons/feats.webp",
    "name": "Azarketi Weapon Familiarity",
    "type": "feat"
}
