{
    "_id": "A4sV0cRU9I8ztbHY",
    "data": {
        "actionCategory": {
            "value": ""
        },
        "actionType": {
            "value": "action"
        },
        "actions": {
            "value": 2
        },
        "description": {
            "value": "<p>You smash, bust, and charge through solid obstacles without hesitation. Stride twice.</p>\n<p>Once during your movement, if your movement passes through or ends adjacent to a door, window, fence, wall, or similar obstacle, you can attempt an Athletics check to @Compendium[pf2e.actionspf2e.Force Open]{Force Open} the obstacle with a +1 circumstance bonus to the roll; on a failure, your movement ends at that obstacle.</p>"
        },
        "featType": {
            "value": "class"
        },
        "level": {
            "value": 2
        },
        "location": "",
        "prerequisites": {
            "value": [
                {
                    "value": "trained in Athletics"
                }
            ]
        },
        "rules": [
            {
                "key": "FlatModifier",
                "label": "Bashing Charge (force open obstacle)",
                "predicate": {
                    "all": [
                        "action:force-open"
                    ]
                },
                "selector": "athletics",
                "type": "circumstance",
                "value": 1
            }
        ],
        "source": {
            "value": "Pathfinder Advanced Player's Guide"
        },
        "traits": {
            "custom": "",
            "rarity": "common",
            "value": [
                "barbarian",
                "flourish"
            ]
        }
    },
    "effects": [],
    "flags": {},
    "img": "systems/pf2e/icons/features/feats/feats.webp",
    "name": "Bashing Charge",
    "type": "feat"
}
