{
    "_id": "5kUQuIP8N57MXhuz",
    "data": {
        "actionCategory": {
            "value": ""
        },
        "actionType": {
            "value": "action"
        },
        "actions": {
            "value": 1
        },
        "description": {
            "value": "<p><strong>Frequency</strong> once per turn</p>\n<hr />\n<p>You quickly call in a primal projection of a non-active companion to provide the companion's support benefit. The projection arrives in an unoccupied square of your choice within 30 feet of you, grants you its support benefit, and then disappears on your next turn. The projection has the same AC and saving throw modifiers as the real companion, and if it would take any damage before your next turn, it disappears and the support benefit ends immediately.</p>"
        },
        "featType": {
            "value": "archetype"
        },
        "level": {
            "value": 12
        },
        "prerequisites": {
            "value": [
                {
                    "value": "Beastmaster Dedication"
                },
                {
                    "value": "Call Companion"
                }
            ]
        },
        "rules": [],
        "source": {
            "value": "Pathfinder Advanced Player's Guide"
        },
        "traits": {
            "custom": "",
            "rarity": "common",
            "value": [
                "archetype",
                "auditory",
                "concentrate",
                "primal"
            ]
        }
    },
    "effects": [],
    "flags": {},
    "img": "systems/pf2e/icons/features/feats/feats.webp",
    "name": "Beastmaster's Call",
    "type": "feat"
}
