{
    "_id": "muDbZAyrE1ObyuTL",
    "data": {
        "actionCategory": {
            "value": ""
        },
        "actionType": {
            "value": "passive"
        },
        "actions": {
            "value": null
        },
        "description": {
            "value": "<p>You are skilled at hiding from your foes and targets among the common populace. You gain the @Compendium[pf2e.feats-srd.Quick Disguise]{Quick Disguise} and @Compendium[pf2e.feats-srd.Slippery Secrets]{Slippery Secrets} skill feats.</p>\n<p>In addition, while in a crowd, you can @Compendium[pf2e.actionspf2e.Impersonate]{Impersonate} a nondescript member of the crowd as a three action activity (one action if you are legendary in Deception)</p>"
        },
        "featType": {
            "value": "archetype"
        },
        "level": {
            "value": 10
        },
        "location": "",
        "prerequisites": {
            "value": [
                {
                    "value": "Golden League Xun Dedication"
                },
                {
                    "value": "expert in Deception"
                }
            ]
        },
        "rules": [
            {
                "key": "GrantItem",
                "uuid": "Compendium.pf2e.feats-srd.Quick Disguise"
            },
            {
                "key": "GrantItem",
                "uuid": "Compendium.pf2e.feats-srd.Slippery Secrets"
            },
            {
                "key": "GrantItem",
                "uuid": "Compendium.pf2e.actionspf2e.Impersonate"
            }
        ],
        "source": {
            "value": "Pathfinder #167: Ready? Fight!"
        },
        "traits": {
            "custom": "",
            "rarity": "uncommon",
            "value": [
                "archetype"
            ]
        }
    },
    "effects": [],
    "flags": {},
    "img": "systems/pf2e/icons/default-icons/feats.webp",
    "name": "Beneath Notice",
    "type": "feat"
}
