{
    "_id": "bVng7Mkrj4UnQzLo",
    "data": {
        "actionCategory": {
            "value": "offensive"
        },
        "actionType": {
            "value": "action"
        },
        "actions": {
            "value": 1
        },
        "description": {
            "value": "<p>You enhance your spell with elemental fire, causing it to set the target on fire.</p>\n<p>If the next action you use is to Cast a non-cantrip Spell that deals damage at a single target, the spell deals additional @Compendium[pf2e.conditionitems.Persistent Damage]{Persistent Fire Damage} equal to the spell level, in addition to its other effects. This has no effect if the spell already deals persistent fire damage.</p>\n<p>The spell gains the fire trait.</p>"
        },
        "featType": {
            "value": "archetype"
        },
        "level": {
            "value": 6
        },
        "location": "",
        "prerequisites": {
            "value": [
                {
                    "value": "Elementalist Dedication"
                }
            ]
        },
        "rules": [],
        "source": {
            "value": ""
        },
        "traits": {
            "custom": "",
            "rarity": "common",
            "value": [
                "archetype",
                "fire",
                "metamagic"
            ]
        }
    },
    "effects": [],
    "flags": {},
    "img": "systems/pf2e/icons/features/feats/feats.webp",
    "name": "Burning Spell",
    "type": "feat"
}
