{
    "_id": "Pox93XMBaFmeLIDM",
    "data": {
        "actionCategory": {
            "value": ""
        },
        "actionType": {
            "value": "passive"
        },
        "actions": {
            "value": null
        },
        "description": {
            "value": "<p>Your cheeks are stretchy, and you can store up to four items of light Bulk or less in these cheek pouches. None of these items can have a dimension longer than 1 foot.</p>\n<p>As long as you have at least one item in your cheek pouches, your speech is noticeably difficult to understand.</p>\n<p>Placing an item in your cheek pouch or retrieving one is an Interact action. You can empty your mouth with a single action, causing everything you had stored in your cheek pouches to fall to the ground in your square.</p>"
        },
        "featType": {
            "value": "ancestry"
        },
        "level": {
            "value": 1
        },
        "prerequisites": {
            "value": []
        },
        "rules": [],
        "source": {
            "value": "Pathfinder Advanced Player's Guide"
        },
        "traits": {
            "custom": "",
            "rarity": "common",
            "value": [
                "ratfolk"
            ]
        }
    },
    "effects": [],
    "flags": {},
    "img": "systems/pf2e/icons/features/feats/feats.webp",
    "name": "Cheek Pouches",
    "type": "feat"
}
