{
    "_id": "AkV4Jyllo6nlK2Sl",
    "data": {
        "actionCategory": {
            "value": ""
        },
        "actionType": {
            "value": "action"
        },
        "actions": {
            "value": 1
        },
        "description": {
            "value": "<p>You enter a tight stance, coiled up like a lashing cobra with your hands poised as venomous fangs.</p>\n<p>While in this stance, the only Strikes you can make are cobra fang unarmed attacks. These deal 1d4 poison damage; are in the brawling group; and have the agile, deadly d10, finesse, nonlethal, poison, and unarmed traits.</p>\n<p>While in Cobra Stance, you gain a +1 circumstance bonus to Fortitude saves and your Fortitude DC, and you gain poison resistance equal to half your level.</p>\n<p>@Compendium[pf2e.feat-effects.Stance: Cobra Stance]{Stance: Cobra Stance}</p>"
        },
        "featType": {
            "value": "class"
        },
        "level": {
            "value": 4
        },
        "location": "",
        "prerequisites": {
            "value": []
        },
        "rules": [],
        "source": {
            "value": "Pathfinder Advanced Player's Guide"
        },
        "traits": {
            "custom": "",
            "rarity": "common",
            "value": [
                "monk",
                "stance"
            ]
        }
    },
    "effects": [],
    "flags": {},
    "img": "systems/pf2e/icons/features/feats/feats.webp",
    "name": "Cobra Stance",
    "type": "feat"
}
