{
    "_id": "F6C25qZ9UNYPw7pj",
    "data": {
        "actionCategory": {
            "value": ""
        },
        "actionType": {
            "value": "passive"
        },
        "actions": {
            "value": null
        },
        "description": {
            "value": "<p>Once per hour, you can use @Compendium[pf2e.actionspf2e.Change Shape (Beastkin)]{Change Shape} to enter a critter shape. While in critter shape, you gain the effect of a 1st-level <em>@Compendium[pf2e.spells-srd.Pest Form]{Pest Form}</em>, except you can only transform into an animal matching your inherent animal.</p>\n<p>You can remain in critter shape for up to 10 minutes, after which you transform back into your hybrid shape and can't enter your critter shape again for 1 hour. You can instead use Change Shape to return to your humanoid or hybrid shape at any time during the duration of Critter Shape.</p>\n<p>If your inherent animal is normally larger than Tiny, you transform into a smaller, younger version of the animal, such as a Tiny bear cub. If your inherent animal has a fly Speed, you can turn into that animal (unlike normal for 1st-level <em>pest form</em>), but you still don't gain a fly Speed.</p>"
        },
        "featType": {
            "value": "ancestry"
        },
        "level": {
            "value": 1
        },
        "location": "",
        "prerequisites": {
            "value": []
        },
        "rules": [],
        "source": {
            "value": "Pathfinder Lost Omens: Ancestry Guide"
        },
        "traits": {
            "custom": "",
            "rarity": "common",
            "value": [
                "beastkin"
            ]
        }
    },
    "effects": [],
    "flags": {},
    "img": "systems/pf2e/icons/features/feats/feats.webp",
    "name": "Critter Shape",
    "type": "feat"
}
