{
    "_id": "dY0jhJOEj6DHc0ud",
    "data": {
        "actionCategory": {
            "value": ""
        },
        "actionType": {
            "value": "passive"
        },
        "actions": {
            "value": null
        },
        "description": {
            "value": "<p>You can protect yourself more effectively, at the expense of your shield.</p>\n<p>When you @Compendium[pf2e.feats-srd.Shield Block]{Shield Block}, you can reduce the damage to yourself by double the shield's Hardness, but if you do, the shield takes double the normal amount of damage it would have taken (before applying its Hardness).</p>\n<p>You can't use Destructive Block if your shield can't be broken or destroyed, such as if you're using an @Compendium[pf2e.equipment-srd.Indestructible Shield]{Indestructible Shield}.</p>"
        },
        "featType": {
            "value": "archetype"
        },
        "level": {
            "value": 10
        },
        "prerequisites": {
            "value": [
                {
                    "value": "Bastion Dedication"
                }
            ]
        },
        "rules": [],
        "source": {
            "value": "Pathfinder Advanced Player's Guide"
        },
        "traits": {
            "custom": "",
            "rarity": "common",
            "value": [
                "archetype"
            ]
        }
    },
    "effects": [],
    "flags": {},
    "img": "systems/pf2e/icons/features/feats/feats.webp",
    "name": "Destructive Block",
    "type": "feat"
}
