{
    "_id": "UEbBOljjXvKsGKFu",
    "data": {
        "actionCategory": {
            "value": ""
        },
        "actionType": {
            "value": "passive"
        },
        "actions": {
            "value": null
        },
        "description": {
            "value": "<p>When you cast floating disk, you can modify its duration to be sustained, up to 10 minutes. If you do, add the following heightened entry to its effects.</p>\n<hr />\n<p><strong>Heightened (3rd)</strong> The disk can hold up to 10 Bulk. The spell no longer ends if you ride atop the disk (though it does if any other creature rides atop it, including if the creature is riding on you). If you are riding the disk, it changes its capacity to hold you, plus additional Bulk equal to the maximum you could carry without being encumbered. If you ride atop the disk, you can direct it to move along the ground up to 30 feet or your Speed, whichever is slower, each time you Sustain the Spell. While you ride atop it, the disk can move over liquids as long as it ends its movement on solid ground. If it ends its movement on a surface that can't support it, the spell ends.</p>"
        },
        "featType": {
            "value": "archetype"
        },
        "level": {
            "value": 6
        },
        "location": "",
        "prerequisites": {
            "value": [
                {
                    "value": "Spell Trickster Dedication"
                },
                {
                    "value": "ability to cast floating disk"
                }
            ]
        },
        "rules": [],
        "source": {
            "value": ""
        },
        "traits": {
            "custom": "",
            "rarity": "common",
            "value": [
                "archetype"
            ]
        }
    },
    "effects": [],
    "flags": {},
    "img": "systems/pf2e/icons/default-icons/feats.webp",
    "name": "Disk Rider",
    "type": "feat"
}
