{
    "_id": "0qGLCpggCcOVkbtT",
    "data": {
        "actionCategory": {
            "value": ""
        },
        "actionType": {
            "value": "reaction"
        },
        "actions": {
            "value": null
        },
        "description": {
            "value": "<p><strong>Trigger</strong> You are the target of a melee attack.</p>\n<p><strong>Requirements</strong> You're aware of the attack and aren't @Compendium[pf2e.conditionitems.Flat-Footed]{Flat-Footed}.</p>\n<hr />\n<p>You use your acrobatic prowess to evade an attack, using momentum to keep yourself moving, if you choose.</p>\n<p>You gain a +1 circumstance bonus to AC against the triggering attack. If the attack misses you, you can @Compendium[pf2e.actionspf2e.Step]{Step} after the Strike.</p>\n<p>If you're a master in Acrobatics, you can move 10 feet on this Step instead of 5 feet.</p>"
        },
        "featType": {
            "value": "archetype"
        },
        "level": {
            "value": 6
        },
        "location": "",
        "prerequisites": {
            "value": [
                {
                    "value": "Acrobat Dedication"
                }
            ]
        },
        "rules": [
            {
                "domain": "ac",
                "key": "RollOption",
                "option": "dodge-away",
                "toggleable": true
            },
            {
                "key": "FlatModifier",
                "predicate": {
                    "all": [
                        "dodge-away"
                    ]
                },
                "selector": "ac",
                "type": "circumstance",
                "value": 1
            }
        ],
        "source": {
            "value": "Pathfinder Advanced Player's Guide"
        },
        "traits": {
            "custom": "",
            "rarity": "common",
            "value": [
                "archetype"
            ]
        }
    },
    "effects": [],
    "flags": {},
    "img": "systems/pf2e/icons/features/feats/feats.webp",
    "name": "Dodge Away",
    "type": "feat"
}
