{
    "_id": "a2Owk9WI4pjSPuHf",
    "data": {
        "actionCategory": {
            "value": ""
        },
        "actionType": {
            "value": "passive"
        },
        "actions": {
            "value": null
        },
        "description": {
            "value": "<p>You attempt to Recall Knowledge about a creature, and the GM uses the same secret roll result against the creature's Deception or Stealth DC, giving you the information from a Battle Assessment. You might get a different degree of success on the Recall Knowledge check than what you get for the Battle Assessment. If you have the Battle Assessment feat, you gain the effects of Educated Assessment whenever you Recall Knowledge (such as with the Automatic Knowledge feat).</p>"
        },
        "featType": {
            "value": "class"
        },
        "level": {
            "value": 12
        },
        "location": "",
        "prerequisites": {
            "value": [
                {
                    "value": "Pathfinder Agent Dedication"
                }
            ]
        },
        "rules": [],
        "source": {
            "value": "Pathfinder Lost Omens: Character Guide"
        },
        "traits": {
            "custom": "",
            "rarity": "common",
            "value": [
                "secret",
                "archetype"
            ]
        }
    },
    "effects": [],
    "flags": {},
    "img": "systems/pf2e/icons/features/feats/feats.webp",
    "name": "Educated Assessment",
    "type": "feat"
}
