{
    "_id": "QsPvKvt4S1PR7kr7",
    "data": {
        "actionCategory": {
            "value": ""
        },
        "actionType": {
            "value": "passive"
        },
        "actions": {
            "value": null
        },
        "description": {
            "value": "<p>You have a strong connection with stone and metal. You gain the trained proficiency rank in Crafting. If you would automatically become trained in Crafting (from your background or class, for example), you instead become trained in a skill of your choice. You gain the @Compendium[pf2e.feats-srd.Specialty Crafting]{Specialty Crafting} skill feat for both Stonemasonry and Blacksmithing.</p>"
        },
        "featType": {
            "value": "ancestry"
        },
        "level": {
            "value": 1
        },
        "location": "",
        "prerequisites": {
            "value": []
        },
        "rules": [
            {
                "key": "GrantItem",
                "preselectChoices": {
                    "specialtyCrafting": "stonemasonry"
                },
                "uuid": "Compendium.pf2e.feats-srd.Specialty Crafting"
            },
            {
                "key": "GrantItem",
                "preselectChoices": {
                    "specialtyCrafting": "blacksmithing"
                },
                "uuid": "Compendium.pf2e.feats-srd.Specialty Crafting"
            }
        ],
        "source": {
            "value": "Pathfinder Lost Omens: Ancestry Guide"
        },
        "traits": {
            "custom": "",
            "rarity": "common",
            "value": [
                "oread"
            ]
        }
    },
    "effects": [],
    "flags": {},
    "img": "systems/pf2e/icons/features/feats/feats.webp",
    "name": "Elemental Trade",
    "type": "feat"
}
