{
    "_id": "soHLtpMM9h3AE7PD",
    "data": {
        "actionCategory": {
            "value": ""
        },
        "actionType": {
            "value": "passive"
        },
        "actions": {
            "value": null
        },
        "description": {
            "value": "<p>Your advanced alchemy level increases to 3. At 10th level, it increases to 5.</p>"
        },
        "featType": {
            "value": "archetype"
        },
        "level": {
            "value": 6
        },
        "prerequisites": {
            "value": [
                {
                    "value": "Alchemist Dedication"
                },
                {
                    "value": "expert in Crafting"
                }
            ]
        },
        "rules": [
            {
                "key": "ActiveEffectLike",
                "mode": "upgrade",
                "path": "data.crafting.entries.alchemist.maxItemLevel",
                "predicate": {
                    "all": [
                        "crafting:entry:alchemist"
                    ]
                },
                "value": {
                    "brackets": [
                        {
                            "end": 9,
                            "start": 6,
                            "value": 3
                        },
                        {
                            "start": 10,
                            "value": 5
                        }
                    ]
                }
            }
        ],
        "source": {
            "value": "Pathfinder Core Rulebook"
        },
        "traits": {
            "custom": "",
            "rarity": "common",
            "value": [
                "archetype"
            ]
        }
    },
    "effects": [],
    "flags": {},
    "img": "systems/pf2e/icons/features/feats/feats.webp",
    "name": "Expert Alchemy",
    "type": "feat"
}
