{
    "_id": "PGVXjbAi1Fa4uTmD",
    "data": {
        "actionCategory": {
            "value": ""
        },
        "actionType": {
            "value": "passive"
        },
        "actions": {
            "value": null
        },
        "description": {
            "value": "<p>You are surrounded by a halo of light and goodness at all times.</p>\n<p>Your halo sheds light with the effects of a divine <em>@Compendium[pf2e.spells-srd.Light]{Light}</em> cantrip. A cantrip is heightened to a spell level equal to half your level rounded up.</p>\n<p>You can suppress or reestablish the halo with a single action, which has the concentrate trait.</p>"
        },
        "featType": {
            "value": "ancestry"
        },
        "level": {
            "value": 1
        },
        "prerequisites": {
            "value": []
        },
        "rules": [],
        "source": {
            "value": "Pathfinder Advanced Player's Guide"
        },
        "traits": {
            "custom": "",
            "rarity": "common",
            "value": [
                "aasimar"
            ]
        }
    },
    "effects": [],
    "flags": {},
    "img": "systems/pf2e/icons/features/feats/feats.webp",
    "name": "Halo",
    "type": "feat"
}
