{
    "_id": "Wb3FHiDuY6Nuc0N0",
    "data": {
        "actionCategory": {
            "value": ""
        },
        "actionType": {
            "value": "passive"
        },
        "actions": {
            "value": null
        },
        "description": {
            "value": "<p>You are able to find and secure better labor than most. When securing a hireling for a service, that hireling gains a +2 circumstance bonus to all skill checks. This circumstance bonus applies to both trained and untrained hirelings and has no effect on the cost of the service or labor provided.</p>"
        },
        "featType": {
            "value": "general"
        },
        "level": {
            "value": 3
        },
        "location": "",
        "prerequisites": {
            "value": [
                {
                    "value": "Charisma 14"
                }
            ]
        },
        "rules": [
            {
                "key": "FlatModifier",
                "label": "Hireling Manager (from your hireling)",
                "predicate": {
                    "all": [
                        "hireling"
                    ]
                },
                "selector": "skill-check",
                "type": "circumstance",
                "value": 2
            }
        ],
        "source": {
            "value": "Pathfinder Advanced Player's Guide"
        },
        "traits": {
            "custom": "",
            "rarity": "common",
            "value": [
                "general"
            ]
        }
    },
    "effects": [],
    "flags": {},
    "img": "systems/pf2e/icons/features/feats/feats.webp",
    "name": "Hireling Manager",
    "type": "feat"
}
