{
    "_id": "aQNsD2t0Tb4vToA4",
    "data": {
        "actionCategory": {
            "value": ""
        },
        "actionType": {
            "value": "passive"
        },
        "actions": {
            "value": null
        },
        "description": {
            "value": "<p>You bear scars or tattoos enhanced by the mark of your community's prowess. When you select this feat, choose one of the options listed below. When you critically hit using a weapon of the listed group, you apply the weapon's critical specialization effect.</p>\n<p>You gain a large brand or tattoo in the shape of the chosen emblem or a similar image (for example, the axe could be a bear or other symbol of ferocious strength, while the shield might be a turtle or another symbol associated with a strong defense) and gain the listed benefit.</p>\n<ul>\n<li><strong>Axe</strong> axe or pick</li>\n<li><strong>Shield</strong> hammer or shield</li>\n<li><strong>Torch</strong> bomb or knife</li>\n</ul>"
        },
        "featType": {
            "value": "ancestry"
        },
        "level": {
            "value": 5
        },
        "prerequisites": {
            "value": []
        },
        "rules": [],
        "source": {
            "value": "Pathfinder Advanced Player's Guide"
        },
        "traits": {
            "custom": "",
            "rarity": "common",
            "value": [
                "orc"
            ]
        }
    },
    "effects": [],
    "flags": {},
    "img": "systems/pf2e/icons/features/feats/feats.webp",
    "name": "Hold Mark",
    "type": "feat"
}
