{
    "_id": "aVzkG1UhNjQr22pE",
    "data": {
        "actionCategory": {
            "value": "offensive"
        },
        "actionType": {
            "value": "reaction"
        },
        "actions": {
            "value": 1
        },
        "description": {
            "value": "<p><strong>Frequency</strong> once per hour</p>\n<p><strong>Requirements</strong> Your previous action was a ranged weapon Strike that missed a foe within 60 feet.</p>\n<hr />\n<p>Somehow your stray bullet causes an unintended reaction that creates a problem for your enemy: perhaps a ricochet knocks your foe's weapon away or they stumble over stray debris in an attempt to dodge your bullets. Roll a Deception check to attempt to @Compendium[pf2e.actionspf2e.Shove]{Shove}, @Compendium[pf2e.actionspf2e.Trip]{Trip}, or @Compendium[pf2e.actionspf2e.Disarm]{Disarm} the foe you missed.</p>"
        },
        "featType": {
            "value": "archetype"
        },
        "level": {
            "value": 10
        },
        "location": "",
        "prerequisites": {
            "value": [
                {
                    "value": "Unexpected Sharpshooter Dedication"
                },
                {
                    "value": "trained in Deception"
                }
            ]
        },
        "rules": [],
        "source": {
            "value": ""
        },
        "traits": {
            "custom": "",
            "rarity": "common",
            "value": [
                "archetype"
            ]
        }
    },
    "effects": [],
    "flags": {},
    "img": "systems/pf2e/icons/default-icons/feats.webp",
    "name": "I Meant to do That",
    "type": "feat"
}
