{
    "_id": "aFoVHsuInMOkTZoQ",
    "data": {
        "actionCategory": {
            "value": ""
        },
        "actionType": {
            "value": "passive"
        },
        "actions": {
            "value": null
        },
        "description": {
            "value": "<p>When you scout, you are particularly alert for danger, granting your allies precious moments to prepare to fight.</p>\n<p>When using the @Compendium[pf2e.actionspf2e.Scout]{Scout} exploration activity, you grant your allies a +2 circumstance bonus to their initiative rolls instead of a +1 circumstance bonus.</p>"
        },
        "featType": {
            "value": "general"
        },
        "level": {
            "value": 11
        },
        "prerequisites": {
            "value": [
                {
                    "value": "master in Perception"
                }
            ]
        },
        "rules": [],
        "source": {
            "value": "Pathfinder Advanced Player's Guide"
        },
        "traits": {
            "custom": "",
            "rarity": "common",
            "value": [
                "general"
            ]
        }
    },
    "effects": [],
    "flags": {},
    "img": "systems/pf2e/icons/features/feats/feats.webp",
    "name": "Incredible Scout",
    "type": "feat"
}
