{
    "_id": "39CqlOzlHjEhh0E4",
    "data": {
        "actionCategory": {
            "value": ""
        },
        "actionType": {
            "value": "action"
        },
        "actions": {
            "value": 2
        },
        "description": {
            "value": "<p>You make an attack to knock a foe off balance, then follow up immediately with a sweep to topple them.</p>\n<p>Make a melee Strike. If it hits and deals damage, you can attempt an Athletics check to @Compendium[pf2e.actionspf2e.Trip]{Trip} the creature you hit. If you're wielding a two-handed melee weapon, you can ignore Trip's requirement that you have a hand free.</p>\n<p>Both attacks count toward your multiple attack penalty, but the penalty doesn't increase until after you've made both of them.</p>"
        },
        "featType": {
            "value": "class"
        },
        "level": {
            "value": 4
        },
        "prerequisites": {
            "value": [
                {
                    "value": "trained in Athletics"
                }
            ]
        },
        "rules": [],
        "source": {
            "value": "Pathfinder Core Rulebook"
        },
        "traits": {
            "custom": "",
            "rarity": "common",
            "value": [
                "fighter",
                "flourish"
            ]
        }
    },
    "effects": [],
    "flags": {},
    "img": "systems/pf2e/icons/features/feats/feats.webp",
    "name": "Knockdown",
    "type": "feat"
}
