{
    "_id": "o4LycqplO14zn6It",
    "data": {
        "actionCategory": {
            "value": ""
        },
        "actionType": {
            "value": "passive"
        },
        "actions": {
            "value": null
        },
        "description": {
            "value": "<p>You've spent countless hours studying the history of elves on your world and beyond and are a studied expert in your people's ways.</p>\n<p>If you critically fail a check to Recall Knowledge about elves, elven society, or elven history, you get a failure instead.</p>"
        },
        "featType": {
            "value": "ancestry"
        },
        "level": {
            "value": 1
        },
        "prerequisites": {
            "value": []
        },
        "rules": [],
        "source": {
            "value": "Pathfinder Advanced Player's Guide"
        },
        "traits": {
            "custom": "",
            "rarity": "common",
            "value": [
                "elf"
            ]
        }
    },
    "effects": [],
    "flags": {},
    "img": "systems/pf2e/icons/features/feats/feats.webp",
    "name": "Know Your Own",
    "type": "feat"
}
