{
    "_id": "t03Tc5I4B8RHsyqs",
    "data": {
        "actionCategory": {
            "value": ""
        },
        "actionType": {
            "value": "passive"
        },
        "actions": {
            "value": null
        },
        "description": {
            "value": "<p>You have an innate knack for tactical observation, and you've innovated to apply that knack in a variety of ways that allow you to assist your allies. With the help of enhanced visual gear (such as a specially modified telescope, goggled visor, or binoculars), you're keenly aware of the movement of combatants on the battlefield. You quickly and efficiently disperse that information to your nearby allies so they can use it to direct their own observations and reactions to danger.</p>\n<p>You're surrounded by an overwatch field aura in a @Template[type:emanation|distance:30]. Your overwatch field aura grants you increased perception and allows you to call out warnings to your allies within the aura to point out threats. This aura has the auditory and visual traits. You and allies within your overwatch field receive a +2 circumstance bonus when using Perception for Initiative checks.</p>\n<p>@Compendium[pf2e.feat-effects.Effect: Overwatch Field]{Effect: Overwatch Field}</p>\n<p><strong>Special</strong> You can't select another dedication feat until after you have gained at least two other feats from the overwatch archetype.</p>"
        },
        "featType": {
            "value": "archetype"
        },
        "level": {
            "value": 2
        },
        "location": "",
        "prerequisites": {
            "value": [
                {
                    "value": "expert in Perception"
                }
            ]
        },
        "rules": [],
        "source": {
            "value": ""
        },
        "traits": {
            "custom": "",
            "rarity": "common",
            "value": [
                "archetype",
                "dedication"
            ]
        }
    },
    "effects": [],
    "flags": {},
    "img": "systems/pf2e/icons/default-icons/feats.webp",
    "name": "Overwatch Dedication",
    "type": "feat"
}
