{
    "_id": "FqZKSSBU7M4zhsXM",
    "data": {
        "actionCategory": {
            "value": ""
        },
        "actionType": {
            "value": "passive"
        },
        "actions": {
            "value": null
        },
        "description": {
            "value": "<p>Your duskwalker heritage allows you to extend protection against negative energy to yourself or an ally in need. You gain resistance 5 to negative energy, and once per day, you can cast <em>@Compendium[pf2e.spells-srd.Death Ward]{Death Ward}</em> as a divine innate spell.</p>"
        },
        "featType": {
            "value": "ancestry"
        },
        "level": {
            "value": 13
        },
        "location": "",
        "prerequisites": {
            "value": []
        },
        "rules": [
            {
                "key": "Resistance",
                "type": "negative",
                "value": 5
            }
        ],
        "source": {
            "value": "Pathfinder Advanced Player's Guide"
        },
        "traits": {
            "custom": "",
            "rarity": "common",
            "value": [
                "duskwalker"
            ]
        }
    },
    "effects": [],
    "flags": {},
    "img": "systems/pf2e/icons/features/feats/feats.webp",
    "name": "Resist Ruin",
    "type": "feat"
}
