{
    "_id": "Na1qfHd6AFAXoN1A",
    "data": {
        "actionCategory": {
            "value": ""
        },
        "actionType": {
            "value": "passive"
        },
        "actions": {
            "value": null
        },
        "description": {
            "value": "<p>You are incredibly skilled at reverse engineering items to learn their formulas, or disassembling them just to disable them. You gain a +2 circumstance bonus to Crafting checks to reverse engineer a formula from an item. If you get a critical success on your Crafting check, you can opt to both create the formula and reassemble the original item at the same time, leaving you with the formula and the item instead of the formula and raw materials equal to half the item's value. Furthermore, you can use Crafting instead of Thievery to Disable a Device or Pick a Lock.</p>"
        },
        "featType": {
            "value": "class"
        },
        "level": {
            "value": 2
        },
        "location": "",
        "prerequisites": {
            "value": [
                {
                    "value": "expert in Crafting"
                }
            ]
        },
        "rules": [],
        "source": {
            "value": ""
        },
        "traits": {
            "custom": "",
            "rarity": "common",
            "value": [
                "inventor"
            ]
        }
    },
    "effects": [],
    "flags": {},
    "img": "systems/pf2e/icons/default-icons/feats.webp",
    "name": "Reverse Engineer",
    "type": "feat"
}
