{
    "_id": "2rJP5TqvfazNeNmY",
    "data": {
        "actionCategory": {
            "value": ""
        },
        "actionType": {
            "value": "action"
        },
        "actions": {
            "value": 1
        },
        "description": {
            "value": "<p>While under the effect of a mutagen, you can metabolize that mutagen's power to heal yourself.</p>\n<p>This uses a single action, which has the concentrate and manipulate traits.</p>\n<p>Once the action is complete, you regain [[/r 1d6]] Hit Points for every 2 item levels of the mutagen (minimum 1d6), but the mutagen's duration immediately ends, even if you are under the effect of Persistent Mutagen.</p>"
        },
        "featType": {
            "value": "class"
        },
        "level": {
            "value": 2
        },
        "location": "",
        "prerequisites": {
            "value": []
        },
        "rules": [],
        "source": {
            "value": "Pathfinder Core Rulebook"
        },
        "traits": {
            "custom": "",
            "rarity": "common",
            "value": [
                "alchemist"
            ]
        }
    },
    "effects": [],
    "flags": {},
    "img": "systems/pf2e/icons/features/feats/feats.webp",
    "name": "Revivifying Mutagen",
    "type": "feat"
}
