{
    "_id": "TyjW9VGtlH0Zkm0I",
    "data": {
        "actionCategory": {
            "value": ""
        },
        "actionType": {
            "value": "passive"
        },
        "actions": {
            "value": null
        },
        "description": {
            "value": "<p>The magic flowing through your signifer's mask allows you to see in the dark, and the mask dampens the distraction caused by sudden flashes of bright light. While wearing your signifer's mask, you gain darkvision. Additionally, if you are dazzled while wearing your signifer's mask and the target is concealed only because you are dazzled, you reduce the flat check DC to target that creature from 5 to 3.</p>"
        },
        "featType": {
            "value": "archetype"
        },
        "level": {
            "value": 10
        },
        "prerequisites": {
            "value": [
                {
                    "value": "Hellknight Signifer Dedication"
                }
            ]
        },
        "rules": [],
        "source": {
            "value": "Pathfinder Lost Omens: Character Guide"
        },
        "traits": {
            "custom": "",
            "rarity": "common",
            "value": [
                "archetype"
            ]
        }
    },
    "effects": [],
    "flags": {},
    "img": "systems/pf2e/icons/features/feats/feats.webp",
    "name": "Signifer's Sight",
    "type": "feat"
}
