{
    "_id": "GYvaR6ZD8ZKdQWrF",
    "data": {
        "actionCategory": {
            "value": ""
        },
        "actionType": {
            "value": "passive"
        },
        "actions": {
            "value": null
        },
        "description": {
            "value": "<p>You can transform your body into a pure primal manifestation of earth, an elemental. Once per day, you can cast <em>@Compendium[pf2e.spells-srd.Elemental Form]{Elemental Form}</em> as a 7th-level primal innate spell, but you can only choose the earth elemental form.</p>"
        },
        "featType": {
            "value": "ancestry"
        },
        "level": {
            "value": 17
        },
        "location": "",
        "prerequisites": {
            "value": []
        },
        "rules": [],
        "source": {
            "value": "Pathfinder Lost Omens: Ancestry Guide"
        },
        "traits": {
            "custom": "",
            "rarity": "common",
            "value": [
                "oread"
            ]
        }
    },
    "effects": [],
    "flags": {},
    "img": "systems/pf2e/icons/features/feats/feats.webp",
    "name": "Stone Form",
    "type": "feat"
}
