{
    "_id": "Wo0HNBh6CCgPN3Co",
    "data": {
        "actionCategory": {
            "value": ""
        },
        "actionType": {
            "value": "passive"
        },
        "actions": {
            "value": null
        },
        "description": {
            "value": "<p>Your Speed bonus from Bellflower Dedication increases to +10 feet. Members of your crop receive a +5-foot circumstance bonus to Speed.</p>\n<p>@Compendium[pf2e.feat-effects.Effect: Tiller's Drive]{Effect: Tiller's Drive}</p>"
        },
        "featType": {
            "value": "archetype"
        },
        "level": {
            "value": 10
        },
        "location": "",
        "prerequisites": {
            "value": [
                {
                    "value": "Bellflower Dedication"
                }
            ]
        },
        "rules": [
            {
                "key": "FlatModifier",
                "selector": "speed",
                "type": "status",
                "value": 10
            }
        ],
        "source": {
            "value": "Pathfinder #147: Tomorrow Must Burn"
        },
        "traits": {
            "custom": "",
            "rarity": "common",
            "value": [
                "archetype"
            ]
        }
    },
    "effects": [],
    "flags": {},
    "img": "systems/pf2e/icons/features/feats/feats.webp",
    "name": "Tiller's Drive",
    "type": "feat"
}
