{
    "_id": "fiA3rfqPcCKFCI83",
    "data": {
        "actionCategory": {
            "value": ""
        },
        "actionType": {
            "value": "passive"
        },
        "actions": {
            "value": null
        },
        "description": {
            "value": "<p>You're capable of growing as tall as a pine tree for a short time. You gain 2nd-level <em>@Compendium[pf2e.spells-srd.Enlarge]{Enlarge}</em> as a primal innate spell. You can cast this spell twice per day and you must target yourself.</p>"
        },
        "featType": {
            "value": "ancestry"
        },
        "level": {
            "value": 9
        },
        "location": "",
        "prerequisites": {
            "value": [
                {
                    "value": "Pine Leshy heritage"
                }
            ]
        },
        "rules": [],
        "source": {
            "value": "Pathfinder #176: Lost Mammoth Valley"
        },
        "traits": {
            "custom": "",
            "rarity": "uncommon",
            "value": []
        }
    },
    "effects": [],
    "flags": {},
    "img": "systems/pf2e/icons/default-icons/feats.webp",
    "name": "Towering Growth",
    "type": "feat"
}
