{
    "_id": "3NZSRyoulnzsi3sn",
    "data": {
        "actionCategory": {
            "value": ""
        },
        "actionType": {
            "value": "passive"
        },
        "actions": {
            "value": null
        },
        "description": {
            "value": "<p>The whispers of the jungle grant you more diverse access to simple primal magic. You can cast <em>@Compendium[pf2e.spells-srd.Dancing Lights]{Dancing Lights}</em>, <em>@Compendium[pf2e.spells-srd.Disrupt Undead]{Disrupt Undead}</em> and <em>@Compendium[pf2e.spells-srd.Tanglefoot]{Tanglefoot}</em> as innate primal spells at will. If you chose one of those spells with Wildborn Magic, you can select a new spell for Wildborn Magic.</p>"
        },
        "featType": {
            "value": "ancestry"
        },
        "level": {
            "value": 5
        },
        "prerequisites": {
            "value": [
                {
                    "value": "Wildborn Magic"
                }
            ]
        },
        "rules": [],
        "source": {
            "value": "Pathfinder Lost Omens: Character Guide"
        },
        "traits": {
            "custom": "",
            "rarity": "common",
            "value": [
                "elf"
            ]
        }
    },
    "effects": [],
    "flags": {},
    "img": "systems/pf2e/icons/features/feats/feats.webp",
    "name": "Wildborn Adept",
    "type": "feat"
}
