{
    "_id": "CL8lLQJWd4N89QIm",
    "data": {
        "actionCategory": {
            "value": ""
        },
        "actionType": {
            "value": "passive"
        },
        "actions": {
            "value": null
        },
        "description": {
            "value": "<p><strong>Moderate Boon</strong> You share Erastil's sharp eye, allowing you to use a longbow in any situation.</p>\n<p>When you attack with a longbow, you can ignore the longbow's volley trait, and longbows have double the normal range increment for you.</p>"
        },
        "featType": {
            "value": "deityboon"
        },
        "level": {
            "value": 0
        },
        "prerequisites": {
            "value": []
        },
        "rules": [],
        "source": {
            "value": ""
        },
        "traits": {
            "custom": "",
            "rarity": "common",
            "value": []
        }
    },
    "effects": [],
    "flags": {},
    "img": "systems/pf2e/icons/deity/Erastil.webp",
    "name": "Erastil - Moderate Boon",
    "type": "feat"
}
