{
    "_id": "QJRaVbulmpOzWi6w",
    "data": {
        "description": {
            "value": "<p>Granted by Girzanje's March</p>\n<p>Allied creatures who can hear and understand you gain a +1 status bonus to attack rolls, Fortitude saves, and Will saves against mental effects.</p>\n<hr />\n<p><strong>Heightened (7th)</strong> The status bonus increases to +2.</p>\n<p><strong>Heightened (10th)</strong> The status bonus increases to +3.</p>"
        },
        "duration": {
            "expiry": "turn-start",
            "sustained": true,
            "unit": "minutes",
            "value": 1
        },
        "level": {
            "value": 4
        },
        "rules": [
            {
                "key": "FlatModifier",
                "selector": "fortitude",
                "type": "status",
                "value": {
                    "brackets": [
                        {
                            "end": 6,
                            "value": 1
                        },
                        {
                            "end": 9,
                            "start": 7,
                            "value": 2
                        },
                        {
                            "start": 10,
                            "value": 3
                        }
                    ]
                }
            },
            {
                "key": "FlatModifier",
                "selector": "attack",
                "type": "status",
                "value": {
                    "brackets": [
                        {
                            "end": 6,
                            "value": 1
                        },
                        {
                            "end": 9,
                            "start": 7,
                            "value": 2
                        },
                        {
                            "start": 10,
                            "value": 3
                        }
                    ]
                }
            },
            {
                "key": "FlatModifier",
                "predicate": {
                    "all": [
                        "mental"
                    ]
                },
                "selector": "will",
                "type": "status",
                "value": {
                    "brackets": [
                        {
                            "end": 6,
                            "value": 1
                        },
                        {
                            "end": 9,
                            "start": 7,
                            "value": 2
                        },
                        {
                            "start": 10,
                            "value": 3
                        }
                    ]
                }
            }
        ],
        "source": {
            "value": "Pathfinder #171: Hurricane's Howl"
        },
        "start": {
            "initiative": null,
            "value": 0
        },
        "target": null,
        "tokenIcon": {
            "show": true
        },
        "traits": {
            "custom": "",
            "rarity": "common",
            "value": []
        }
    },
    "effects": [],
    "flags": {},
    "img": "systems/pf2e/icons/default-icons/effect.svg",
    "name": "Spell Effect: Girzanje's March",
    "type": "effect"
}
