{
    "_id": "CTdEsMIwVYqqkH50",
    "data": {
        "badge": null,
        "description": {
            "value": "<p>Granted by @Compendium[pf2e.spells-srd.Litany of Depravity]{Litany of Depravity}.</p>\n<p>You gain weakness 7 to evil.</p>\n<hr />\n<p><strong>Heightened (+1)</strong> The weakness increases by 1.</p>"
        },
        "duration": {
            "expiry": "turn-start",
            "sustained": false,
            "unit": "rounds",
            "value": 1
        },
        "level": {
            "value": 7
        },
        "rules": [
            {
                "key": "Weakness",
                "type": "evil",
                "value": "@item.level"
            }
        ],
        "source": {
            "value": ""
        },
        "start": {
            "initiative": null,
            "value": 0
        },
        "target": null,
        "tokenIcon": {
            "show": true
        },
        "traits": {
            "custom": "",
            "rarity": "common",
            "value": []
        }
    },
    "effects": [],
    "flags": {},
    "img": "systems/pf2e/icons/spells/litany-of-depravity.webp",
    "name": "Spell Effect: Litany of Depravity",
    "type": "effect"
}
