{
    "_id": "fvIlSZPwojixVvyZ",
    "data": {
        "badge": null,
        "description": {
            "value": "<p>Granted by @Compendium[pf2e.spells-srd.Lucky Number]{Lucky Number}.</p>\n<p>You gain the @Compendium[pf2e.actionspf2e.That's My Number]{That's My Number} reaction; once you use the reaction, the spell ends.</p>"
        },
        "duration": {
            "expiry": "turn-start",
            "sustained": false,
            "unit": "unlimited",
            "value": -1
        },
        "level": {
            "value": 2
        },
        "rules": [
            {
                "key": "GrantItem",
                "uuid": "Compendium.pf2e.actionspf2e.That's My Number"
            }
        ],
        "source": {
            "value": ""
        },
        "start": {
            "initiative": null,
            "value": 0
        },
        "target": null,
        "tokenIcon": {
            "show": true
        },
        "traits": {
            "custom": "",
            "rarity": "common",
            "value": []
        }
    },
    "effects": [],
    "flags": {},
    "img": "systems/pf2e/icons/spells/lucky-number.webp",
    "name": "Spell Effect: Lucky Number",
    "type": "effect"
}
