{
    "_id": "e96H6PLW11NCRK1h",
    "data": {
        "attributes": {
            "ac": {
                "value": 0
            },
            "hardness": 0,
            "hasHealth": true,
            "hp": {
                "details": "",
                "max": 10,
                "temp": 0,
                "value": 10
            },
            "stealth": {
                "details": "<p>(legendary)</p>",
                "value": 31
            }
        },
        "creatureType": "",
        "details": {
            "description": "<p>A ragged planar rift drags things into its depths and hurls creatures through from its terminal end.</p>",
            "disable": "<p><em>@Compendium[pf2e.spells-srd.Dispel Magic]{Dispel Magic}</em> (9th level; counteract DC 46) to seal the rift</p>",
            "isComplex": false,
            "level": {
                "value": 21
            },
            "reset": "",
            "routine": null
        },
        "saves": {
            "fortitude": {
                "saveDetail": "",
                "value": 0
            },
            "reflex": {
                "saveDetail": "",
                "value": 0
            },
            "will": {
                "saveDetail": "",
                "value": 0
            }
        },
        "source": {
            "value": "Pathfinder #162: Ruins of the Radiant Siege"
        },
        "statusEffects": [],
        "traits": {
            "ci": [],
            "di": {
                "custom": "",
                "selected": {},
                "value": []
            },
            "dr": [],
            "dv": [],
            "rarity": "common",
            "size": {
                "value": "med"
            },
            "traits": {
                "custom": "",
                "value": [
                    "magical",
                    "trap"
                ]
            }
        }
    },
    "effects": [],
    "flags": {},
    "img": "systems/pf2e/icons/default-icons/hazard.svg",
    "items": [
        {
            "_id": "A4evoVscksRyehl1",
            "data": {
                "actionCategory": {
                    "value": ""
                },
                "actionType": {
                    "value": "reaction"
                },
                "actions": {
                    "value": null
                },
                "description": {
                    "value": "<p data-visibility=\"gm\"><strong>Trigger</strong> A creature moves within 5 feet of the rift</p>\n<p><strong>Effect</strong> The creature must succeed at a @Check[type:will|dc:44] save or be drawn into the rift. A creature so drawn in becomes @Compendium[pf2e.conditionitems.Stunned]{Stunned 3} and immediately teleports to a different random area in Kharnas's ruins.</p>"
                },
                "requirements": {
                    "value": ""
                },
                "rules": [],
                "slug": null,
                "source": {
                    "value": ""
                },
                "traits": {
                    "custom": "",
                    "rarity": "common",
                    "value": [
                        "arcane",
                        "conjuration",
                        "teleportation"
                    ]
                },
                "trigger": {
                    "value": ""
                },
                "weapon": {
                    "value": ""
                }
            },
            "effects": [],
            "flags": {},
            "img": "systems/pf2e/icons/actions/Reaction.webp",
            "name": "Greater Planar Rift",
            "sort": 100000,
            "type": "action"
        }
    ],
    "name": "Greater Planar Rift",
    "token": {
        "disposition": 0,
        "height": 1,
        "img": "systems/pf2e/icons/default-icons/hazard.svg",
        "name": "Greater Planar Rift",
        "width": 1
    },
    "type": "hazard"
}
