{
    "_id": "w3aS3tsvH2Ub6XMn",
    "data": {
        "actionCategory": {
            "value": ""
        },
        "actionType": {
            "value": "passive"
        },
        "actions": {
            "value": null
        },
        "description": {
            "value": "<p>You understand the complex interactions of natural and unnatural substances and can concoct alchemical items to meet your needs. You can do this using normal reagents and the Craft activity, or you can use special infused reagents that allow you to craft temporary items quickly and at no cost. Over time, you can create more and more alchemical items for free, and since each of them becomes more and more powerful, you advance in power dramatically, leaving behind those who don't understand your strange science.</p>\n<p>You gain the @Compendium[pf2e.feats-srd.Alchemical Crafting]{Alchemical Crafting} feat, even if you don't meet that feat's prerequisites, and you gain the four common 1st-level alchemical formulas granted by that feat. You can use this feat to create alchemical items as long as you have the items' formulas in your formula book.</p>"
        },
        "featType": {
            "value": "classfeature"
        },
        "level": {
            "value": 1
        },
        "location": "",
        "prerequisites": {
            "value": []
        },
        "rules": [
            {
                "key": "GrantItem",
                "uuid": "Compendium.pf2e.feats-srd.Alchemical Crafting"
            },
            {
                "key": "GrantItem",
                "uuid": "Compendium.pf2e.classfeatures.Infused Reagents"
            },
            {
                "key": "GrantItem",
                "uuid": "Compendium.pf2e.classfeatures.Advanced Alchemy"
            },
            {
                "key": "GrantItem",
                "uuid": "Compendium.pf2e.classfeatures.Quick Alchemy"
            }
        ],
        "source": {
            "value": ""
        },
        "traits": {
            "custom": "",
            "rarity": "common",
            "value": [
                "alchemist"
            ]
        }
    },
    "effects": [],
    "flags": {},
    "img": "systems/pf2e/icons/features/classes/alchemy.webp",
    "name": "Alchemy",
    "type": "feat"
}
