{
    "_id": "ehL7mnkqxN5wIkgu",
    "data": {
        "actionCategory": {
            "value": ""
        },
        "actionType": {
            "value": "passive"
        },
        "actions": {
            "value": null
        },
        "description": {
            "value": "<p>Champions are divine servants of a deity. Choose a deity to follow; your alignment must be one allowed for followers of your deity. Actions fundamentally opposed to your deity's ideals or alignment are anathema to your faith. A few examples of acts that would be considered anathema appear in each deity's entry. You and your GM determine whether other acts are anathema. You have one of the following causes. Your cause must match your alignment exactly. Your cause determines your champion's reaction, grants you a devotion spell, and defines part of your champion's code.</p>\n<ul>\n<li>LG @Compendium[pf2e.classfeatures.Paladin]{Paladin}</li>\n<li>NG @Compendium[pf2e.classfeatures.Redeemer]{Redeemer}</li>\n<li>CG @Compendium[pf2e.classfeatures.Liberator]{Liberator}</li>\n<li>LE @Compendium[pf2e.classfeatures.Tyrant]{Tyrant}</li>\n<li>NE @Compendium[pf2e.classfeatures.Desecrator]{Desecrator}</li>\n<li>CE @Compendium[pf2e.classfeatures.Antipaladin]{Antipaladin}</li>\n</ul>"
        },
        "featType": {
            "value": "classfeature"
        },
        "level": {
            "value": 1
        },
        "location": "",
        "prerequisites": {
            "value": []
        },
        "rules": [],
        "source": {
            "value": ""
        },
        "traits": {
            "custom": "",
            "rarity": "common",
            "value": [
                "champion"
            ]
        }
    },
    "effects": [],
    "flags": {},
    "img": "systems/pf2e/icons/features/classes/choice-feature.webp",
    "name": "Deity and Cause",
    "type": "feat"
}
