{
    "_id": "YrJj8UI0XpkHv0Ho",
    "data": {
        "actionCategory": {
            "value": ""
        },
        "actionType": {
            "value": "passive"
        },
        "actions": {
            "value": null
        },
        "description": {
            "value": "<p>Members of the Order of the Chain are skilled at hunting down and capturing criminals, especially those who dare flee from justice.</p>\n<hr />\n<p><strong>Lesser Benefit</strong> @Compendium[pf2e.feats-srd.Shackles of Law]{Shackles of Law}</p>\n<p><strong>Greater Benefit</strong> @Compendium[pf2e.feats-srd.Sturdy Bindings]{Sturdy Bindings}</p>"
        },
        "featType": {
            "value": "classfeature"
        },
        "level": {
            "value": 0
        },
        "location": "",
        "prerequisites": {
            "value": []
        },
        "rules": [],
        "source": {
            "value": ""
        },
        "traits": {
            "custom": "",
            "rarity": "common",
            "value": []
        }
    },
    "effects": [],
    "flags": {},
    "img": "systems/pf2e/icons/default-icons/feat.svg",
    "name": "Order of the Chain",
    "type": "feat"
}
