{
    "_id": "Pew7duAozEeAemif",
    "data": {
        "actionCategory": {
            "value": ""
        },
        "actionType": {
            "value": "passive"
        },
        "actions": {
            "value": null
        },
        "description": {
            "value": "<p>With magic, the sky's the limit, and you can't be bound by the confines of physical proximity. Your power reaches as far as your senses can perceive, transcending the space between you and your target even with spells that normally require direct physical contact.</p>\n<p>When you use Spellstrike, you can make a ranged weapon or ranged unarmed Strike, as long as the target is within the first range increment of your ranged weapon or ranged unarmed attack. You can deliver the spell even if its range is shorter than the range increment of your ranged attack.</p>\n<p><strong>Conflux Spell</strong> <em>@Compendium[pf2e.spells-srd.Shooting Star]{Shooting Star}</em></p>"
        },
        "featType": {
            "value": "classfeature"
        },
        "level": {
            "value": 1
        },
        "location": "",
        "prerequisites": {
            "value": []
        },
        "rules": [],
        "source": {
            "value": ""
        },
        "traits": {
            "custom": "",
            "rarity": "common",
            "value": [
                "magus"
            ]
        }
    },
    "effects": [],
    "flags": {},
    "img": "systems/pf2e/icons/features/classes/starlit-span.webp",
    "name": "Starlit Span",
    "type": "feat"
}
