{
    "_id": "F5VenhIQMDkeGvmV",
    "data": {
        "actionCategory": {
            "value": ""
        },
        "actionType": {
            "value": "passive"
        },
        "actions": {
            "value": null
        },
        "description": {
            "value": "<p>You've learned fighting techniques that apply to all armaments, and you've developed unparalleled skill with your favorite weapons. Your proficiency ranks for simple weapons, martial weapons, and unarmed attacks increase to master. Your proficiency rank for advanced weapons increases to expert. You can select one weapon group and increase your proficiency ranks to legendary for all simple weapons, martial weapons, and unarmed attacks in that weapon group, and to master for all advanced weapons in that weapon group.</p>"
        },
        "featType": {
            "value": "classfeature"
        },
        "level": {
            "value": 13
        },
        "location": "",
        "prerequisites": {
            "value": []
        },
        "rules": [
            {
                "choices": "weaponGroups",
                "key": "ChoiceSet",
                "prompt": "PF2E.SpecificRule.Prompt.WeaponGroup"
            },
            {
                "definition": {
                    "all": [
                        "weapon:group:{item|flags.pf2e.rulesSelections.weaponLegend}"
                    ],
                    "any": [
                        "weapon:category:unarmed",
                        "weapon:category:simple",
                        "weapon:category:martial"
                    ]
                },
                "key": "MartialProficiency",
                "label": "PF2E.SpecificRule.FighterWeaponMasteryLegend.SimpleMartial.{item|flags.pf2e.rulesSelections.weaponLegend}",
                "slug": "weapon-legend-simple-martial",
                "value": 4
            },
            {
                "definition": {
                    "all": [
                        "weapon:category:advanced",
                        "weapon:group:{item|flags.pf2e.rulesSelections.weaponLegend}"
                    ]
                },
                "key": "MartialProficiency",
                "label": "PF2E.SpecificRule.FighterWeaponMasteryLegend.Advanced.{item|flags.pf2e.rulesSelections.weaponLegend}",
                "slug": "weapon-legend-advanced",
                "value": 3
            },
            {
                "key": "ActiveEffectLike",
                "mode": "upgrade",
                "path": "data.martial.simple.rank",
                "value": 3
            },
            {
                "key": "ActiveEffectLike",
                "mode": "upgrade",
                "path": "data.martial.martial.rank",
                "value": 3
            },
            {
                "key": "ActiveEffectLike",
                "mode": "upgrade",
                "path": "data.martial.unarmed.rank",
                "value": 3
            },
            {
                "key": "ActiveEffectLike",
                "mode": "upgrade",
                "path": "data.martial.advanced.rank",
                "value": 2
            }
        ],
        "source": {
            "value": ""
        },
        "traits": {
            "custom": "",
            "rarity": "common",
            "value": [
                "fighter"
            ]
        }
    },
    "effects": [],
    "flags": {},
    "img": "systems/pf2e/icons/features/classes/weapon-legend.webp",
    "name": "Weapon Legend",
    "type": "feat"
}
