{
    "_id": "TaaMEYdZXQXF0Sks",
    "data": {
        "ability": {
            "value": ""
        },
        "area": {
            "areaType": "",
            "value": ""
        },
        "areasize": {
            "value": ""
        },
        "category": {
            "value": "spell"
        },
        "components": {
            "focus": false,
            "material": false,
            "somatic": false,
            "verbal": true
        },
        "cost": {
            "value": ""
        },
        "damage": {
            "value": {
                "0": {
                    "applyMod": false,
                    "type": {
                        "categories": [],
                        "subtype": "persistent",
                        "value": "bleed"
                    },
                    "value": "2d6"
                }
            }
        },
        "description": {
            "value": "<p><strong>Requirements</strong> You can bleed.</p>\n<p><strong>Trigger</strong> A creature deals piercing, slashing, or persistent bleed damage to you.</p>\n<hr />\n<p>You curse the target, punishing it for having the audacity to spill your blood. The target takes [[/r {2d6}[persistent,bleed]]] @Compendium[pf2e.conditionitems.Persistent Damage]{Persistent Bleed Damage} and must attempt a Will save.</p>\n<hr />\n<p><strong>Critical Success</strong> The target is unaffected.</p>\n<p><strong>Success</strong> The target takes half the persistent bleed damage.</p>\n<p><strong>Failure</strong> The target takes the full persistent bleed damage. Until the bleeding stops, the target has weakness 1 to piercing and slashing damage. @Compendium[pf2e.spell-effects.Spell Effect: Blood Vendetta (Failure)]{Spell Effect: Blood Vendetta (Failure)}</p>\n<p><strong>Critical Failure</strong> As failure, but the target takes double the persistent bleed damage.</p>\n<hr />\n<p><strong>Heightened (+2)</strong> The persistent bleed damage increases by [[/r {2d6}[persistent,bleed]]] @Compendium[pf2e.conditionitems.Persistent Damage]{Persistent Bleed Damage}.</p>"
        },
        "duration": {
            "value": "varies"
        },
        "hasCounteractCheck": {
            "value": false
        },
        "level": {
            "value": 2
        },
        "location": {
            "value": ""
        },
        "materials": {
            "value": "You can bleed"
        },
        "prepared": {
            "value": false
        },
        "primarycheck": {
            "value": ""
        },
        "range": {
            "value": "30 feet"
        },
        "rules": [],
        "save": {
            "basic": "",
            "value": "will"
        },
        "scaling": {
            "damage": {
                "0": "2d6"
            },
            "interval": 2
        },
        "school": {
            "value": "necromancy"
        },
        "secondarycasters": {
            "value": ""
        },
        "secondarycheck": {
            "value": ""
        },
        "source": {
            "value": "Pathfinder Advanced Player's Guide"
        },
        "spellType": {
            "value": "save"
        },
        "sustained": {
            "value": false
        },
        "target": {
            "value": "The triggering creature"
        },
        "time": {
            "value": "reaction"
        },
        "traditions": {
            "value": [
                "arcane",
                "divine",
                "occult"
            ]
        },
        "traits": {
            "custom": "",
            "rarity": "common",
            "value": [
                "curse"
            ]
        }
    },
    "effects": [],
    "flags": {},
    "img": "systems/pf2e/icons/spells/blood-vendetta.webp",
    "name": "Blood Vendetta",
    "type": "spell"
}
