{
    "_id": "JcobNl4iE9HmMYtE",
    "data": {
        "ability": {
            "value": ""
        },
        "area": {
            "areaType": "",
            "value": ""
        },
        "areasize": {
            "value": "30-foot cone originating from you, 60-foot line originating from you, or 10-foot burst originating from within 30 feet of you."
        },
        "category": {
            "value": "focus"
        },
        "components": {
            "focus": false,
            "material": false,
            "somatic": true,
            "verbal": true
        },
        "cost": {
            "value": ""
        },
        "damage": {
            "value": {
                "0": {
                    "applyMod": false,
                    "type": {
                        "categories": [],
                        "subtype": "",
                        "value": "untyped"
                    },
                    "value": "5d6"
                }
            }
        },
        "description": {
            "value": "<p>You spew energy from your mouth, dealing [[/r 5d6]] damage. The area, damage type, and save depend on the dragon type in your bloodline.</p>\n<h2>Dragon Breath</h2>\n<table class=\"pf2-table\">\n<thead>\n<tr>\n<th>Dragon Type</th>\n<th>Area and damage type</th>\n<th>Saving Throw</th>\n</tr>\n</thead>\n<tbody>\n<tr>\n<td>Black, Brine, or Copper</td>\n<td>60-foot line of acid</td>\n<td>Reflex</td>\n</tr>\n<tr>\n<td>Blue or Bronze</td>\n<td>60-foot line of electricity</td>\n<td>Reflex</td>\n</tr>\n<tr>\n<td>Brass</td>\n<td>60-foot line of fire</td>\n<td>Reflex</td>\n</tr>\n<tr>\n<td>Cloud</td>\n<td>30-foot cone of electricity</td>\n<td>Reflex</td>\n</tr>\n<tr>\n<td>Crystal or Forest</td>\n<td>30-foot cone of piercing</td>\n<td>Reflex</td>\n</tr>\n<tr>\n<td>Green</td>\n<td>30-foot cone of poison</td>\n<td>Fortitude</td>\n</tr>\n<tr>\n<td>Gold, Magma, or Red</td>\n<td>30-foot cone of fire</td>\n<td>Reflex</td>\n</tr>\n<tr>\n<td>Sea</td>\n<td>10-foot burst within 30 feet of bludgeoning</td>\n<td>Reflex</td>\n</tr>\n<tr>\n<td>Silver or White</td>\n<td>30-foot cone of cold</td>\n<td>Reflex</td>\n</tr>\n<tr>\n<td>Sky</td>\n<td>10-foot burst within 30 feet of electricity</td>\n<td>Reflex</td>\n</tr>\n<tr>\n<td>Sovereign</td>\n<td>30-foot cone of mental</td>\n<td>Will</td>\n</tr>\n<tr>\n<td>Umbral</td>\n<td>30-foot cone of negative</td>\n<td>Reflex</td>\n</tr>\n<tr>\n<td>Underworld</td>\n<td>10-foot burst within 30 feet of fire</td>\n<td>Reflex</td>\n</tr>\n</tbody>\n</table>\n<hr />\n<p><strong>Heightened (+1)</strong> The damage increases by [[/r 2d6]].</p>"
        },
        "duration": {
            "value": ""
        },
        "hasCounteractCheck": {
            "value": false
        },
        "level": {
            "value": 3
        },
        "location": {
            "value": ""
        },
        "materials": {
            "value": ""
        },
        "prepared": {
            "value": ""
        },
        "primarycheck": {
            "value": ""
        },
        "range": {
            "value": ""
        },
        "rules": [],
        "save": {
            "basic": "",
            "value": ""
        },
        "scaling": {
            "damage": {
                "0": "2d6"
            },
            "interval": 1
        },
        "school": {
            "value": "evocation"
        },
        "secondarycasters": {
            "value": ""
        },
        "secondarycheck": {
            "value": ""
        },
        "source": {
            "value": "Pathfinder Core Rulebook"
        },
        "spellType": {
            "value": "save"
        },
        "sustained": {
            "value": false
        },
        "target": {
            "value": ""
        },
        "time": {
            "value": "2"
        },
        "traditions": {
            "value": []
        },
        "traits": {
            "custom": "",
            "rarity": "uncommon",
            "value": [
                "sorcerer"
            ]
        }
    },
    "effects": [],
    "flags": {},
    "img": "systems/pf2e/icons/spells/dragon-breath.webp",
    "name": "Dragon Breath",
    "type": "spell"
}
