{
    "_id": "8VzbumNyMEdSzZSz",
    "data": {
        "ability": {
            "value": ""
        },
        "area": {
            "areaType": "",
            "value": ""
        },
        "category": {
            "value": "spell"
        },
        "components": {
            "focus": false,
            "material": false,
            "somatic": true,
            "verbal": true
        },
        "cost": {
            "value": ""
        },
        "damage": {
            "value": {}
        },
        "description": {
            "value": "<p>You attune yourself to an underlying cosmic order to the world. While you remain in tune with this power, you gain a +1 status bonus to Perception checks, saving throws, and skill checks. If you critically fail any check while under the effects of this spell, the bonus ends and you instead have a -1 status penalty to all checks for the remaining duration.</p>\n<p>@Compendium[pf2e.spell-effects.Spell Effect: Impeccable Flow (2nd)]{Spell Effect: Impeccable Flow (2nd)}</p>\n<p>@Compendium[pf2e.spell-effects.Spell Effect: Impeccable Flow (Critical Failure Effect)]{Spell Effect: Impeccable Flow (Critical Failure Effect)}</p>\n<hr />\n<p><strong>Heightened (5th)</strong> The status bonus increases to +2.</p>\n<p>@Compendium[pf2e.spell-effects.Spell Effect: Impeccable Flow (5th)]{Spell Effect: Impeccable Flow (5th)}</p>\n<p><strong>Heightened (8th)</strong> The status bonus increases to +3.</p>\n<p>@Compendium[pf2e.spell-effects.Spell Effect: Impeccable Flow (8th)]{Spell Effect: Impeccable Flow (8th)}</p>\n<hr />\n<p><em>Note: The automation for the critical failure effect defaults to 10 rounds and must be altered manually.</em></p>"
        },
        "duration": {
            "value": "1 minute"
        },
        "hasCounteractCheck": {
            "value": false
        },
        "level": {
            "value": 2
        },
        "location": {
            "value": ""
        },
        "materials": {
            "value": ""
        },
        "prepared": {
            "value": ""
        },
        "range": {
            "value": ""
        },
        "rules": [],
        "save": {
            "basic": "",
            "value": ""
        },
        "school": {
            "value": "divination"
        },
        "source": {
            "value": "Pathfinder #169: Kindled Magic"
        },
        "spellType": {
            "value": "utility"
        },
        "sustained": {
            "value": false
        },
        "target": {
            "value": ""
        },
        "time": {
            "value": "2"
        },
        "traditions": {
            "custom": "",
            "value": [
                "arcane",
                "divine"
            ]
        },
        "traits": {
            "custom": "",
            "rarity": "uncommon",
            "value": [
                "lawful"
            ]
        }
    },
    "effects": [],
    "flags": {},
    "img": "systems/pf2e/icons/default-icons/spell.svg",
    "name": "Impeccable Flow",
    "type": "spell"
}
