{
    "_id": "87zLUuTMmZ9zc7gH",
    "data": {
        "ability": {
            "value": ""
        },
        "area": {
            "areaType": "burst",
            "value": "20"
        },
        "category": {
            "value": "spell"
        },
        "components": {
            "focus": false,
            "material": false,
            "somatic": true,
            "verbal": true
        },
        "cost": {
            "value": ""
        },
        "damage": {
            "value": {}
        },
        "description": {
            "value": "<p>You shroud an area in illusory dreamstuff, making the ground look and feel like a deep mire or quicksand. Ground in the area is difficult terrain.</p>\n<p>Each creature in the area when the spell is cast, or that enters the area, must attempt a Will save. On a failure, it believes it's being pulled down by the earth, taking a -10-foot circumstance penalty to its Speeds. On a critical failure, it's also @Compendium[pf2e.conditionitems.Immobilized]{Immobilized}. In addition to the normal actions to Escape, at the end of an affected creature's turn, it can attempt a Will save, removing the effects on a success. On a critical success at any Will save made against oneiric mire, the creature fully disbelieves the illusion and no longer needs to make Will saves to risk a Speed penalty or being immobilized, though the area is still difficult terrain.</p>"
        },
        "duration": {
            "value": "1 minute"
        },
        "hasCounteractCheck": {
            "value": false
        },
        "level": {
            "value": 3
        },
        "location": {
            "value": ""
        },
        "materials": {
            "value": ""
        },
        "range": {
            "value": "120 feet"
        },
        "rules": [],
        "save": {
            "basic": "",
            "value": "will"
        },
        "school": {
            "value": "illusion"
        },
        "source": {
            "value": "Pathfinder Secrets of Magic"
        },
        "spellType": {
            "value": "save"
        },
        "sustained": {
            "value": false
        },
        "target": {
            "value": ""
        },
        "time": {
            "value": "3"
        },
        "traditions": {
            "custom": "",
            "value": [
                "arcane",
                "occult",
                "primal"
            ]
        },
        "traits": {
            "custom": "",
            "rarity": "common",
            "value": [
                "mental",
                "visual"
            ]
        }
    },
    "effects": [],
    "flags": {},
    "img": "systems/pf2e/icons/spells/oneiric-mire.webp",
    "name": "Oneiric Mire",
    "type": "spell"
}
