{
    "_id": "u3pdkfmy0AWICdoM",
    "data": {
        "ability": {
            "value": ""
        },
        "area": {
            "areaType": "",
            "value": ""
        },
        "areasize": {
            "value": ""
        },
        "category": {
            "value": "ritual"
        },
        "components": {
            "focus": false,
            "material": false,
            "somatic": false,
            "verbal": false
        },
        "cost": {
            "value": "valuable treasures from the target dragon's hoard worth a total value of 50,000 gp"
        },
        "damage": {
            "value": {}
        },
        "description": {
            "value": "<p>You destroy the gathered treasures with your breath weapon or other powerful magic, then invoke necromantic energies before you feed upon the charred and melted remains. As you do so, negative energy courses through your flesh, automatically killing you. Each individual ravener's <em>ravenous reanimation</em> requires three to five unique additional components. Whether or not you return as a ravener depends on the success of the ritual.</p>\n<hr />\n<p><strong>Critical Success</strong> You immediately transform into a ravener upon finishing the ritual; your soul ward starts at full Hit Points (equal to 5 × your level).</p>\n<p><strong>Success</strong> You rise as a ravener 24 hours after completing the ritual, as long as your body remains relatively intact. When you rise as a ravener, your soul ward starts at 1 Hit Point.</p>\n<p><strong>Failure</strong> You rise as a ravener husk 24 hours after completing the ritual.</p>\n<p><strong>Critical Failure</strong> You die.</p>"
        },
        "duration": {
            "value": ""
        },
        "hasCounteractCheck": {
            "value": false
        },
        "level": {
            "value": 7
        },
        "location": {
            "value": ""
        },
        "materials": {
            "value": "You must be an evil dragon"
        },
        "prepared": {
            "value": ""
        },
        "primarycheck": {
            "value": "Arcana (master), Occultism (master), or Religion (master)"
        },
        "range": {
            "value": ""
        },
        "rules": [],
        "save": {
            "basic": "",
            "value": ""
        },
        "school": {
            "value": "necromancy"
        },
        "secondarycasters": {
            "value": ""
        },
        "secondarycheck": {
            "value": ""
        },
        "source": {
            "value": "Pathfinder Bestiary 2"
        },
        "spellType": {
            "value": "utility"
        },
        "sustained": {
            "value": false
        },
        "target": {
            "value": ""
        },
        "time": {
            "value": "1 day"
        },
        "traditions": {
            "custom": "",
            "value": []
        },
        "traits": {
            "custom": "",
            "rarity": "rare",
            "value": [
                "evil"
            ]
        }
    },
    "effects": [],
    "flags": {},
    "img": "systems/pf2e/icons/spells/ravenous-reanimation.webp",
    "name": "Ravenous Reanimation",
    "type": "spell"
}
