{
    "_id": "VrhCpCIQB8PFax77",
    "data": {
        "ability": {
            "value": ""
        },
        "area": {
            "value": ""
        },
        "areasize": {
            "value": ""
        },
        "category": {
            "value": "focus"
        },
        "components": {
            "material": true,
            "somatic": true,
            "verbal": true
        },
        "cost": {
            "value": ""
        },
        "damage": {
            "value": {}
        },
        "description": {
            "value": "<p><strong>Duration</strong> sustained up to 1 minute</p>\n<hr />\n<p>You create one or more glowing protective runes that revolve around you. For each additional action you use when Casting the Spell, increase the number of runes you create by one, to a maximum of three runes for 3 actions.</p>\n<p>When you next take damage from a spell, a rune is expended to prevent [[/r {2d6}[damage]]]{2d6 of that spell's damage}. If damage from the triggering spell remains, additional runes are expended until the damage is completely negated, or until all runes have been spent, whichever comes first.</p>\n<hr />\n<p><strong>Heightened (+1)</strong> Each rune prevents an additional [[/r {1}[damage]]]{1 damage}.</p>"
        },
        "duration": {
            "value": "sustained up to 1 minute"
        },
        "hasCounteractCheck": {
            "value": false
        },
        "level": {
            "value": 5
        },
        "location": {
            "value": "SxRPXF30ZP92OBPF"
        },
        "materials": {
            "value": ""
        },
        "prepared": {
            "value": ""
        },
        "primarycheck": {
            "value": ""
        },
        "range": {
            "value": ""
        },
        "rules": [],
        "save": {
            "basic": "",
            "value": ""
        },
        "school": {
            "value": "abjuration"
        },
        "secondarycasters": {
            "value": ""
        },
        "secondarycheck": {
            "value": ""
        },
        "source": {
            "value": "Pathfinder Lost Omens: Pathfinder Society Guide"
        },
        "spellType": {
            "value": "utility"
        },
        "sustained": {
            "value": false
        },
        "target": {
            "value": ""
        },
        "time": {
            "value": "1 to 3"
        },
        "traditions": {
            "custom": "",
            "value": []
        },
        "traits": {
            "custom": "",
            "rarity": "uncommon",
            "value": []
        }
    },
    "effects": [],
    "flags": {},
    "img": "systems/pf2e/icons/spells/spellmasters-ward.webp",
    "name": "Spellmaster's Ward",
    "type": "spell"
}
