{
    "_id": "Z9li154CPNmun29Q",
    "data": {
        "abilityBoostLevels": {
            "value": [
                5,
                10,
                15,
                20
            ]
        },
        "ancestryFeatLevels": {
            "value": [
                1,
                5,
                9,
                13,
                17
            ]
        },
        "attacks": {
            "advanced": 0,
            "martial": 1,
            "other": {
                "name": "Simple Firearms, Martial Firearms",
                "rank": 2
            },
            "simple": 1,
            "unarmed": 1
        },
        "classDC": 1,
        "classFeatLevels": {
            "value": [
                1,
                2,
                4,
                6,
                8,
                10,
                12,
                14,
                16,
                18,
                20
            ]
        },
        "defenses": {
            "heavy": 0,
            "light": 1,
            "medium": 1,
            "unarmored": 1
        },
        "description": {
            "value": "<p><em>While some fear projectile weapons, you savor the searing flash, wild kick, and cloying smoke that accompanies a gunshot, or snap of the cable and telltale thunk of your crossbow just before your bolt finds purchase. Ready to draw a bead on an enemy at every turn, you rely on your reflexes, steady hand, and knowledge of your weapons to riddle your foes with holes.</em></p>\n<p><strong>Key Ability: DEXTERITY</strong></p>\n<p>At 1st level, your class gives you an ability boost to Dexterity.</p>\n<p><strong>Hit Points: 8 plus your Constitution modifier</strong></p>\n<p>You increase your maximum number of HP by this number at 1st level and every level thereafter.</p>\n<h1>Roleplaying the Gunslinger</h1>\n<h2>During Combat Encounters...</h2>\n<p>You strike from range with your firearms, seeking to defeat your opponents before they can pose a true threat. Depending on your choice of weapon, you might prefer to strike your opponent from a hidden position before they ever realize you're there, dash through a frenzied melee with pistols blazing, or glide effortlessly across the battlefield, waiting for the perfect moment to end the conflict with a single, well-placed shot.</p>\n<h2>During Social Encounters...</h2>\n<p>You have a keen eye and can see things coming from farther than most. You might not be the life of the party, but your companions know to pay attention when your subtle nod or concerned grunt indicates that something's amiss.</p>\n<h2>While Exploring...</h2>\n<p>You scout the group's position for incoming threats and help search for secret doors and @Compendium[pf2e.conditionitems.Hidden]{Hidden} passages, keeping a weather eye out for unexpected threats.</p>\n<h2>In Downtime...</h2>\n<p>You might craft ammunition or keep your complex weapons clean and maintained, and you might look for work that matches your unique talents, such as working as a blacksmith, engineer, or part of the local watch. You might wander from town to town, or stay put for a spell to enjoy the silence that lingers between gunfights.</p>\n<h2>You Might...</h2>\n<ul>\n<li>Seek out areas of great conflict where your unique choice of weaponry can help build your reputation.</li>\n<li>Explore new horizons, trusting your honed senses and deadly weapon to keep you safe.</li>\n<li>Demonstrate extensive knowledge about various types of guns and ammunition, along with curiosity about the latest in gun technology.</li>\n</ul>\n<h2>Others Probably...</h2>\n<ul>\n<li>Assume that since you know how your gun works, you must also understand how to resolve other mechanical challenges.</li>\n<li>Underestimate you at first glance, thinking you rely on your gun because you lack any other skills.</li>\n<li>Respect your eternal vigilance, unyielding grit, and excellent aim.</li>\n</ul>\n<h1>Initial Proficiencies</h1>\n<p>At 1st level, you gain the listed proficiency ranks in the following statistics. You are untrained in anything not listed unless you gain a better proficiency rank in some other way.</p>\n<h2>Perception</h2>\n<p>Expert in Perception</p>\n<h2>Saving Throws</h2>\n<p>Expert in Fortitude</p>\n<p>Expert in Reflex</p>\n<p>Trained in Will</p>\n<h2>Skills</h2>\n<p>Trained in one or more skills determined by your gunslinger's way</p>\n<p>Trained in a number of additional skills equal to 3 plus your Intelligence modifier</p>\n<h2>Attacks</h2>\n<p>Expert in simple firearms and crossbows</p>\n<p>Expert in martial firearms and crossbows</p>\n<p>Trained in advanced firearms and crossbows</p>\n<p>Trained in simple weapons</p>\n<p>Trained in martial weapons</p>\n<p>Trained in unarmed attacks</p>\n<h2>Defenses</h2>\n<p>Trained in light armor</p>\n<p>Trained in medium armor</p>\n<p>Trained in unarmored defense</p>\n<h2>Class DC</h2>\n<p>Trained in gunslinger class DC</p>\n<h1>Class Features</h1>\n<p>You gain these features as a gunslinger. Abilities gained at higher levels list the levels at which you gain them next to the features' names.</p>\n<table class=\"pf2-table\">\n<thead>\n<tr>\n<th>Your Level</th>\n<th>Class Features</th>\n</tr>\n</thead>\n<tbody>\n<tr>\n<td>1</td>\n<td>Ancestry and background, initial proficiencies, gunslinger's way, initial deed, gunslinger feat, singular expertise</td>\n</tr>\n<tr>\n<td>2</td>\n<td>Gunslinger feat, skill feat</td>\n</tr>\n<tr>\n<td>3</td>\n<td>General feat, skill increase, stubborne</td>\n</tr>\n<tr>\n<td>4</td>\n<td>Gunslinger feat, skill feat</td>\n</tr>\n<tr>\n<td>5</td>\n<td>Ability boosts, ancestry feat, gunslinger weapon mastery, skill increase</td>\n</tr>\n<tr>\n<td>6</td>\n<td>Gunslinger feat, skill feat</td>\n</tr>\n<tr>\n<td>7</td>\n<td>General feat, skill increase, vigilant senses, weapon specialization</td>\n</tr>\n<tr>\n<td>8</td>\n<td>Gunslinger feat, skill feat</td>\n</tr>\n<tr>\n<td>9</td>\n<td>Advanced deed, ancestry feat, gunslinger expertise, skill increase</td>\n</tr>\n<tr>\n<td>10</td>\n<td>Ability boosts, gunslinger feat, skill feat</td>\n</tr>\n<tr>\n<td>11</td>\n<td>Evasion, general feat, skill increase</td>\n</tr>\n<tr>\n<td>12</td>\n<td>Gunslinger feat, skill feat</td>\n</tr>\n<tr>\n<td>13</td>\n<td>Ancestry feat, gunslinging legend, medium armor expertise, skill increase</td>\n</tr>\n<tr>\n<td>14</td>\n<td>Gunslinger feat, skill feat</td>\n</tr>\n<tr>\n<td>15</td>\n<td>Ability boosts, general feat, greater deed, greater weapon specialization, skill increase</td>\n</tr>\n<tr>\n<td>16</td>\n<td>Gunslinger feat, skill feat</td>\n</tr>\n<tr>\n<td>17</td>\n<td>Ancestry feat, juggernaut, shootist's edge, skill increase</td>\n</tr>\n<tr>\n<td>18</td>\n<td>Gunslinger feat, skill feat</td>\n</tr>\n<tr>\n<td>19</td>\n<td>General feat, incredible senses, medium armor mastery, skill increase</td>\n</tr>\n<tr>\n<td>20</td>\n<td>Ability boosts, gunslinger feat, skill feat</td>\n</tr>\n</tbody>\n</table>\n<h2>Ancestry and Background</h2>\n<p>In addition to the abilities provided by your class at 1st level, you have the benefits of your selected ancestry and background.</p>\n<h2>Gunslinger's Way</h2>\n<p>All gunslingers have a particular way they follow, a combination of philosophy and combat style that defines both how they fight and the weapons they excel with. At 1st level, your way grants you an initial deed, a unique reload action called a slinger's reload, and proficiency with a particular skill. You also gain advanced and greater deeds at later levels, as well as access to way-specific feats. The gunslinger ways are described in detail on page 108. The following ways are presented in this book.</p>\n<p><strong>Way of the Drifter</strong> You wander across the battlefield, equally at home in and out of the fray.</p>\n<p><strong>Way of the Pistolero</strong> You carefully maintain your distance at a duelist's 10 paces with pistol in hand.</p>\n<p><strong>Way of the Sniper</strong> You practice a methodical style of shooting, striking from far cover.</p>\n<p><strong>Way of the Vanguard</strong> You rely on a brutal combat style that uses heavy weapons and explosive attacks.</p>\n<h2>Gunslinger Feats</h2>\n<p>At 1st level and every even-numbered level, you gain a gunslinger class feat.</p>\n<h2>Singular Expertise</h2>\n<p>You have particular expertise with guns and crossbows that grants you greater proficiency with them and the ability to deal more damage. You gain a +1 circumstance bonus to damage rolls with firearms and crossbows.</p>\n<p>This intense focus on firearms and crossbows prevents you from reaching the same heights with other weapons. Your proficiency with unarmed attacks and with weapons other than firearms and crossbows can't be higher than trained, even if you gain an ability that would increase your proficiency in one or more other weapons to match your highest weapon proficiency (such as the weapon expertise feats many ancestries have). If you have gunslinger weapon mastery, the limit is expert, and if you have gunslinging legend, the limit is master.</p>\n<h2>Skill Feats<span style=\"float: right;\">Level 2</span></h2>\n<p>At 2nd level and every even-numbered level, you gain a skill feat. You must be trained or better in the corresponding skill to select a skill feat.</p>\n<h2>General Feats<span style=\"float: right;\">Level 3</span></h2>\n<p>At 3rd level and every 4 levels thereafter, you gain a general feat.</p>\n<h2>Skill Increases<span style=\"float: right;\">Level 3</span></h2>\n<p>At 3rd level and every 2 levels thereafter, you gain a skill increase. You can use this increase either to increase your proficiency rank to trained in one skill you're untrained in, or to increase your proficiency rank in one skill in which you're already trained to expert.</p>\n<p>At 7th level, you can use skill increases to become a master in a skill in which you're already an expert, and at 15th level, you can use them to become legendary in a skill in which you're already a master.</p>\n<h2>Stubborn<span style=\"float: right;\">Level 3</span></h2>\n<p>You don't like being told what to do, and you don't give up. Your proficiency rank for Will saves increases to expert. When you fail, but don't critically fail, a Will save against an effect that would give you the controlled condition, you can attempt a second save against the effect at the start of your next turn. On a successful second save, the controlled condition ends, though any other effects remain. As normal, failing this second save doesn't allow you to attempt a third save on the subsequent turn.</p>\n<h2>Ability Boosts<span style=\"float: right;\">Level 5</span></h2>\n<p>At 5th level and every 5 levels thereafter, you boost four different ability scores. You can use these ability boosts to increase your ability scores above 18. Boosting an ability score increases it by 1 if it's already 18 or above, or by 2 if it starts out below 18.</p>\n<h2>Ancestry Feats<span style=\"float: right;\">Level 5</span></h2>\n<p>In addition to the ancestry feat you started with, you gain an ancestry feat at 5th level and every 4 levels thereafter.</p>\n<h2>Gunslinger Weapon Mastery<span style=\"float: right;\">Level 5</span></h2>\n<p>You fully understand the best way to utilize your unique weapons. Your proficiency rank increases to master with simple and martial firearms and crossbows. Your proficiency rank for advanced firearms and crossbows, simple weapons, martial weapons, and unarmed attacks increases to expert. You gain access to the critical specialization effects for firearms and crossbows.</p>\n<h2>Vigilant Senses<span style=\"float: right;\">Level 7</span></h2>\n<p>Through your adventures, you've developed keen awareness and attention to detail. Your proficiency rank for Perception increases to master.</p>\n<h2>Weapon Specialization<span style=\"float: right;\">Level 7</span></h2>\n<p>You've learned how to inflict greater injuries with the weapons you know best. You deal 2 additional damage with weapons and unarmed attacks in which you are an expert. This damage increases to 3 if you're a master, and 4 if you're legendary.</p>\n<h2>Advanced Deed<span style=\"float: right;\">Level 9</span></h2>\n<p>You've learned a powerful new technique of your chosen way. You gain the advanced deed ability of the way you chose at 1st level.</p>\n<h2>Gunslinger Expertise<span style=\"float: right;\">Level 9</span></h2>\n<p>Your special shots become harder for opponents to predict or resist. Your proficiency rank for your gunslinger class DC increases to expert.</p>\n<h2>Evasion<span style=\"float: right;\">Level 11</span></h2>\n<p>You've learned to move quickly to avoid explosions, dragon's breath, and worse. Your proficiency rank for Reflex saves increases to master. When you roll a success on a Reflex save, you get a critical success instead.</p>\n<h2>Gunslinging Legend<span style=\"float: right;\">Level 13</span></h2>\n<p>You've learned unique techniques for wielding firearms and crossbows that give you unmatched skill in their use. Your proficiency rank increases to legendary with simple and martial firearms and crossbows and to master with advanced firearms and crossbows. Your proficiency rank for simple weapons, martial weapons, and unarmed attacks increases to expert.</p>\n<h2>Medium Armor Expertise<span style=\"float: right;\">Level 13</span></h2>\n<p>You've learned to defend yourself better against attacks. Your proficiency ranks for light armor, medium armor, and unarmored defense increase to expert.</p>\n<h2>Greater Deed<span style=\"float: right;\">Level 15</span></h2>\n<p>You've mastered the pinnacle technique of your chosen way. You gain the greater deed ability of the way you chose at 1st level.</p>\n<h2>Greater Weapon Specialization<span style=\"float: right;\">Level 15</span></h2>\n<p>Your damage from weapon specialization increases to 4 with weapons and unarmed attacks in which you're an expert, 6 if you're a master, and 8 if you're legendary.</p>\n<h2>Juggernaut<span style=\"float: right;\">Level 17</span></h2>\n<p>Your body has become accustomed to physical hazards and resistant to ailments. Your proficiency rank for Fortitude saves increases to master. When you roll a success on a Fortitude save, you get a critical success instead.</p>\n<h2>Shootist's Edge<span style=\"float: right;\">Level 17</span></h2>\n<p>You make shots others find impossible. Your proficiency rank for your gunslinger class DC increases to master. When using a ranged weapon in which you have master or greater proficiency, you ignore the penalty for attacking within the weapon's second and third range increments.</p>\n<h2>Incredible Senses<span style=\"float: right;\">Level 19</span></h2>\n<p>You notice things that most people can't detect. Your proficiency rank for Perception increases to legendary.</p>\n<h2>Medium Armor Mastery<span style=\"float: right;\">Level 19</span></h2>\n<p>Your skill with light and medium armor improves, increasing your ability to dodge or absorb blows. Your proficiency ranks for light armor, medium armor, and unarmored defense increase to master.</p>"
        },
        "generalFeatLevels": {
            "value": [
                3,
                7,
                11,
                15,
                19
            ]
        },
        "hp": 8,
        "items": {
            "0f5gd": {
                "id": "MV6XIuAgN9uSA0Da",
                "img": "systems/pf2e/icons/features/classes/evasion.webp",
                "level": 11,
                "name": "Evasion",
                "pack": "pf2e.classfeatures"
            },
            "182it": {
                "id": "RkofVX55ciXZyfAA",
                "img": "systems/pf2e/icons/features/classes/shootists-edge.webp",
                "level": 17,
                "name": "Shootist's Edge",
                "pack": "pf2e.classfeatures"
            },
            "1qqd9": {
                "id": "aKr6OE8vI2BsJzf1",
                "img": "systems/pf2e/icons/features/classes/gunslinger-expertise.webp",
                "level": 9,
                "name": "Gunslinger Expertise",
                "pack": "pf2e.classfeatures"
            },
            "5m24f": {
                "id": "yc9RuXXxmZ9YidH6",
                "img": "systems/pf2e/icons/features/classes/greater-deed.webp",
                "level": 15,
                "name": "Greater Deed",
                "pack": "pf2e.classfeatures"
            },
            "5vutv": {
                "id": "3JLW5vPshsJf3nCY",
                "img": "systems/pf2e/icons/features/classes/advanced-deed.webp",
                "level": 9,
                "name": "Advanced Deed",
                "pack": "pf2e.classfeatures"
            },
            "6sihc": {
                "id": "FCEp9jjxxgRJDJV3",
                "img": "systems/pf2e/icons/features/classes/medium-armor-expertise.webp",
                "level": 13,
                "name": "Medium Armor Expertise",
                "pack": "pf2e.classfeatures"
            },
            "8ndxn": {
                "id": "LDqVxLKrwEqSegiu",
                "img": "systems/pf2e/icons/features/classes/choice-feature.webp",
                "level": 1,
                "name": "Gunslinger's Way",
                "pack": "pf2e.classfeatures"
            },
            "bskyv": {
                "id": "cGMSYAErbUG5E8X2",
                "img": "systems/pf2e/icons/features/classes/medium-armor-mastery.webp",
                "level": 19,
                "name": "Medium Armor Mastery",
                "pack": "pf2e.classfeatures"
            },
            "emlsp": {
                "id": "ULOAZWZEokbJC6Rq",
                "img": "systems/pf2e/icons/features/classes/gunslinging-legend.webp",
                "level": 13,
                "name": "Gunslinging Legend",
                "pack": "pf2e.classfeatures"
            },
            "g7b2s": {
                "id": "9EqIasqfI8YIM3Pt",
                "img": "systems/pf2e/icons/features/classes/weapon-specialization.webp",
                "level": 7,
                "name": "Weapon Specialization",
                "pack": "pf2e.classfeatures"
            },
            "gfou8": {
                "id": "Wpdeh6EkcAKA60oH",
                "img": "systems/pf2e/icons/features/classes/resolve.webp",
                "level": 3,
                "name": "Stubborn",
                "pack": "pf2e.classfeatures"
            },
            "gpkfl": {
                "id": "vXbk7Nm1TOTTUNvF",
                "img": "systems/pf2e/icons/features/classes/singular-expertise.webp",
                "level": 1,
                "name": "Singular Expertise",
                "pack": "pf2e.classfeatures"
            },
            "kh0qp": {
                "id": "9nRT8aq05Fy2D3i3",
                "img": "systems/pf2e/icons/features/classes/gunslinger-weapon-mastery.webp",
                "level": 5,
                "name": "Gunslinger Weapon Mastery",
                "pack": "pf2e.classfeatures"
            },
            "pi0ik": {
                "id": "nLwPMPLRne1HnL00",
                "img": "systems/pf2e/icons/features/classes/incredible-sense.webp",
                "level": 19,
                "name": "Incredible Senses",
                "pack": "pf2e.classfeatures"
            },
            "rqnn0": {
                "id": "0npO4rPscGm0dX13",
                "img": "systems/pf2e/icons/features/classes/vigilant-senses.webp",
                "level": 7,
                "name": "Vigilant Senses",
                "pack": "pf2e.classfeatures"
            },
            "uq3mi": {
                "id": "OMZs5y16jZRW9KQK",
                "img": "systems/pf2e/icons/features/classes/juggerenaut.webp",
                "level": 17,
                "name": "Juggernaut",
                "pack": "pf2e.classfeatures"
            },
            "zmmy3": {
                "id": "Z7HX6TeFsaup7Dx9",
                "img": "systems/pf2e/icons/features/classes/greater-weapon-specialization.webp",
                "level": 15,
                "name": "Greater Weapon Specialization (Level 15)",
                "pack": "pf2e.classfeatures"
            }
        },
        "keyAbility": {
            "value": [
                "dex"
            ]
        },
        "perception": 2,
        "rules": [
            {
                "definition": {
                    "all": [
                        "weapon:category:simple"
                    ],
                    "any": [
                        "weapon:group:firearm",
                        "weapon:tag:crossbow"
                    ]
                },
                "key": "MartialProficiency",
                "label": "PF2E.SpecificRule.MartialProficiency.SimpleFirearmsCrossbows",
                "slug": "simple-firearms-crossbows",
                "value": 2
            },
            {
                "definition": {
                    "all": [
                        "weapon:category:martial"
                    ],
                    "any": [
                        "weapon:group:firearm",
                        "weapon:tag:crossbow"
                    ]
                },
                "key": "MartialProficiency",
                "label": "PF2E.SpecificRule.MartialProficiency.MartialFirearmsCrossbows",
                "slug": "martial-firearms-crossbows",
                "value": 2
            },
            {
                "definition": {
                    "all": [
                        "weapon:category:advanced"
                    ],
                    "any": [
                        "weapon:group:firearm",
                        "weapon:tag:crossbow"
                    ]
                },
                "key": "MartialProficiency",
                "label": "PF2E.SpecificRule.MartialProficiency.AdvancedFirearmsCrossbows",
                "slug": "advanced-firearms-crossbows",
                "value": 1
            }
        ],
        "savingThrows": {
            "fortitude": 2,
            "reflex": 2,
            "will": 1
        },
        "skillFeatLevels": {
            "value": [
                2,
                4,
                6,
                8,
                10,
                12,
                14,
                16,
                18,
                20
            ]
        },
        "skillIncreaseLevels": {
            "value": [
                3,
                5,
                7,
                9,
                11,
                13,
                15,
                17,
                19
            ]
        },
        "source": {
            "value": "Pathfinder Guns & Gears"
        },
        "trainedSkills": {
            "additional": 3,
            "value": []
        },
        "traits": {
            "custom": "",
            "rarity": "uncommon",
            "value": []
        }
    },
    "effects": [],
    "flags": {},
    "img": "systems/pf2e/icons/classes/gunslinger.webp",
    "name": "Gunslinger",
    "type": "class"
}
