{
    "_id": "HjfIXg5btodThCTW",
    "data": {
        "description": {
            "value": "<p>A disrupting weapon pulses with positive energy, dealing an extra [[/r {2d6}[positive]]]{2d6 positive damage} to undead. On a critical hit, the undead creature must attempt a DC 34 Fortitude save with the following effects. This is an incapacitation effect.</p>\n<hr />\n<p><strong>Critical Success</strong> It's @Compendium[pf2e.conditionitems.Enfeebled]{Enfeebled 1} until the end of your next turn.</p>\n<p><strong>Success</strong> It's @Compendium[pf2e.conditionitems.Enfeebled]{Enfeebled 2} until the end of your next turn.</p>\n<p><strong>Failure</strong> It's @Compendium[pf2e.conditionitems.Enfeebled]{Enfeebled 3} until the end of your next turn.</p>\n<p><strong>Critical Failure</strong> It's destroyed.</p>"
        },
        "duration": {
            "expiry": "turn-start",
            "sustained": false,
            "unit": "unlimited",
            "value": -1
        },
        "level": {
            "value": 1
        },
        "rules": [
            {
                "key": "EffectTarget",
                "scope": "weapon"
            },
            {
                "key": "Note",
                "selector": "{item|data.target}-damage",
                "text": "<strong>Disrupting (Greater)</strong> On a critical hit, the undead creature must attempt a DC 34 Fortitude save with the following effects. This is an incapacitation effect.<ul><li><strong>Critical Success</strong> It's @Compendium[pf2e.conditionitems.Enfeebled]{Enfeebled 1} until the end of your next turn.</li><li><strong>Success</strong> It's @Compendium[pf2e.conditionitems.Enfeebled]{Enfeebled 2} until the end of your next turn.</li><li><strong>Failure</strong> It's @Compendium[pf2e.conditionitems.Enfeebled]{Enfeebled 3} until the end of your next turn.</li><li><strong>Critical Failure</strong> It's destroyed.</li></ul>"
            },
            {
                "damageType": "positive",
                "diceNumber": 2,
                "dieSize": "d6",
                "key": "DamageDice",
                "selector": "{item|data.target}-damage"
            }
        ],
        "source": {
            "value": ""
        },
        "start": {
            "initiative": null,
            "value": 0
        },
        "target": null,
        "tokenIcon": {
            "show": true
        },
        "traits": {
            "custom": "",
            "rarity": "common",
            "value": []
        }
    },
    "effects": [],
    "flags": {},
    "img": "systems/pf2e/icons/equipment/runes/weapon-property-runes/weapon-property-runes.webp",
    "name": "Effect: Blade Ally Disrupting Rune (Greater)",
    "type": "effect"
}
