{
    "_id": "W8HWQ47YNHWB8kj6",
    "data": {
        "badge": null,
        "description": {
            "value": "<p>When an ally within your overwatch field attempts to @Compendium[pf2e.actionspf2e.Disarm]{Disarm}, @Compendium[pf2e.actionspf2e.Shove]{Shove}, or @Compendium[pf2e.actionspf2e.Trip]{Trip} an opponent within your overwatch field and fails, you coordinate efforts to provide a +2 circumstance bonus to the next Athletics check rolled by a different ally to attempt the same action on the same target before that target's next turn.</p>"
        },
        "duration": {
            "expiry": "turn-start",
            "sustained": false,
            "unit": "rounds",
            "value": 1
        },
        "level": {
            "value": 1
        },
        "rules": [
            {
                "key": "FlatModifier",
                "selector": "athletics",
                "type": "circumstance",
                "value": 2
            }
        ],
        "source": {
            "value": ""
        },
        "start": {
            "initiative": null,
            "value": 0
        },
        "target": null,
        "tokenIcon": {
            "show": true
        },
        "traits": {
            "custom": "",
            "rarity": "common",
            "value": []
        }
    },
    "effects": [],
    "flags": {},
    "img": "systems/pf2e/icons/features/feats/topple-giants.webp",
    "name": "Effect: Topple Giants",
    "type": "effect"
}
