{
    "_id": "uqjx1bwYduHwwC7d",
    "data": {
        "badge": null,
        "description": {
            "value": ""
        },
        "duration": {
            "expiry": "turn-start",
            "sustained": false,
            "unit": "rounds",
            "value": 1
        },
        "level": {
            "value": 1
        },
        "rules": [
            {
                "domain": "all",
                "key": "RollOption",
                "label": "Attacking designated target",
                "option": "guidingWordsTarget",
                "toggleable": true
            },
            {
                "key": "FlatModifier",
                "predicate": {
                    "all": [
                        "guidingWordsTarget"
                    ]
                },
                "selector": "attack",
                "type": "status",
                "value": 1
            },
            {
                "key": "FlatModifier",
                "predicate": {
                    "all": [
                        "guidingWordsTarget"
                    ]
                },
                "selector": "strike-damage",
                "type": "status",
                "value": 1
            }
        ],
        "source": {
            "value": ""
        },
        "start": {
            "initiative": null,
            "value": 0
        },
        "target": null,
        "tokenIcon": {
            "show": true
        },
        "traits": {
            "custom": "",
            "rarity": "common",
            "value": []
        }
    },
    "effects": [],
    "flags": {},
    "img": "systems/pf2e/icons/spells/agitate.webp",
    "name": "Effect: Guiding Words",
    "type": "effect"
}
