{
    "_id": "5syHrFGAE6lo0FUr",
    "data": {
        "badge": null,
        "description": {
            "value": "<p>The creature gains a +1 status bonus to attack rolls and 10 temporary Hit Points.</p>"
        },
        "duration": {
            "expiry": "turn-start",
            "sustained": false,
            "unit": "minutes",
            "value": 10
        },
        "level": {
            "value": 4
        },
        "rules": [
            {
                "key": "FlatModifier",
                "selector": "attack",
                "type": "status",
                "value": 1
            },
            {
                "key": "TempHP",
                "value": 10
            }
        ],
        "source": {
            "value": "Pathfinder Bestiary"
        },
        "start": {
            "initiative": null,
            "value": 0
        },
        "target": null,
        "tokenIcon": {
            "show": true
        },
        "traits": {
            "custom": "",
            "rarity": "common",
            "value": []
        }
    },
    "effects": [],
    "flags": {},
    "img": "systems/pf2e/icons/spells/inspire-courage.webp",
    "name": "Effect: Invigorating Passion",
    "type": "effect"
}
