{
    "_id": "o6ZI01zZBQDASuaw",
    "data": {
        "badge": null,
        "description": {
            "value": "<p>The barghest gains Speed 40 and its jaws gain @Compendium[pf2e.bestiary-ability-glossary-srd.Knockdown]{Knockdown}.</p>"
        },
        "duration": {
            "expiry": "turn-start",
            "sustained": false,
            "unit": "unlimited",
            "value": -1
        },
        "level": {
            "value": 1
        },
        "rules": [
            {
                "key": "BaseSpeed",
                "value": 40
            },
            {
                "key": "GrantItem",
                "uuid": "Compendium.pf2e.bestiary-ability-glossary-srd.Knockdown"
            },
            {
                "key": "Note",
                "selector": "jaws-attack",
                "text": "<div data-visibility='gm'><p><strong><span class='pf2-icon'>1</span> @Localize[PF2E.AttackEffectKnockdown]</strong> ({item|name})</p>@Localize[PF2E.NPC.Abilities.Glossary.Knockdown]</div>"
            }
        ],
        "source": {
            "value": "Pathfinder Bestiary"
        },
        "start": {
            "initiative": null,
            "value": 0
        },
        "target": null,
        "tokenIcon": {
            "show": true
        },
        "traits": {
            "custom": "",
            "rarity": "common",
            "value": []
        }
    },
    "effects": [],
    "flags": {},
    "img": "systems/pf2e/icons/spells/beastmaster-trance.webp",
    "name": "Effect: Wolf Shape",
    "type": "effect"
}
