{
    "_id": "vbxcQIjLVWa43sdt",
    "data": {
        "description": {
            "value": "<p>The rock gains the deadly trait with 3d12, and a creature hit with the rock is @Compendium[pf2e.conditionitems.Drained]{Drained 1} unless it succeeds at a @Check[type:fortitude|dc:35|name:Rune of Destruction|traits:arcane] save.</p>"
        },
        "duration": {
            "expiry": "turn-start",
            "sustained": false,
            "unit": "minutes",
            "value": 1
        },
        "level": {
            "value": 16
        },
        "rules": [
            {
                "key": "Note",
                "selector": "rock-attack",
                "text": "<div data-visibility='gm'><p><strong>{item|name}</strong></p>{item|data.description.value}</div>"
            },
            {
                "critical": true,
                "diceNumber": 3,
                "dieSize": "d12",
                "key": "DamageDice",
                "selector": "rock-damage"
            }
        ],
        "source": {
            "value": "Pathfinder Bestiary"
        },
        "start": {
            "initiative": null,
            "value": 0
        },
        "target": null,
        "tokenIcon": {
            "show": true
        },
        "traits": {
            "custom": "",
            "rarity": "common",
            "value": []
        }
    },
    "effects": [],
    "flags": {},
    "img": "systems/pf2e/icons/equipment/runes/armor-property-runes/armor-property-runes.webp",
    "name": "Effect: Rune of Destruction (Rock)",
    "type": "effect"
}
