{
    "_id": "USMuxi8ACBJRUrdS",
    "data": {
        "badge": null,
        "description": {
            "value": "<p>The bunyip gains a land Speed of 20 feet, but it's Jaws Strike looses the persistent bleed damage.</p>"
        },
        "duration": {
            "expiry": "turn-start",
            "sustained": false,
            "unit": "unlimited",
            "value": -1
        },
        "level": {
            "value": 3
        },
        "rules": [
            {
                "key": "BaseSpeed",
                "selector": "land-speed",
                "value": 20
            }
        ],
        "source": {
            "value": "Pathfinder Bestiary"
        },
        "start": {
            "initiative": null,
            "value": 0
        },
        "target": null,
        "tokenIcon": {
            "show": true
        },
        "traits": {
            "custom": "",
            "rarity": "common",
            "value": []
        }
    },
    "effects": [],
    "flags": {},
    "img": "systems/pf2e/icons/unarmed-attacks/foot.webp",
    "name": "Effect: Crocodile Form",
    "type": "effect"
}
