{
    "_id": "361dIAAhiZE0wg8v",
    "data": {
        "badge": null,
        "description": {
            "value": "<p>The creature's melee strikes count either as adamantine, cold iron or silver.</p>"
        },
        "duration": {
            "expiry": "turn-start",
            "sustained": false,
            "unit": "minutes",
            "value": 1
        },
        "level": {
            "value": 7
        },
        "rules": [
            {
                "choices": [
                    {
                        "label": "PF2E.AdamantineStrikes",
                        "value": "adamantine"
                    },
                    {
                        "label": "PF2E.ColdIronStrikes",
                        "value": "coldIron"
                    },
                    {
                        "label": "PF2E.SilverStrikes",
                        "value": "silver"
                    }
                ],
                "flag": "strikeChoice",
                "key": "ChoiceSet"
            },
            {
                "key": "Note",
                "selector": "attack",
                "text": "<p class='compact-text' data-visibility='gm'>{item|name}</p>"
            }
        ],
        "source": {
            "value": "Pathfinder Bestiary"
        },
        "start": {
            "initiative": null,
            "value": 0
        },
        "target": null,
        "tokenIcon": {
            "show": true
        },
        "traits": {
            "custom": "",
            "rarity": "common",
            "value": []
        }
    },
    "effects": [],
    "flags": {},
    "img": "systems/pf2e/icons/unarmed-attacks/bone-shard.webp",
    "name": "Effect: Adaptive Strike",
    "type": "effect"
}
