{
    "_id": "PPViJTXbCAKWSl0X",
    "content": "<p>Play during your turn.</p>\n<hr />\n<p>Select yourself or an ally within reach. The target regains [[/r {1d8+8}[healing]]]{1d8+8 Hit Points}. If you are 7th level or higher, the target regains [[/r {2d8+16}[healing]]]{2d8+16 Hit Points}. If you are 12th level or higher, the target regains [[/r {3d8+24}[healing]]]{3d8+24 Hit Points}.</p>",
    "flags": {},
    "name": "Healing Prayer",
    "permission": {
        "default": 0
    }
}
