{
    "_id": "UKGbCdZlsWmjZiFN",
    "data": {
        "attributes": {
            "ac": {
                "value": 18
            },
            "hardness": 8,
            "hasHealth": true,
            "hp": {
                "details": "",
                "max": 32,
                "temp": 0,
                "value": 32
            },
            "stealth": {
                "details": "<p>(trained)</p>",
                "value": 11
            }
        },
        "creatureType": "",
        "details": {
            "description": "<p>Ceiling sprinklers spray in response to any fire in the room.</p>",
            "disable": "<p>@Check[type:thievery|dc:17|name:Neutralize Automatic Fire Suppression|traits:mechanical,trap] (trained) to jam the sprinkler system or @Check[type:engineering-lore|dc:15|name:Disable Control Panel|traits:mechanical,trap]{Engineering Lore} (trained) on the control panel on the north wall to turn the system off.</p>",
            "isComplex": false,
            "level": {
                "value": 2
            },
            "reset": "",
            "routine": ""
        },
        "saves": {
            "fortitude": {
                "saveDetail": "",
                "value": 11
            },
            "reflex": {
                "saveDetail": "",
                "value": 5
            },
            "will": {
                "saveDetail": "",
                "value": 0
            }
        },
        "source": {
            "value": "Pathfinder Society Quest #9: Wayfinder Origins"
        },
        "statusEffects": [],
        "traits": {
            "ci": [],
            "di": {
                "custom": "",
                "selected": {},
                "value": [
                    "precision",
                    "critical-hits",
                    "object-immunities"
                ]
            },
            "dr": [],
            "dv": [],
            "rarity": "common",
            "size": {
                "value": "med"
            },
            "traits": {
                "custom": "",
                "value": [
                    "mechanical",
                    "trap"
                ]
            }
        }
    },
    "effects": [],
    "flags": {},
    "img": "systems/pf2e/icons/default-icons/hazard.svg",
    "items": [
        {
            "_id": "srjVPJTKVNNvl598",
            "data": {
                "actionCategory": {
                    "value": "offensive"
                },
                "actionType": {
                    "value": "reaction"
                },
                "actions": {
                    "value": null
                },
                "description": {
                    "value": "<p data-visibility=\"gm\"><strong>Trigger</strong> Fire damage is dealt in area A1</p>\n<p><strong>Effect</strong> Frozen fire retardant rains down on all creatures in area A1, dealing [[/r {2d10+7}[cold]]]{2d10+7 cold damage} (@Check[type:reflex|dc:20|basic:true]).<span data-visibility=\"gm\"> Any persistent fire damage in area A1 ends.</span></p>"
                },
                "requirements": {
                    "value": ""
                },
                "rules": [],
                "slug": null,
                "source": {
                    "value": ""
                },
                "traits": {
                    "custom": "",
                    "rarity": "common",
                    "value": [
                        "cold"
                    ]
                },
                "trigger": {
                    "value": ""
                },
                "weapon": {
                    "value": ""
                }
            },
            "effects": [],
            "flags": {},
            "img": "systems/pf2e/icons/actions/Reaction.webp",
            "name": "Overloaded Extinguisher",
            "sort": 0,
            "type": "action"
        }
    ],
    "name": "Automatic Fire Suppression (3-4)",
    "token": {
        "disposition": 0,
        "height": 1,
        "img": "systems/pf2e/icons/default-icons/hazard.svg",
        "name": "Automatic Fire Suppression",
        "width": 1
    },
    "type": "hazard"
}
